EESchema Schematic File Version 4
EELAYER 30 0
EELAYER END
$Descr A4 11693 8268
encoding utf-8
Sheet 1 1
Title ""
Date ""
Rev ""
Comp ""
Comment1 ""
Comment2 ""
Comment3 ""
Comment4 ""
$EndDescr
$Comp
L Device:R_US R1
U 1 1 5D9FF96E
P 1700 1900
F 0 "R1" V 1495 1900 50  0000 C CNN
F 1 "30k" V 1586 1900 50  0000 C CNN
F 2 "" V 1740 1890 50  0001 C CNN
F 3 "~" H 1700 1900 50  0001 C CNN
	1    1700 1900
	0    1    1    0   
$EndComp
$Comp
L pspice:OPAMP U2
U 1 1 5D9FFF66
P 3500 2000
F 0 "U2" H 3500 1519 50  0000 C CNN
F 1 "OPAMP" H 3500 1610 50  0000 C CNN
F 2 "" H 3500 2000 50  0001 C CNN
F 3 "~" H 3500 2000 50  0001 C CNN
F 4 "X" H 3500 2000 50  0001 C CNN "Spice_Primitive"
F 5 "LF356/NS" H 3500 2000 50  0001 C CNN "Spice_Model"
F 6 "Y" H 3500 2000 50  0001 C CNN "Spice_Netlist_Enabled"
F 7 "/Users/russruss/proj/poly_notes/notes/hardware/ssm2164/LF356.MOD" H 3500 2000 50  0001 C CNN "Spice_Lib_File"
F 8 "1 2 4 5 3" H 3500 2000 50  0001 C CNN "Spice_Node_Sequence"
	1    3500 2000
	1    0    0    1   
$EndComp
$Comp
L Device:R_US R2
U 1 1 5DA00A70
P 3700 2550
F 0 "R2" V 3495 2550 50  0000 C CNN
F 1 "30k" V 3586 2550 50  0000 C CNN
F 2 "" V 3740 2540 50  0001 C CNN
F 3 "~" H 3700 2550 50  0001 C CNN
	1    3700 2550
	0    1    1    0   
$EndComp
Wire Wire Line
	2400 2350 2400 2450
Wire Wire Line
	3000 1900 3000 2550
Wire Wire Line
	3000 2550 3550 2550
Wire Wire Line
	3000 1900 3200 1900
Wire Wire Line
	3850 2550 3950 2550
Wire Wire Line
	3950 2550 3950 2000
Wire Wire Line
	3950 2000 3800 2000
Wire Wire Line
	3950 2000 4300 2000
Connection ~ 3950 2000
Text GLabel 4300 2000 2    50   Input ~ 0
out
Text GLabel 1400 1900 0    50   Input ~ 0
in
Wire Wire Line
	1400 1900 1550 1900
Text GLabel 2400 2450 3    50   Input ~ 0
control
$Comp
L power:GND #PWR01
U 1 1 5DA04ECC
P 3150 2100
F 0 "#PWR01" H 3150 1850 50  0001 C CNN
F 1 "GND" V 3250 2150 50  0000 R CNN
F 2 "" H 3150 2100 50  0001 C CNN
F 3 "" H 3150 2100 50  0001 C CNN
	1    3150 2100
	0    1    1    0   
$EndComp
Wire Wire Line
	3150 2100 3200 2100
Wire Wire Line
	3400 1700 3400 1450
$Comp
L power:VCC #PWR02
U 1 1 5DA05508
P 3400 2350
F 0 "#PWR02" H 3400 2200 50  0001 C CNN
F 1 "VCC" H 3418 2523 50  0000 C CNN
F 2 "" H 3400 2350 50  0001 C CNN
F 3 "" H 3400 2350 50  0001 C CNN
	1    3400 2350
	-1   0    0    1   
$EndComp
Wire Wire Line
	3400 2300 3400 2350
$Comp
L power:VEE #PWR03
U 1 1 5DA05EED
P 3400 1450
F 0 "#PWR03" H 3400 1300 50  0001 C CNN
F 1 "VEE" H 3550 1550 50  0000 C CNN
F 2 "" H 3400 1450 50  0001 C CNN
F 3 "" H 3400 1450 50  0001 C CNN
	1    3400 1450
	1    0    0    -1  
$EndComp
$Comp
L pspice:VSOURCE V4
U 1 1 5DA06896
P 7300 3200
F 0 "V4" H 7528 3246 50  0000 L CNN
F 1 "-0.2" H 7528 3155 50  0000 L CNN
F 2 "" H 7300 3200 50  0001 C CNN
F 3 "~" H 7300 3200 50  0001 C CNN
	1    7300 3200
	1    0    0    -1  
$EndComp
$Comp
L pspice:VSOURCE V3
U 1 1 5DA08E1F
P 6400 3200
F 0 "V3" H 6628 3246 50  0000 L CNN
F 1 "sin(0 1 440)" V 6800 3050 50  0000 L CNN
F 2 "" H 6400 3200 50  0001 C CNN
F 3 "~" H 6400 3200 50  0001 C CNN
	1    6400 3200
	1    0    0    -1  
$EndComp
$Comp
L pspice:VSOURCE V2
U 1 1 5DA09258
P 5750 3200
F 0 "V2" H 5978 3246 50  0000 L CNN
F 1 "12" H 5978 3155 50  0000 L CNN
F 2 "" H 5750 3200 50  0001 C CNN
F 3 "~" H 5750 3200 50  0001 C CNN
	1    5750 3200
	1    0    0    -1  
$EndComp
$Comp
L pspice:VSOURCE V1
U 1 1 5DA09808
P 5050 3200
F 0 "V1" H 5278 3246 50  0000 L CNN
F 1 "-5" H 5278 3155 50  0000 L CNN
F 2 "" H 5050 3200 50  0001 C CNN
F 3 "~" H 5050 3200 50  0001 C CNN
	1    5050 3200
	1    0    0    -1  
$EndComp
$Comp
L power:GND #PWR05
U 1 1 5DA09D86
P 5050 3550
F 0 "#PWR05" H 5050 3300 50  0001 C CNN
F 1 "GND" V 5150 3600 50  0000 R CNN
F 2 "" H 5050 3550 50  0001 C CNN
F 3 "" H 5050 3550 50  0001 C CNN
	1    5050 3550
	1    0    0    -1  
$EndComp
Wire Wire Line
	5050 3500 5050 3550
$Comp
L power:VEE #PWR04
U 1 1 5DA0B427
P 5050 2850
F 0 "#PWR04" H 5050 2700 50  0001 C CNN
F 1 "VEE" V 5050 3050 50  0000 C CNN
F 2 "" H 5050 2850 50  0001 C CNN
F 3 "" H 5050 2850 50  0001 C CNN
	1    5050 2850
	1    0    0    -1  
$EndComp
$Comp
L power:GND #PWR07
U 1 1 5DA0D41D
P 5750 3550
F 0 "#PWR07" H 5750 3300 50  0001 C CNN
F 1 "GND" V 5850 3600 50  0000 R CNN
F 2 "" H 5750 3550 50  0001 C CNN
F 3 "" H 5750 3550 50  0001 C CNN
	1    5750 3550
	1    0    0    -1  
$EndComp
Wire Wire Line
	5750 3500 5750 3550
Wire Wire Line
	5050 2900 5050 2850
$Comp
L power:VCC #PWR06
U 1 1 5DA0E2EE
P 5750 2850
F 0 "#PWR06" H 5750 2700 50  0001 C CNN
F 1 "VCC" H 5767 3023 50  0000 C CNN
F 2 "" H 5750 2850 50  0001 C CNN
F 3 "" H 5750 2850 50  0001 C CNN
	1    5750 2850
	1    0    0    -1  
$EndComp
Wire Wire Line
	5750 2850 5750 2900
$Comp
L power:GND #PWR08
U 1 1 5DA0F4AB
P 6400 3550
F 0 "#PWR08" H 6400 3300 50  0001 C CNN
F 1 "GND" V 6500 3600 50  0000 R CNN
F 2 "" H 6400 3550 50  0001 C CNN
F 3 "" H 6400 3550 50  0001 C CNN
	1    6400 3550
	1    0    0    -1  
$EndComp
Wire Wire Line
	6400 3500 6400 3550
Wire Wire Line
	6400 2900 6400 2750
$Comp
L power:GND #PWR09
U 1 1 5DA10B84
P 7300 3550
F 0 "#PWR09" H 7300 3300 50  0001 C CNN
F 1 "GND" V 7400 3600 50  0000 R CNN
F 2 "" H 7300 3550 50  0001 C CNN
F 3 "" H 7300 3550 50  0001 C CNN
	1    7300 3550
	1    0    0    -1  
$EndComp
Wire Wire Line
	7300 3550 7300 3500
Wire Wire Line
	7300 2900 7300 2700
Text GLabel 7300 2700 1    50   Input ~ 0
control
Text GLabel 6400 2750 1    50   Input ~ 0
in
Text Notes 4850 1750 0    50   ~ 0
.tran 0.1ms 10ms
$Comp
L local:SSM2164 U1
U 2 1 5DA15E55
P 2400 1900
F 0 "U1" H 2450 2315 50  0000 C CNN
F 1 "SSM2164" H 2450 2224 50  0000 C CNN
F 2 "" H 2400 1900 50  0001 C CNN
F 3 "" H 2400 1900 50  0001 C CNN
F 4 "X" H 2400 1900 50  0001 C CNN "Spice_Primitive"
F 5 "SSM2164" H 2400 1900 50  0001 C CNN "Spice_Model"
F 6 "Y" H 2400 1900 50  0001 C CNN "Spice_Netlist_Enabled"
F 7 "2 4 3" H 2400 1900 50  0001 C CNN "Spice_Node_Sequence"
F 8 "/Users/russruss/proj/poly_notes/notes/hardware/ssm2164/ssm2164_basic.mod" H 2400 1900 50  0001 C CNN "Spice_Lib_File"
	2    2400 1900
	1    0    0    -1  
$EndComp
Wire Wire Line
	1850 1900 2100 1900
Wire Wire Line
	2800 1900 3000 1900
Connection ~ 3000 1900
$EndSCHEMATC
