EESchema Schematic File Version 4
EELAYER 30 0
EELAYER END
$Descr A4 11693 8268
encoding utf-8
Sheet 1 1
Title ""
Date ""
Rev ""
Comp ""
Comment1 ""
Comment2 ""
Comment3 ""
Comment4 ""
$EndDescr
Text GLabel 1300 1200 0    50   Input ~ 0
in_tri
$Comp
L Device:R_US R1
U 1 1 5D990AF4
P 1550 1200
F 0 "R1" V 1345 1200 50  0000 C CNN
F 1 "100k" V 1436 1200 50  0000 C CNN
F 2 "" V 1590 1190 50  0001 C CNN
F 3 "~" H 1550 1200 50  0001 C CNN
	1    1550 1200
	0    1    1    0   
$EndComp
Wire Wire Line
	1300 1200 1400 1200
Wire Wire Line
	1700 1200 1850 1200
$Comp
L Device:R_US R2
U 1 1 5D990AFC
P 1850 1500
F 0 "R2" H 1782 1454 50  0000 R CNN
F 1 "35.7k" H 1782 1545 50  0000 R CNN
F 2 "" V 1890 1490 50  0001 C CNN
F 3 "~" H 1850 1500 50  0001 C CNN
	1    1850 1500
	-1   0    0    1   
$EndComp
Wire Wire Line
	1850 1200 1850 1350
$Comp
L pspice:0 #GND01
U 1 1 5D990B03
P 1850 1800
F 0 "#GND01" H 1850 1700 50  0001 C CNN
F 1 "0" H 1850 1889 50  0000 C CNN
F 2 "" H 1850 1800 50  0001 C CNN
F 3 "~" H 1850 1800 50  0001 C CNN
	1    1850 1800
	1    0    0    -1  
$EndComp
Wire Wire Line
	1850 1650 1850 1800
Connection ~ 1850 1200
$Comp
L Transistor_BJT:2N3904 Q1
U 1 1 5D990B0F
P 2500 1200
F 0 "Q1" H 2690 1246 50  0000 L CNN
F 1 "2N3904" H 2690 1155 50  0000 L CNN
F 2 "Package_TO_SOT_THT:TO-92_Inline" H 2700 1125 50  0001 L CIN
F 3 "https://www.fairchildsemi.com/datasheets/2N/2N3904.pdf" H 2500 1200 50  0001 L CNN
F 4 "Q" H 2500 1200 50  0001 C CNN "Spice_Primitive"
F 5 "2N3904A" H 2500 1200 50  0001 C CNN "Spice_Model"
F 6 "Y" H 2500 1200 50  0001 C CNN "Spice_Netlist_Enabled"
F 7 "2n3904-2.lib" H 2500 1200 50  0001 C CNN "Spice_Lib_File"
F 8 "3 2 1" H 2500 1200 50  0001 C CNN "Spice_Node_Sequence"
	1    2500 1200
	1    0    0    -1  
$EndComp
Wire Wire Line
	2600 1000 2600 850 
Text GLabel 2600 2000 0    50   Input ~ 0
v-
Wire Wire Line
	2600 1850 2600 2000
Wire Wire Line
	2600 1550 2600 1450
Connection ~ 2600 1450
Wire Wire Line
	2600 1450 2600 1400
Text GLabel 3100 1450 1    50   Input ~ 0
out_tri
Wire Wire Line
	2600 1450 3500 1450
$Comp
L Device:R_US R3
U 1 1 5D990B1D
P 2600 1700
F 0 "R3" H 2532 1654 50  0000 R CNN
F 1 "100k" H 2532 1745 50  0000 R CNN
F 2 "" V 2640 1690 50  0001 C CNN
F 3 "~" H 2600 1700 50  0001 C CNN
	1    2600 1700
	-1   0    0    1   
$EndComp
Wire Wire Line
	1850 1200 2300 1200
$Comp
L Device:R_US R4
U 1 1 5D990B24
P 3500 1650
F 0 "R4" H 3432 1604 50  0000 R CNN
F 1 "100k" H 3432 1695 50  0000 R CNN
F 2 "" V 3540 1640 50  0001 C CNN
F 3 "~" H 3500 1650 50  0001 C CNN
	1    3500 1650
	-1   0    0    1   
$EndComp
$Comp
L pspice:0 #GND02
U 1 1 5D990B2A
P 3500 1900
F 0 "#GND02" H 3500 1800 50  0001 C CNN
F 1 "0" H 3500 1989 50  0000 C CNN
F 2 "" H 3500 1900 50  0001 C CNN
F 3 "~" H 3500 1900 50  0001 C CNN
	1    3500 1900
	1    0    0    -1  
$EndComp
Wire Wire Line
	3500 1800 3500 1900
Wire Wire Line
	3500 1450 3500 1500
$Comp
L pspice:0 #GND03
U 1 1 5D994EB2
P 4350 1850
F 0 "#GND03" H 4350 1750 50  0001 C CNN
F 1 "0" H 4350 1939 50  0000 C CNN
F 2 "" H 4350 1850 50  0001 C CNN
F 3 "~" H 4350 1850 50  0001 C CNN
	1    4350 1850
	1    0    0    -1  
$EndComp
$Comp
L pspice:VSOURCE V1
U 1 1 5D994EB8
P 4350 1500
F 0 "V1" H 4578 1546 50  0000 L CNN
F 1 "12" H 4578 1455 50  0000 L CNN
F 2 "" H 4350 1500 50  0001 C CNN
F 3 "~" H 4350 1500 50  0001 C CNN
	1    4350 1500
	1    0    0    -1  
$EndComp
Wire Wire Line
	4350 1800 4350 1850
Wire Wire Line
	4350 1200 4350 1150
Text GLabel 4350 1150 0    50   Input ~ 0
v+
$Comp
L pspice:0 #GND04
U 1 1 5D994EC1
P 5000 1850
F 0 "#GND04" H 5000 1750 50  0001 C CNN
F 1 "0" H 5000 1939 50  0000 C CNN
F 2 "" H 5000 1850 50  0001 C CNN
F 3 "~" H 5000 1850 50  0001 C CNN
	1    5000 1850
	1    0    0    -1  
$EndComp
Wire Wire Line
	5000 1800 5000 1850
Wire Wire Line
	5000 1200 5000 1150
Text GLabel 5000 1150 0    50   Input ~ 0
v-
$Comp
L pspice:VSOURCE VTri1
U 1 1 5D994ECD
P 5750 1500
F 0 "VTri1" H 5978 1546 50  0000 L CNN
F 1 "4" H 5978 1455 50  0000 L CNN
F 2 "" H 5750 1500 50  0001 C CNN
F 3 "~" H 5750 1500 50  0001 C CNN
F 4 "V" H 5750 1500 50  0001 C CNN "Spice_Primitive"
F 5 "4" H 5750 1500 50  0001 C CNN "Spice_Model"
F 6 "Y" H 5750 1500 50  0001 C CNN "Spice_Netlist_Enabled"
	1    5750 1500
	1    0    0    -1  
$EndComp
$Comp
L pspice:0 #GND05
U 1 1 5D994ED3
P 5750 1850
F 0 "#GND05" H 5750 1750 50  0001 C CNN
F 1 "0" H 5750 1939 50  0000 C CNN
F 2 "" H 5750 1850 50  0001 C CNN
F 3 "~" H 5750 1850 50  0001 C CNN
	1    5750 1850
	1    0    0    -1  
$EndComp
Wire Wire Line
	5750 1800 5750 1850
Wire Wire Line
	5750 1200 5750 1150
Text GLabel 5750 1150 0    50   Input ~ 0
in_tri
$Comp
L pspice:VSOURCE V2
U 1 1 5D994EDC
P 5000 1500
F 0 "V2" H 5228 1546 50  0000 L CNN
F 1 "-5" H 5228 1455 50  0000 L CNN
F 2 "" H 5000 1500 50  0001 C CNN
F 3 "~" H 5000 1500 50  0001 C CNN
	1    5000 1500
	1    0    0    -1  
$EndComp
Text GLabel 2600 850  0    50   Input ~ 0
v+
Text Notes 5050 2600 0    50   ~ 0
.DC VTri1 0 4 1\n
$EndSCHEMATC
