EESchema Schematic File Version 4
EELAYER 30 0
EELAYER END
$Descr USLetter 11000 8500
encoding utf-8
Sheet 3 4
Title ""
Date ""
Rev ""
Comp ""
Comment1 ""
Comment2 ""
Comment3 ""
Comment4 ""
$EndDescr
$Comp
L Device:Opamp_Quad_Generic U10
U 1 1 5DA54AC4
P 1400 1950
F 0 "U10" H 1500 1800 50  0000 C CNN
F 1 "LF347" H 1500 2100 50  0000 C CNN
F 2 "Package_SO:SOIC-14_3.9x8.7mm_P1.27mm" H 1400 1950 50  0001 C CNN
F 3 "~" H 1400 1950 50  0001 C CNN
	1    1400 1950
	1    0    0    1   
$EndComp
$Comp
L power:GND #PWR051
U 1 1 5DA57E68
P 1050 2050
F 0 "#PWR051" H 1050 1800 50  0001 C CNN
F 1 "GND" V 1150 2100 50  0000 R CNN
F 2 "" H 1050 2050 50  0001 C CNN
F 3 "" H 1050 2050 50  0001 C CNN
	1    1050 2050
	0    1    1    0   
$EndComp
Wire Wire Line
	1050 2050 1100 2050
Wire Wire Line
	1100 1850 1000 1850
Text HLabel 800  850  0    50   Input ~ 0
IN
$Comp
L Device:R_US R64
U 1 1 5DA59011
P 1350 1650
F 0 "R64" V 1300 1500 50  0000 C CNN
F 1 "36k" V 1300 1800 50  0000 C CNN
F 2 "Resistor_SMD:R_0603_1608Metric" V 1390 1640 50  0001 C CNN
F 3 "~" H 1350 1650 50  0001 C CNN
	1    1350 1650
	0    1    1    0   
$EndComp
Wire Wire Line
	1200 1650 1000 1650
Wire Wire Line
	1000 1650 1000 1850
Connection ~ 1000 1850
Wire Wire Line
	1000 1850 800  1850
Wire Wire Line
	1500 1650 1750 1650
Wire Wire Line
	1750 1650 1750 1950
Wire Wire Line
	1750 1950 1700 1950
$Comp
L Device:R_US R63
U 1 1 5DA5AD24
P 1350 1500
F 0 "R63" V 1300 1350 50  0000 C CNN
F 1 "36k" V 1300 1650 50  0000 C CNN
F 2 "Resistor_SMD:R_0603_1608Metric" V 1390 1490 50  0001 C CNN
F 3 "~" H 1350 1500 50  0001 C CNN
	1    1350 1500
	0    1    1    0   
$EndComp
Wire Wire Line
	1200 1500 1000 1500
Wire Wire Line
	1000 1500 1000 1650
Connection ~ 1000 1650
$Comp
L Device:R_US R68
U 1 1 5DA5C29B
P 1950 1950
F 0 "R68" V 1900 1800 50  0000 C CNN
F 1 "36k" V 1850 1950 50  0000 C CNN
F 2 "Resistor_SMD:R_0603_1608Metric" V 1990 1940 50  0001 C CNN
F 3 "~" H 1950 1950 50  0001 C CNN
	1    1950 1950
	0    1    1    0   
$EndComp
Wire Wire Line
	1750 1950 1800 1950
Connection ~ 1750 1950
$Comp
L Device:C C32
U 1 1 5DA5D323
P 1950 2100
F 0 "C32" V 1900 2000 50  0000 C CNN
F 1 "10pF C0G" V 2000 1850 50  0000 C CNN
F 2 "Capacitor_SMD:C_0603_1608Metric" H 1988 1950 50  0001 C CNN
F 3 "~" H 1950 2100 50  0001 C CNN
	1    1950 2100
	0    1    1    0   
$EndComp
Wire Wire Line
	1800 2100 1750 2100
Wire Wire Line
	1750 2100 1750 1950
Wire Wire Line
	2100 2100 2150 2100
Wire Wire Line
	2150 2100 2150 1950
Wire Wire Line
	2150 1950 2100 1950
$Comp
L local:SSM2164 U12
U 1 1 5DA5E532
P 2500 1950
F 0 "U12" H 2550 2365 50  0000 C CNN
F 1 "SSM2164" H 2550 2274 50  0000 C CNN
F 2 "Package_SO:SOIC-16_3.9x9.9mm_P1.27mm" H 2500 1950 50  0001 C CNN
F 3 "" H 2500 1950 50  0001 C CNN
	1    2500 1950
	1    0    0    -1  
$EndComp
Wire Wire Line
	2150 1950 2200 1950
Connection ~ 2150 1950
$Comp
L Device:Opamp_Quad_Generic U11
U 2 1 5DA5FD39
P 3300 2050
F 0 "U11" H 3400 1900 50  0000 C CNN
F 1 "LF347" H 3400 2200 50  0000 C CNN
F 2 "Package_SO:SOIC-14_3.9x8.7mm_P1.27mm" H 3300 2050 50  0001 C CNN
F 3 "~" H 3300 2050 50  0001 C CNN
	2    3300 2050
	1    0    0    1   
$EndComp
Wire Wire Line
	2900 1950 2950 1950
$Comp
L power:GND #PWR057
U 1 1 5DA61BEE
P 2950 2150
F 0 "#PWR057" H 2950 1900 50  0001 C CNN
F 1 "GND" V 2955 2022 50  0000 R CNN
F 2 "" H 2950 2150 50  0001 C CNN
F 3 "" H 2950 2150 50  0001 C CNN
	1    2950 2150
	0    1    1    0   
$EndComp
Wire Wire Line
	2950 2150 3000 2150
$Comp
L Device:C C35
U 1 1 5DA6280F
P 3250 1750
F 0 "C35" V 3200 1650 50  0000 C CNN
F 1 "180pF C0G" V 3300 2050 50  0000 C CNN
F 2 "Capacitor_SMD:C_0603_1608Metric" H 3288 1600 50  0001 C CNN
F 3 "~" H 3250 1750 50  0001 C CNN
	1    3250 1750
	0    1    1    0   
$EndComp
Wire Wire Line
	3100 1750 2950 1750
Wire Wire Line
	2950 1750 2950 1950
Connection ~ 2950 1950
Wire Wire Line
	2950 1950 3000 1950
Wire Wire Line
	3400 1750 3650 1750
Wire Wire Line
	3650 1750 3650 2050
Wire Wire Line
	3650 2050 3600 2050
$Comp
L Device:D_Zener D13
U 1 1 5DA63D57
P 3100 1600
F 0 "D13" H 2950 1650 50  0000 C CNN
F 1 "2.9V" H 3250 1650 50  0000 C CNN
F 2 "Diode_SMD:D_SOT-23_ANK" H 3100 1600 50  0001 C CNN
F 3 "~" H 3100 1600 50  0001 C CNN
	1    3100 1600
	1    0    0    -1  
$EndComp
Wire Wire Line
	2950 1600 2950 1750
Connection ~ 2950 1750
$Comp
L Device:D_Zener D15
U 1 1 5DA649A7
P 3450 1600
F 0 "D15" H 3350 1550 50  0000 C CNN
F 1 "2.9V" H 3450 1700 50  0000 C CNN
F 2 "Diode_SMD:D_SOT-23_ANK" H 3450 1600 50  0001 C CNN
F 3 "~" H 3450 1600 50  0001 C CNN
	1    3450 1600
	-1   0    0    1   
$EndComp
Wire Wire Line
	3600 1600 3650 1600
Wire Wire Line
	3650 1600 3650 1750
Connection ~ 3650 1750
Wire Wire Line
	3300 1600 3250 1600
$Comp
L Device:R_US R76
U 1 1 5DA65F62
P 3850 2050
F 0 "R76" V 3800 1900 50  0000 C CNN
F 1 "36k" V 3800 2200 50  0000 C CNN
F 2 "Resistor_SMD:R_0603_1608Metric" V 3890 2040 50  0001 C CNN
F 3 "~" H 3850 2050 50  0001 C CNN
	1    3850 2050
	0    1    1    0   
$EndComp
$Comp
L Device:C C38
U 1 1 5DA66569
P 3850 2200
F 0 "C38" V 3800 2100 50  0000 C CNN
F 1 "10pF C0G" V 4000 2150 50  0000 C CNN
F 2 "Capacitor_SMD:C_0603_1608Metric" H 3888 2050 50  0001 C CNN
F 3 "~" H 3850 2200 50  0001 C CNN
	1    3850 2200
	0    1    1    0   
$EndComp
Wire Wire Line
	3700 2200 3650 2200
Wire Wire Line
	3650 2200 3650 2050
Connection ~ 3650 2050
Wire Wire Line
	3700 2050 3650 2050
Wire Wire Line
	4000 2050 4050 2050
Wire Wire Line
	4050 2050 4050 2200
Wire Wire Line
	4050 2200 4000 2200
$Comp
L local:SSM2164 U12
U 2 1 5DA67DCB
P 4400 2050
F 0 "U12" H 4450 2465 50  0000 C CNN
F 1 "SSM2164" H 4450 2374 50  0000 C CNN
F 2 "Package_SO:SOIC-16_3.9x9.9mm_P1.27mm" H 4400 2050 50  0001 C CNN
F 3 "" H 4400 2050 50  0001 C CNN
	2    4400 2050
	1    0    0    -1  
$EndComp
Wire Wire Line
	4050 2050 4100 2050
Connection ~ 4050 2050
Wire Wire Line
	2500 2400 2600 2400
Text Label 2600 2400 0    50   ~ 0
F1_CUTOFF
Wire Wire Line
	4400 2500 4450 2500
Text Label 4450 2500 0    50   ~ 0
F1_CUTOFF
$Comp
L Device:Opamp_Quad_Generic U10
U 3 1 5DA700EA
P 5200 2150
F 0 "U10" H 5300 2000 50  0000 C CNN
F 1 "LF347" H 5300 2300 50  0000 C CNN
F 2 "Package_SO:SOIC-14_3.9x8.7mm_P1.27mm" H 5200 2150 50  0001 C CNN
F 3 "~" H 5200 2150 50  0001 C CNN
	3    5200 2150
	1    0    0    1   
$EndComp
Wire Wire Line
	4850 2250 4900 2250
$Comp
L Device:C C43
U 1 1 5DA700F1
P 5150 1850
F 0 "C43" V 5100 1750 50  0000 C CNN
F 1 "180pF C0G" V 5000 1850 50  0000 C CNN
F 2 "Capacitor_SMD:C_0603_1608Metric" H 5188 1700 50  0001 C CNN
F 3 "~" H 5150 1850 50  0001 C CNN
	1    5150 1850
	0    1    1    0   
$EndComp
Wire Wire Line
	5000 1850 4850 1850
Wire Wire Line
	5300 1850 5550 1850
Wire Wire Line
	5550 1850 5550 2150
Wire Wire Line
	5550 2150 5500 2150
Wire Wire Line
	4800 2050 4850 2050
$Comp
L power:GND #PWR071
U 1 1 5DA715F7
P 4850 2250
F 0 "#PWR071" H 4850 2000 50  0001 C CNN
F 1 "GND" V 4855 2122 50  0000 R CNN
F 2 "" H 4850 2250 50  0001 C CNN
F 3 "" H 4850 2250 50  0001 C CNN
	1    4850 2250
	0    1    1    0   
$EndComp
Wire Wire Line
	4850 1850 4850 2050
Connection ~ 4850 2050
Wire Wire Line
	4850 2050 4900 2050
Wire Wire Line
	5550 1850 5550 1500
Wire Wire Line
	5550 1500 1500 1500
Connection ~ 5550 1850
$Comp
L Device:R_US R70
U 1 1 5DA797CC
P 2150 2250
F 0 "R70" H 2050 2200 50  0000 C CNN
F 1 "470" H 2050 2300 50  0000 C CNN
F 2 "Resistor_SMD:R_0603_1608Metric" V 2190 2240 50  0001 C CNN
F 3 "~" H 2150 2250 50  0001 C CNN
	1    2150 2250
	-1   0    0    1   
$EndComp
Connection ~ 2150 2100
$Comp
L Device:C C31
U 1 1 5DA7C16B
P 1900 2400
F 0 "C31" V 1950 2300 50  0000 C CNN
F 1 "560pF C0G" V 1750 2450 50  0000 C CNN
F 2 "Capacitor_SMD:C_0603_1608Metric" H 1938 2250 50  0001 C CNN
F 3 "~" H 1900 2400 50  0001 C CNN
	1    1900 2400
	0    -1   -1   0   
$EndComp
$Comp
L power:GND #PWR055
U 1 1 5DA91443
P 1700 2400
F 0 "#PWR055" H 1700 2150 50  0001 C CNN
F 1 "GND" V 1705 2272 50  0000 R CNN
F 2 "" H 1700 2400 50  0001 C CNN
F 3 "" H 1700 2400 50  0001 C CNN
	1    1700 2400
	0    1    1    0   
$EndComp
$Comp
L Device:R_US R78
U 1 1 5DA94845
P 4050 2400
F 0 "R78" H 3950 2350 50  0000 C CNN
F 1 "470" H 3950 2450 50  0000 C CNN
F 2 "Resistor_SMD:R_0603_1608Metric" V 4090 2390 50  0001 C CNN
F 3 "~" H 4050 2400 50  0001 C CNN
	1    4050 2400
	-1   0    0    1   
$EndComp
$Comp
L Device:C C39
U 1 1 5DA9484F
P 3850 2550
F 0 "C39" V 3900 2450 50  0000 C CNN
F 1 "560pF C0G" V 3700 2400 50  0000 C CNN
F 2 "Capacitor_SMD:C_0603_1608Metric" H 3888 2400 50  0001 C CNN
F 3 "~" H 3850 2550 50  0001 C CNN
	1    3850 2550
	0    -1   -1   0   
$EndComp
Wire Wire Line
	4050 2550 4000 2550
$Comp
L power:GND #PWR060
U 1 1 5DA9485A
P 3700 2600
F 0 "#PWR060" H 3700 2350 50  0001 C CNN
F 1 "GND" H 3705 2427 50  0000 C CNN
F 2 "" H 3700 2600 50  0001 C CNN
F 3 "" H 3700 2600 50  0001 C CNN
	1    3700 2600
	1    0    0    -1  
$EndComp
Wire Wire Line
	4050 2200 4050 2250
Connection ~ 4050 2200
Wire Wire Line
	3700 2600 3700 2550
Wire Wire Line
	2050 2400 2150 2400
Wire Wire Line
	1700 2400 1750 2400
Wire Wire Line
	3650 2200 3550 2200
Connection ~ 3650 2200
Wire Wire Line
	3550 2200 3550 2250
Wire Wire Line
	3500 2650 3550 2650
Wire Wire Line
	3550 2650 3550 2550
$Comp
L local:SSM2164 U12
U 3 1 5DAA63C5
P 3200 2650
F 0 "U12" H 3450 2450 50  0000 C CNN
F 1 "SSM2164" H 3400 2350 50  0000 C CNN
F 2 "Package_SO:SOIC-16_3.9x9.9mm_P1.27mm" H 3200 2650 50  0001 C CNN
F 3 "" H 3200 2650 50  0001 C CNN
	3    3200 2650
	-1   0    0    -1  
$EndComp
$Comp
L Device:Opamp_Quad_Generic U10
U 4 1 5DAB1DCB
P 1100 2750
F 0 "U10" H 1200 2600 50  0000 C CNN
F 1 "LF347" H 1200 2900 50  0000 C CNN
F 2 "Package_SO:SOIC-14_3.9x8.7mm_P1.27mm" H 1100 2750 50  0001 C CNN
F 3 "~" H 1100 2750 50  0001 C CNN
	4    1100 2750
	-1   0    0    1   
$EndComp
$Comp
L power:GND #PWR053
U 1 1 5DAB9B26
P 1450 2850
F 0 "#PWR053" H 1450 2600 50  0001 C CNN
F 1 "GND" V 1455 2722 50  0000 R CNN
F 2 "" H 1450 2850 50  0001 C CNN
F 3 "" H 1450 2850 50  0001 C CNN
	1    1450 2850
	0    -1   -1   0   
$EndComp
Wire Wire Line
	1400 2850 1450 2850
Wire Wire Line
	1300 2450 1450 2450
Wire Wire Line
	1450 2450 1450 2650
Connection ~ 1450 2650
Wire Wire Line
	1450 2650 1400 2650
Wire Wire Line
	1000 2450 800  2450
Wire Wire Line
	800  2450 800  2750
$Comp
L Device:R_US R57
U 1 1 5DABF42F
P 800 2250
F 0 "R57" H 900 2250 50  0000 C CNN
F 1 "18k" H 700 2250 50  0000 C CNN
F 2 "Resistor_SMD:R_0603_1608Metric" V 840 2240 50  0001 C CNN
F 3 "~" H 800 2250 50  0001 C CNN
	1    800  2250
	-1   0    0    1   
$EndComp
Wire Wire Line
	800  2400 800  2450
Connection ~ 800  2450
Wire Wire Line
	800  2100 800  1850
Wire Wire Line
	3200 3100 3300 3100
Text Label 3300 3100 0    50   ~ 0
RES
$Comp
L Device:R_US R73
U 1 1 5DAC6679
P 3550 2850
F 0 "R73" H 3450 2800 50  0000 C CNN
F 1 "470" H 3450 2900 50  0000 C CNN
F 2 "Resistor_SMD:R_0603_1608Metric" V 3590 2840 50  0001 C CNN
F 3 "~" H 3550 2850 50  0001 C CNN
	1    3550 2850
	1    0    0    1   
$EndComp
$Comp
L Device:C C37
U 1 1 5DAC6683
P 3800 3000
F 0 "C37" V 3850 2900 50  0000 C CNN
F 1 "560pF C0G" V 3650 3050 50  0000 C CNN
F 2 "Capacitor_SMD:C_0603_1608Metric" H 3838 2850 50  0001 C CNN
F 3 "~" H 3800 3000 50  0001 C CNN
	1    3800 3000
	0    1    -1   0   
$EndComp
$Comp
L power:GND #PWR062
U 1 1 5DAC668D
P 4000 3000
F 0 "#PWR062" H 4000 2750 50  0001 C CNN
F 1 "GND" V 4005 2872 50  0000 R CNN
F 2 "" H 4000 3000 50  0001 C CNN
F 3 "" H 4000 3000 50  0001 C CNN
	1    4000 3000
	0    -1   1    0   
$EndComp
Wire Wire Line
	3650 3000 3550 3000
Wire Wire Line
	4000 3000 3950 3000
Wire Wire Line
	3550 2700 3550 2650
Connection ~ 3550 2650
$Comp
L power:-5V #PWR?
U 1 1 5DADFCD5
P 8550 6550
AR Path="/5DADFCD5" Ref="#PWR?"  Part="1" 
AR Path="/5DB5BADF/5DADFCD5" Ref="#PWR?"  Part="1" 
AR Path="/5DAB9CF3/5DADFCD5" Ref="#PWR?"  Part="1" 
AR Path="/5DA53E0F/5DADFCD5" Ref="#PWR0101"  Part="1" 
F 0 "#PWR0101" H 8550 6650 50  0001 C CNN
F 1 "-5V" H 8700 6650 50  0000 C CNN
F 2 "" H 8550 6550 50  0001 C CNN
F 3 "" H 8550 6550 50  0001 C CNN
	1    8550 6550
	-1   0    0    1   
$EndComp
Wire Wire Line
	8550 6500 8550 6550
$Comp
L power:GND #PWR?
U 1 1 5DADFCDC
P 8350 6200
AR Path="/5DAB9CF3/5DADFCDC" Ref="#PWR?"  Part="1" 
AR Path="/5DA53E0F/5DADFCDC" Ref="#PWR098"  Part="1" 
F 0 "#PWR098" H 8350 5950 50  0001 C CNN
F 1 "GND" V 8400 6050 50  0000 C CNN
F 2 "" H 8350 6200 50  0001 C CNN
F 3 "" H 8350 6200 50  0001 C CNN
	1    8350 6200
	0    1    1    0   
$EndComp
$Comp
L Device:C C?
U 1 1 5DADFCE2
P 8400 6400
AR Path="/5DAB9CF3/5DADFCE2" Ref="C?"  Part="1" 
AR Path="/5DA53E0F/5DADFCE2" Ref="C58"  Part="1" 
F 0 "C58" H 8300 6500 50  0000 L CNN
F 1 "0.1uF" H 8200 6300 50  0000 L CNN
F 2 "Capacitor_SMD:C_0603_1608Metric" H 8438 6250 50  0001 C CNN
F 3 "~" H 8400 6400 50  0001 C CNN
	1    8400 6400
	1    0    0    -1  
$EndComp
Wire Wire Line
	8400 6200 8350 6200
Wire Wire Line
	8400 6200 8400 6250
Wire Wire Line
	8400 6550 8550 6550
Connection ~ 8550 6550
$Comp
L power:GND #PWR?
U 1 1 5DADFCEC
P 8900 6050
AR Path="/5DAB9CF3/5DADFCEC" Ref="#PWR?"  Part="1" 
AR Path="/5DA53E0F/5DADFCEC" Ref="#PWR0106"  Part="1" 
F 0 "#PWR0106" H 8900 5800 50  0001 C CNN
F 1 "GND" V 8900 5850 50  0000 C CNN
F 2 "" H 8900 6050 50  0001 C CNN
F 3 "" H 8900 6050 50  0001 C CNN
	1    8900 6050
	0    1    1    0   
$EndComp
Wire Wire Line
	8900 6050 8950 6050
$Comp
L power:-5V #PWR?
U 1 1 5DADFCF3
P 8800 6600
AR Path="/5DADFCF3" Ref="#PWR?"  Part="1" 
AR Path="/5DB5BADF/5DADFCF3" Ref="#PWR?"  Part="1" 
AR Path="/5DAB9CF3/5DADFCF3" Ref="#PWR?"  Part="1" 
AR Path="/5DA53E0F/5DADFCF3" Ref="#PWR0104"  Part="1" 
F 0 "#PWR0104" H 8800 6700 50  0001 C CNN
F 1 "-5V" H 8950 6700 50  0000 C CNN
F 2 "" H 8800 6600 50  0001 C CNN
F 3 "" H 8800 6600 50  0001 C CNN
	1    8800 6600
	-1   0    0    1   
$EndComp
Wire Wire Line
	8750 6550 8800 6550
Wire Wire Line
	8800 6550 8800 6600
Wire Wire Line
	8750 6250 8750 6100
Wire Wire Line
	8750 6100 8950 6100
Wire Wire Line
	8950 6100 8950 6050
Connection ~ 8950 6050
Wire Wire Line
	8950 6050 9000 6050
Wire Wire Line
	8750 6000 8950 6000
Wire Wire Line
	8950 6000 8950 6050
NoConn ~ 9000 6250
Connection ~ 8400 6200
Wire Wire Line
	8900 5700 8900 5950
Connection ~ 8900 5700
Wire Wire Line
	8750 5700 8900 5700
Wire Wire Line
	8900 5950 9000 5950
$Comp
L Device:C C?
U 1 1 5DADFD11
P 8750 5850
AR Path="/5DAB9CF3/5DADFD11" Ref="C?"  Part="1" 
AR Path="/5DA53E0F/5DADFD11" Ref="C60"  Part="1" 
F 0 "C60" H 8650 5950 50  0000 L CNN
F 1 "0.1uF" H 8950 5850 50  0000 L CNN
F 2 "Capacitor_SMD:C_0603_1608Metric" H 8788 5700 50  0001 C CNN
F 3 "~" H 8750 5850 50  0001 C CNN
	1    8750 5850
	1    0    0    -1  
$EndComp
Wire Wire Line
	8900 5650 8900 5700
$Comp
L power:+12V #PWR?
U 1 1 5DADFD18
P 8900 5650
AR Path="/5DADFD18" Ref="#PWR?"  Part="1" 
AR Path="/5DB5BADF/5DADFD18" Ref="#PWR?"  Part="1" 
AR Path="/5DAB9CF3/5DADFD18" Ref="#PWR?"  Part="1" 
AR Path="/5DA53E0F/5DADFD18" Ref="#PWR0105"  Part="1" 
F 0 "#PWR0105" H 8900 5500 50  0001 C CNN
F 1 "+12V" H 8915 5823 50  0000 C CNN
F 2 "" H 8900 5650 50  0001 C CNN
F 3 "" H 8900 5650 50  0001 C CNN
	1    8900 5650
	1    0    0    -1  
$EndComp
Connection ~ 8550 5900
Wire Wire Line
	8400 5900 8550 5900
$Comp
L Device:C C?
U 1 1 5DADFD20
P 8400 6050
AR Path="/5DAB9CF3/5DADFD20" Ref="C?"  Part="1" 
AR Path="/5DA53E0F/5DADFD20" Ref="C57"  Part="1" 
F 0 "C57" H 8250 6250 50  0000 L CNN
F 1 "0.1uF" H 8200 6150 50  0000 L CNN
F 2 "Capacitor_SMD:C_0603_1608Metric" H 8438 5900 50  0001 C CNN
F 3 "~" H 8400 6050 50  0001 C CNN
	1    8400 6050
	1    0    0    -1  
$EndComp
Wire Wire Line
	8550 5850 8550 5900
$Comp
L power:+12V #PWR?
U 1 1 5DADFD27
P 8550 5850
AR Path="/5DADFD27" Ref="#PWR?"  Part="1" 
AR Path="/5DB5BADF/5DADFD27" Ref="#PWR?"  Part="1" 
AR Path="/5DAB9CF3/5DADFD27" Ref="#PWR?"  Part="1" 
AR Path="/5DA53E0F/5DADFD27" Ref="#PWR0100"  Part="1" 
F 0 "#PWR0100" H 8550 5700 50  0001 C CNN
F 1 "+12V" H 8565 6023 50  0000 C CNN
F 2 "" H 8550 5850 50  0001 C CNN
F 3 "" H 8550 5850 50  0001 C CNN
	1    8550 5850
	1    0    0    -1  
$EndComp
$Comp
L Device:Opamp_Quad_Generic U?
U 5 1 5DADFD2D
P 8650 6200
AR Path="/5DB5BADF/5DADFD2D" Ref="U?"  Part="5" 
AR Path="/5DAB9CF3/5DADFD2D" Ref="U?"  Part="5" 
AR Path="/5DA53E0F/5DADFD2D" Ref="U14"  Part="5" 
F 0 "U14" H 8400 6550 50  0000 L CNN
F 1 "LF347" H 8300 6650 50  0000 L CNN
F 2 "Package_SO:SOIC-14_3.9x8.7mm_P1.27mm" H 8650 6200 50  0001 C CNN
F 3 "~" H 8650 6200 50  0001 C CNN
	5    8650 6200
	1    0    0    -1  
$EndComp
$Comp
L local:SSM2164 U?
U 5 1 5DADFD33
P 9300 6100
AR Path="/5DADFD33" Ref="U?"  Part="1" 
AR Path="/5DAB9CF3/5DADFD33" Ref="U?"  Part="1" 
AR Path="/5DA53E0F/5DADFD33" Ref="U12"  Part="5" 
F 0 "U12" H 9200 5750 50  0000 L CNN
F 1 "SSM2164" H 9200 5850 50  0000 L CNN
F 2 "Package_SO:SOIC-16_3.9x9.9mm_P1.27mm" H 9300 6100 50  0001 C CNN
F 3 "" H 9300 6100 50  0001 C CNN
	5    9300 6100
	1    0    0    1   
$EndComp
$Comp
L Device:C C?
U 1 1 5DADFCFB
P 8750 6400
AR Path="/5DAB9CF3/5DADFCFB" Ref="C?"  Part="1" 
AR Path="/5DA53E0F/5DADFCFB" Ref="C61"  Part="1" 
F 0 "C61" H 8650 6500 50  0000 L CNN
F 1 "0.1uF" H 8850 6300 50  0000 L CNN
F 2 "Capacitor_SMD:C_0603_1608Metric" H 8788 6250 50  0001 C CNN
F 3 "~" H 8750 6400 50  0001 C CNN
	1    8750 6400
	1    0    0    -1  
$EndComp
Wire Wire Line
	8800 6550 8850 6550
Wire Wire Line
	8850 6550 8850 6250
Connection ~ 8800 6550
Wire Wire Line
	5600 1450 3650 1450
Wire Wire Line
	3650 1450 3650 1600
Connection ~ 3650 1600
Wire Wire Line
	1750 1400 1750 1650
Connection ~ 5550 2150
Wire Wire Line
	5600 2050 7050 2050
Wire Wire Line
	5600 1450 5600 2050
Wire Wire Line
	5650 1400 5650 1950
Wire Wire Line
	6550 2300 6450 2300
Text Label 6450 2300 2    50   ~ 0
F1_TYPE1
$Comp
L Device:Opamp_Quad_Generic U11
U 1 1 5DAAFE39
P 1450 4250
F 0 "U11" H 1550 4100 50  0000 C CNN
F 1 "LF347" H 1550 4400 50  0000 C CNN
F 2 "Package_SO:SOIC-14_3.9x8.7mm_P1.27mm" H 1450 4250 50  0001 C CNN
F 3 "~" H 1450 4250 50  0001 C CNN
	1    1450 4250
	1    0    0    1   
$EndComp
$Comp
L power:GND #PWR052
U 1 1 5DAAFE43
P 1100 4350
F 0 "#PWR052" H 1100 4100 50  0001 C CNN
F 1 "GND" V 1200 4400 50  0000 R CNN
F 2 "" H 1100 4350 50  0001 C CNN
F 3 "" H 1100 4350 50  0001 C CNN
	1    1100 4350
	0    1    1    0   
$EndComp
Wire Wire Line
	1100 4350 1150 4350
Wire Wire Line
	1150 4150 1050 4150
$Comp
L Device:R_US R67
U 1 1 5DAAFE50
P 1400 3950
F 0 "R67" V 1350 3800 50  0000 C CNN
F 1 "36k" V 1350 4100 50  0000 C CNN
F 2 "Resistor_SMD:R_0603_1608Metric" V 1440 3940 50  0001 C CNN
F 3 "~" H 1400 3950 50  0001 C CNN
	1    1400 3950
	0    1    1    0   
$EndComp
Wire Wire Line
	1250 3950 1050 3950
Wire Wire Line
	1050 3950 1050 4150
Connection ~ 1050 4150
Wire Wire Line
	1050 4150 850  4150
Wire Wire Line
	1550 3950 1800 3950
Wire Wire Line
	1800 3950 1800 4250
Wire Wire Line
	1800 4250 1750 4250
$Comp
L Device:R_US R66
U 1 1 5DAAFE61
P 1400 3800
F 0 "R66" V 1350 3650 50  0000 C CNN
F 1 "36k" V 1350 3950 50  0000 C CNN
F 2 "Resistor_SMD:R_0603_1608Metric" V 1440 3790 50  0001 C CNN
F 3 "~" H 1400 3800 50  0001 C CNN
	1    1400 3800
	0    1    1    0   
$EndComp
Wire Wire Line
	1250 3800 1050 3800
Wire Wire Line
	1050 3800 1050 3950
Connection ~ 1050 3950
$Comp
L Device:R_US R69
U 1 1 5DAAFE6E
P 2000 4250
F 0 "R69" V 1950 4100 50  0000 C CNN
F 1 "36k" V 1900 4250 50  0000 C CNN
F 2 "Resistor_SMD:R_0603_1608Metric" V 2040 4240 50  0001 C CNN
F 3 "~" H 2000 4250 50  0001 C CNN
	1    2000 4250
	0    1    1    0   
$EndComp
Wire Wire Line
	1800 4250 1850 4250
Connection ~ 1800 4250
$Comp
L Device:C C34
U 1 1 5DAAFE7A
P 2000 4400
F 0 "C34" V 1950 4300 50  0000 C CNN
F 1 "10pF C0G" V 2050 4150 50  0000 C CNN
F 2 "Capacitor_SMD:C_0603_1608Metric" H 2038 4250 50  0001 C CNN
F 3 "~" H 2000 4400 50  0001 C CNN
	1    2000 4400
	0    1    1    0   
$EndComp
Wire Wire Line
	1850 4400 1800 4400
Wire Wire Line
	1800 4400 1800 4250
Wire Wire Line
	2150 4400 2200 4400
Wire Wire Line
	2200 4400 2200 4250
Wire Wire Line
	2200 4250 2150 4250
$Comp
L local:SSM2164 U13
U 1 1 5DAAFE89
P 2550 4250
F 0 "U13" H 2600 4665 50  0000 C CNN
F 1 "SSM2164" H 2600 4574 50  0000 C CNN
F 2 "Package_SO:SOIC-16_3.9x9.9mm_P1.27mm" H 2550 4250 50  0001 C CNN
F 3 "" H 2550 4250 50  0001 C CNN
	1    2550 4250
	1    0    0    -1  
$EndComp
Wire Wire Line
	2200 4250 2250 4250
Connection ~ 2200 4250
$Comp
L Device:Opamp_Quad_Generic U14
U 2 1 5DAAFE95
P 3350 4350
F 0 "U14" H 3450 4200 50  0000 C CNN
F 1 "LF347" H 3450 4500 50  0000 C CNN
F 2 "Package_SO:SOIC-14_3.9x8.7mm_P1.27mm" H 3350 4350 50  0001 C CNN
F 3 "~" H 3350 4350 50  0001 C CNN
	2    3350 4350
	1    0    0    1   
$EndComp
Wire Wire Line
	2950 4250 3000 4250
$Comp
L power:GND #PWR058
U 1 1 5DAAFEA0
P 3000 4450
F 0 "#PWR058" H 3000 4200 50  0001 C CNN
F 1 "GND" V 3005 4322 50  0000 R CNN
F 2 "" H 3000 4450 50  0001 C CNN
F 3 "" H 3000 4450 50  0001 C CNN
	1    3000 4450
	0    1    1    0   
$EndComp
Wire Wire Line
	3000 4450 3050 4450
$Comp
L Device:C C36
U 1 1 5DAAFEAB
P 3300 4050
F 0 "C36" V 3250 3950 50  0000 C CNN
F 1 "180pF C0G" V 3350 4350 50  0000 C CNN
F 2 "Capacitor_SMD:C_0603_1608Metric" H 3338 3900 50  0001 C CNN
F 3 "~" H 3300 4050 50  0001 C CNN
	1    3300 4050
	0    1    1    0   
$EndComp
Wire Wire Line
	3150 4050 3000 4050
Wire Wire Line
	3000 4050 3000 4250
Connection ~ 3000 4250
Wire Wire Line
	3000 4250 3050 4250
Wire Wire Line
	3450 4050 3700 4050
Wire Wire Line
	3700 4050 3700 4350
Wire Wire Line
	3700 4350 3650 4350
$Comp
L Device:D_Zener D14
U 1 1 5DAAFEBC
P 3150 3900
F 0 "D14" H 3000 3950 50  0000 C CNN
F 1 "2.9V" H 3300 3950 50  0000 C CNN
F 2 "Diode_SMD:D_SOT-23_ANK" H 3150 3900 50  0001 C CNN
F 3 "~" H 3150 3900 50  0001 C CNN
	1    3150 3900
	1    0    0    -1  
$EndComp
Wire Wire Line
	3000 3900 3000 4050
Connection ~ 3000 4050
$Comp
L Device:D_Zener D16
U 1 1 5DAAFEC8
P 3500 3900
F 0 "D16" H 3400 3850 50  0000 C CNN
F 1 "2.9V" H 3500 4000 50  0000 C CNN
F 2 "Diode_SMD:D_SOT-23_ANK" H 3500 3900 50  0001 C CNN
F 3 "~" H 3500 3900 50  0001 C CNN
	1    3500 3900
	-1   0    0    1   
$EndComp
Wire Wire Line
	3650 3900 3700 3900
Wire Wire Line
	3700 3900 3700 4050
Connection ~ 3700 4050
Wire Wire Line
	3350 3900 3300 3900
$Comp
L Device:R_US R77
U 1 1 5DAAFED6
P 3900 4350
F 0 "R77" V 3850 4200 50  0000 C CNN
F 1 "36k" V 3850 4500 50  0000 C CNN
F 2 "Resistor_SMD:R_0603_1608Metric" V 3940 4340 50  0001 C CNN
F 3 "~" H 3900 4350 50  0001 C CNN
	1    3900 4350
	0    1    1    0   
$EndComp
$Comp
L Device:C C41
U 1 1 5DAAFEE0
P 3900 4500
F 0 "C41" V 3850 4400 50  0000 C CNN
F 1 "10pF C0G" V 4050 4450 50  0000 C CNN
F 2 "Capacitor_SMD:C_0603_1608Metric" H 3938 4350 50  0001 C CNN
F 3 "~" H 3900 4500 50  0001 C CNN
	1    3900 4500
	0    1    1    0   
$EndComp
Wire Wire Line
	3750 4500 3700 4500
Wire Wire Line
	3700 4500 3700 4350
Connection ~ 3700 4350
Wire Wire Line
	3750 4350 3700 4350
Wire Wire Line
	4050 4350 4100 4350
Wire Wire Line
	4100 4350 4100 4500
Wire Wire Line
	4100 4500 4050 4500
$Comp
L local:SSM2164 U13
U 2 1 5DAAFEF1
P 4450 4350
F 0 "U13" H 4500 4765 50  0000 C CNN
F 1 "SSM2164" H 4500 4674 50  0000 C CNN
F 2 "Package_SO:SOIC-16_3.9x9.9mm_P1.27mm" H 4450 4350 50  0001 C CNN
F 3 "" H 4450 4350 50  0001 C CNN
	2    4450 4350
	1    0    0    -1  
$EndComp
Wire Wire Line
	4100 4350 4150 4350
Connection ~ 4100 4350
Wire Wire Line
	2550 4700 2650 4700
Text Label 2650 4700 0    50   ~ 0
F2_CUTOFF
Wire Wire Line
	4450 4800 4500 4800
Text Label 4500 4800 0    50   ~ 0
F2_CUTOFF
$Comp
L Device:Opamp_Quad_Generic U11
U 3 1 5DAAFF01
P 5250 4450
F 0 "U11" H 5350 4300 50  0000 C CNN
F 1 "LF347" H 5350 4600 50  0000 C CNN
F 2 "Package_SO:SOIC-14_3.9x8.7mm_P1.27mm" H 5250 4450 50  0001 C CNN
F 3 "~" H 5250 4450 50  0001 C CNN
	3    5250 4450
	1    0    0    1   
$EndComp
Wire Wire Line
	4900 4550 4950 4550
$Comp
L Device:C C44
U 1 1 5DAAFF0C
P 5200 4150
F 0 "C44" V 5150 4050 50  0000 C CNN
F 1 "180pF C0G" V 5050 4000 50  0000 C CNN
F 2 "Capacitor_SMD:C_0603_1608Metric" H 5238 4000 50  0001 C CNN
F 3 "~" H 5200 4150 50  0001 C CNN
	1    5200 4150
	0    1    1    0   
$EndComp
Wire Wire Line
	5050 4150 4900 4150
Wire Wire Line
	5350 4150 5600 4150
Wire Wire Line
	5600 4150 5600 4450
Wire Wire Line
	5600 4450 5550 4450
Wire Wire Line
	4850 4350 4900 4350
$Comp
L power:GND #PWR072
U 1 1 5DAAFF1B
P 4900 4550
F 0 "#PWR072" H 4900 4300 50  0001 C CNN
F 1 "GND" V 4905 4422 50  0000 R CNN
F 2 "" H 4900 4550 50  0001 C CNN
F 3 "" H 4900 4550 50  0001 C CNN
	1    4900 4550
	0    1    1    0   
$EndComp
Wire Wire Line
	4900 4150 4900 4350
Connection ~ 4900 4350
Wire Wire Line
	4900 4350 4950 4350
Wire Wire Line
	5600 4150 5600 3800
Wire Wire Line
	5600 3800 1550 3800
Connection ~ 5600 4150
$Comp
L Device:R_US R71
U 1 1 5DAAFF2B
P 2200 4550
F 0 "R71" H 2100 4500 50  0000 C CNN
F 1 "470" H 2100 4600 50  0000 C CNN
F 2 "Resistor_SMD:R_0603_1608Metric" V 2240 4540 50  0001 C CNN
F 3 "~" H 2200 4550 50  0001 C CNN
	1    2200 4550
	-1   0    0    1   
$EndComp
Connection ~ 2200 4400
$Comp
L Device:C C33
U 1 1 5DAAFF36
P 1950 4700
F 0 "C33" V 2000 4600 50  0000 C CNN
F 1 "560pF C0G" V 1800 4750 50  0000 C CNN
F 2 "Capacitor_SMD:C_0603_1608Metric" H 1988 4550 50  0001 C CNN
F 3 "~" H 1950 4700 50  0001 C CNN
	1    1950 4700
	0    -1   -1   0   
$EndComp
$Comp
L power:GND #PWR056
U 1 1 5DAAFF40
P 1750 4700
F 0 "#PWR056" H 1750 4450 50  0001 C CNN
F 1 "GND" V 1755 4572 50  0000 R CNN
F 2 "" H 1750 4700 50  0001 C CNN
F 3 "" H 1750 4700 50  0001 C CNN
	1    1750 4700
	0    1    1    0   
$EndComp
$Comp
L Device:R_US R79
U 1 1 5DAAFF4A
P 4100 4700
F 0 "R79" H 4000 4650 50  0000 C CNN
F 1 "470" H 4000 4750 50  0000 C CNN
F 2 "Resistor_SMD:R_0603_1608Metric" V 4140 4690 50  0001 C CNN
F 3 "~" H 4100 4700 50  0001 C CNN
	1    4100 4700
	-1   0    0    1   
$EndComp
$Comp
L Device:C C42
U 1 1 5DAAFF54
P 3900 4850
F 0 "C42" V 3950 4750 50  0000 C CNN
F 1 "560pF C0G" V 3750 4700 50  0000 C CNN
F 2 "Capacitor_SMD:C_0603_1608Metric" H 3938 4700 50  0001 C CNN
F 3 "~" H 3900 4850 50  0001 C CNN
	1    3900 4850
	0    -1   -1   0   
$EndComp
Wire Wire Line
	4100 4850 4050 4850
$Comp
L power:GND #PWR061
U 1 1 5DAAFF5F
P 3750 4900
F 0 "#PWR061" H 3750 4650 50  0001 C CNN
F 1 "GND" H 3755 4727 50  0000 C CNN
F 2 "" H 3750 4900 50  0001 C CNN
F 3 "" H 3750 4900 50  0001 C CNN
	1    3750 4900
	1    0    0    -1  
$EndComp
Wire Wire Line
	4100 4500 4100 4550
Connection ~ 4100 4500
Wire Wire Line
	3750 4900 3750 4850
Wire Wire Line
	2100 4700 2200 4700
Wire Wire Line
	1750 4700 1800 4700
Wire Wire Line
	3700 4500 3600 4500
Connection ~ 3700 4500
$Comp
L Device:R_US R74
U 1 1 5DAAFF70
P 3600 4700
F 0 "R74" H 3700 4750 50  0000 C CNN
F 1 "36k" H 3700 4650 50  0000 C CNN
F 2 "Resistor_SMD:R_0603_1608Metric" V 3640 4690 50  0001 C CNN
F 3 "~" H 3600 4700 50  0001 C CNN
	1    3600 4700
	-1   0    0    1   
$EndComp
Wire Wire Line
	3600 4500 3600 4550
Wire Wire Line
	3550 4950 3600 4950
Wire Wire Line
	3600 4950 3600 4850
$Comp
L local:SSM2164 U13
U 3 1 5DAAFF7D
P 3250 4950
F 0 "U13" H 3500 4750 50  0000 C CNN
F 1 "SSM2164" H 3450 4650 50  0000 C CNN
F 2 "Package_SO:SOIC-16_3.9x9.9mm_P1.27mm" H 3250 4950 50  0001 C CNN
F 3 "" H 3250 4950 50  0001 C CNN
	3    3250 4950
	-1   0    0    -1  
$EndComp
$Comp
L Device:Opamp_Quad_Generic U11
U 4 1 5DAAFF87
P 1150 5050
F 0 "U11" H 1250 4900 50  0000 C CNN
F 1 "LF347" H 1250 5200 50  0000 C CNN
F 2 "Package_SO:SOIC-14_3.9x8.7mm_P1.27mm" H 1150 5050 50  0001 C CNN
F 3 "~" H 1150 5050 50  0001 C CNN
	4    1150 5050
	-1   0    0    1   
$EndComp
Wire Wire Line
	2850 4950 1500 4950
$Comp
L power:GND #PWR054
U 1 1 5DAAFF92
P 1500 5150
F 0 "#PWR054" H 1500 4900 50  0001 C CNN
F 1 "GND" V 1505 5022 50  0000 R CNN
F 2 "" H 1500 5150 50  0001 C CNN
F 3 "" H 1500 5150 50  0001 C CNN
	1    1500 5150
	0    -1   -1   0   
$EndComp
Wire Wire Line
	1450 5150 1500 5150
$Comp
L Device:R_US R61
U 1 1 5DAAFF9D
P 1200 4750
F 0 "R61" V 1150 4600 50  0000 C CNN
F 1 "36k" V 1150 4900 50  0000 C CNN
F 2 "Resistor_SMD:R_0603_1608Metric" V 1240 4740 50  0001 C CNN
F 3 "~" H 1200 4750 50  0001 C CNN
	1    1200 4750
	0    1    1    0   
$EndComp
Wire Wire Line
	1350 4750 1500 4750
Wire Wire Line
	1500 4750 1500 4950
Connection ~ 1500 4950
Wire Wire Line
	1500 4950 1450 4950
Wire Wire Line
	1050 4750 850  4750
Wire Wire Line
	850  4750 850  5050
$Comp
L Device:R_US R59
U 1 1 5DAAFFAD
P 850 4550
F 0 "R59" H 950 4550 50  0000 C CNN
F 1 "18k" H 750 4550 50  0000 C CNN
F 2 "Resistor_SMD:R_0603_1608Metric" V 890 4540 50  0001 C CNN
F 3 "~" H 850 4550 50  0001 C CNN
	1    850  4550
	-1   0    0    1   
$EndComp
Wire Wire Line
	850  4700 850  4750
Connection ~ 850  4750
Wire Wire Line
	850  4400 850  4150
Wire Wire Line
	3250 5400 3350 5400
Text Label 3350 5400 0    50   ~ 0
RES
$Comp
L Device:R_US R75
U 1 1 5DAAFFBE
P 3600 5150
F 0 "R75" H 3500 5100 50  0000 C CNN
F 1 "470" H 3500 5200 50  0000 C CNN
F 2 "Resistor_SMD:R_0603_1608Metric" V 3640 5140 50  0001 C CNN
F 3 "~" H 3600 5150 50  0001 C CNN
	1    3600 5150
	1    0    0    1   
$EndComp
$Comp
L Device:C C40
U 1 1 5DAAFFC8
P 3850 5300
F 0 "C40" V 3900 5200 50  0000 C CNN
F 1 "560pF C0G" V 3700 5350 50  0000 C CNN
F 2 "Capacitor_SMD:C_0603_1608Metric" H 3888 5150 50  0001 C CNN
F 3 "~" H 3850 5300 50  0001 C CNN
	1    3850 5300
	0    1    -1   0   
$EndComp
$Comp
L power:GND #PWR063
U 1 1 5DAAFFD2
P 4050 5300
F 0 "#PWR063" H 4050 5050 50  0001 C CNN
F 1 "GND" V 4055 5172 50  0000 R CNN
F 2 "" H 4050 5300 50  0001 C CNN
F 3 "" H 4050 5300 50  0001 C CNN
	1    4050 5300
	0    -1   1    0   
$EndComp
Wire Wire Line
	3700 5300 3600 5300
Wire Wire Line
	4050 5300 4000 5300
Wire Wire Line
	3600 5000 3600 4950
Connection ~ 3600 4950
Wire Wire Line
	5650 3750 3700 3750
Wire Wire Line
	3700 3750 3700 3900
Connection ~ 3700 3900
Wire Wire Line
	5700 3700 1800 3700
Wire Wire Line
	1800 3700 1800 3950
Connection ~ 1800 3950
Wire Wire Line
	5600 4450 6000 4450
Connection ~ 5600 4450
Wire Wire Line
	5650 4350 7100 4350
Wire Wire Line
	5650 3750 5650 4350
Wire Wire Line
	5700 4250 5950 4250
Wire Wire Line
	5700 3700 5700 4250
$Comp
L Device:Opamp_Quad_Generic U10
U 2 1 5DAAFFF6
P 1450 950
F 0 "U10" H 1550 800 50  0000 C CNN
F 1 "LF347" H 1550 1100 50  0000 C CNN
F 2 "Package_SO:SOIC-14_3.9x8.7mm_P1.27mm" H 1450 950 50  0001 C CNN
F 3 "~" H 1450 950 50  0001 C CNN
	2    1450 950 
	1    0    0    1   
$EndComp
Wire Wire Line
	6050 4200 6000 4200
Wire Wire Line
	6000 4200 6000 4450
Connection ~ 6000 4450
Wire Wire Line
	6000 4450 7100 4450
Wire Wire Line
	6050 4100 5950 4100
Wire Wire Line
	5950 4100 5950 4250
Connection ~ 5950 4250
Wire Wire Line
	5950 4250 7100 4250
Wire Wire Line
	6750 4800 6800 4800
Wire Wire Line
	6800 4600 6750 4600
Text Label 6750 4600 2    50   ~ 0
F2_TYPE1
Text Label 6750 4700 2    50   ~ 0
F2_TYPE2
Wire Wire Line
	6750 4700 6800 4700
$Comp
L Device:R_US R58
U 1 1 5DAE786E
P 850 3600
F 0 "R58" V 800 3450 50  0000 C CNN
F 1 "36k" V 800 3750 50  0000 C CNN
F 2 "Resistor_SMD:R_0603_1608Metric" V 890 3590 50  0001 C CNN
F 3 "~" H 850 3600 50  0001 C CNN
	1    850  3600
	1    0    0    -1  
$EndComp
$Comp
L local:SSM2164 U12
U 4 1 5DB17597
P 9200 4200
F 0 "U12" H 9250 4615 50  0000 C CNN
F 1 "SSM2164" H 9250 4524 50  0000 C CNN
F 2 "Package_SO:SOIC-16_3.9x9.9mm_P1.27mm" H 9200 4200 50  0001 C CNN
F 3 "" H 9200 4200 50  0001 C CNN
	4    9200 4200
	1    0    0    -1  
$EndComp
$Comp
L Device:R_US R87
U 1 1 5DB2B9D2
P 8850 4400
F 0 "R87" H 8750 4350 50  0000 C CNN
F 1 "470" H 8750 4450 50  0000 C CNN
F 2 "Resistor_SMD:R_0603_1608Metric" V 8890 4390 50  0001 C CNN
F 3 "~" H 8850 4400 50  0001 C CNN
	1    8850 4400
	-1   0    0    1   
$EndComp
$Comp
L Device:C C62
U 1 1 5DB2B9DC
P 8850 4750
F 0 "C62" V 8900 4650 50  0000 C CNN
F 1 "560pF C0G" H 8600 4850 50  0000 C CNN
F 2 "Capacitor_SMD:C_0603_1608Metric" H 8888 4600 50  0001 C CNN
F 3 "~" H 8850 4750 50  0001 C CNN
	1    8850 4750
	1    0    0    -1  
$EndComp
Wire Wire Line
	8800 4900 8850 4900
$Comp
L power:GND #PWR0103
U 1 1 5DB2B9E7
P 8800 4900
F 0 "#PWR0103" H 8800 4650 50  0001 C CNN
F 1 "GND" H 8805 4727 50  0000 C CNN
F 2 "" H 8800 4900 50  0001 C CNN
F 3 "" H 8800 4900 50  0001 C CNN
	1    8800 4900
	0    1    1    0   
$EndComp
Wire Wire Line
	8850 4200 8850 4250
Connection ~ 8850 4200
Wire Wire Line
	8850 4200 8900 4200
Wire Wire Line
	9200 4650 9250 4650
Text Label 9250 4650 0    50   ~ 0
OUTPUT_LEVEL
$Comp
L Device:Opamp_Quad_Generic U14
U 1 1 5DB7D8CF
P 10000 4300
F 0 "U14" H 10100 4150 50  0000 C CNN
F 1 "LF347" H 10100 4450 50  0000 C CNN
F 2 "Package_SO:SOIC-14_3.9x8.7mm_P1.27mm" H 10000 4300 50  0001 C CNN
F 3 "~" H 10000 4300 50  0001 C CNN
	1    10000 4300
	1    0    0    1   
$EndComp
Wire Wire Line
	9600 4200 9650 4200
$Comp
L Device:R_US R92
U 1 1 5DB8EDC3
P 9900 3950
F 0 "R92" V 9850 3800 50  0000 C CNN
F 1 "36k" V 9850 4100 50  0000 C CNN
F 2 "Resistor_SMD:R_0603_1608Metric" V 9940 3940 50  0001 C CNN
F 3 "~" H 9900 3950 50  0001 C CNN
	1    9900 3950
	0    1    1    0   
$EndComp
Wire Wire Line
	9750 3950 9650 3950
Wire Wire Line
	9650 3950 9650 4200
Connection ~ 9650 4200
Wire Wire Line
	9650 4200 9700 4200
Wire Wire Line
	10050 3950 10300 3950
Wire Wire Line
	10300 3950 10300 4300
$Comp
L power:GND #PWR0107
U 1 1 5DBBF9A1
P 9650 4400
F 0 "#PWR0107" H 9650 4150 50  0001 C CNN
F 1 "GND" H 9655 4227 50  0000 C CNN
F 2 "" H 9650 4400 50  0001 C CNN
F 3 "" H 9650 4400 50  0001 C CNN
	1    9650 4400
	0    1    1    0   
$EndComp
Wire Wire Line
	9650 4400 9700 4400
Wire Wire Line
	10300 4300 10350 4300
Connection ~ 10300 4300
Text HLabel 10350 4300 2    50   Output ~ 0
OUT
Text HLabel 700  7100 0    50   Input ~ 0
dac[0..12]
Wire Bus Line
	700  7100 750  7100
Text Label 750  7100 0    50   ~ 0
dac[0..12]
Entry Wire Line
	750  7150 850  7250
Entry Wire Line
	750  7250 850  7350
Entry Wire Line
	750  7350 850  7450
Entry Wire Line
	750  7450 850  7550
Text Label 900  7250 0    50   ~ 0
dac6
Wire Wire Line
	850  7250 1150 7250
Text Label 1150 7250 0    50   ~ 0
RES
Wire Wire Line
	850  7350 1150 7350
Text Label 900  7350 0    50   ~ 0
dac7
Text Label 1150 7350 0    50   ~ 0
F1_CUTOFF
Wire Wire Line
	850  7450 1150 7450
Wire Wire Line
	850  7550 1150 7550
Text Label 900  7450 0    50   ~ 0
dac8
Text Label 1150 7450 0    50   ~ 0
F2_CUTOFF
Text Label 900  7550 0    50   ~ 0
dac9
Text Label 1150 7550 0    50   ~ 0
OUTPUT_LEVEL
Wire Notes Line style solid rgb(132, 0, 0)
	1700 6950 1700 8050
Text HLabel 1950 7100 0    50   Input ~ 0
gpio[0..16]
Wire Bus Line
	1950 7100 2100 7100
Entry Wire Line
	2100 7250 2200 7350
Text Label 2000 7100 0    50   ~ 0
gpio[0..16]
Text Label 2200 7350 0    50   ~ 0
gpio10
Wire Wire Line
	2200 7350 2500 7350
Text Label 2500 7350 0    50   ~ 0
F1_TYPE1
Entry Wire Line
	2100 7350 2200 7450
Entry Wire Line
	2100 7450 2200 7550
Entry Wire Line
	2100 7550 2200 7650
Wire Wire Line
	2200 7450 2500 7450
Wire Wire Line
	2200 7550 2500 7550
Wire Wire Line
	2200 7650 2500 7650
Text Label 2200 7450 0    50   ~ 0
gpio11
Text Label 2500 7450 0    50   ~ 0
F1_TYPE2
Text Label 2200 7550 0    50   ~ 0
gpio12
Text Label 2500 7550 0    50   ~ 0
F2_TYPE1
Text Label 2200 7650 0    50   ~ 0
gpio13
Text Label 2500 7650 0    50   ~ 0
F2_TYPE2
Wire Notes Line style solid rgb(132, 0, 0)
	3050 6950 3050 8050
Wire Notes Line style solid rgb(132, 0, 0)
	450  6950 3100 6950
$Comp
L power:+12V #PWR?
U 1 1 5DD0E277
P 7050 5800
AR Path="/5DD0E277" Ref="#PWR?"  Part="1" 
AR Path="/5DB5BADF/5DD0E277" Ref="#PWR?"  Part="1" 
AR Path="/5DAB9CF3/5DD0E277" Ref="#PWR?"  Part="1" 
AR Path="/5DA53E0F/5DD0E277" Ref="#PWR086"  Part="1" 
F 0 "#PWR086" H 7050 5650 50  0001 C CNN
F 1 "+12V" H 7065 5973 50  0000 C CNN
F 2 "" H 7050 5800 50  0001 C CNN
F 3 "" H 7050 5800 50  0001 C CNN
	1    7050 5800
	1    0    0    -1  
$EndComp
$Comp
L Device:C C?
U 1 1 5DD0E281
P 7050 6000
AR Path="/5DAB9CF3/5DD0E281" Ref="C?"  Part="1" 
AR Path="/5DA53E0F/5DD0E281" Ref="C49"  Part="1" 
F 0 "C49" H 6900 6200 50  0000 L CNN
F 1 "0.1uF" H 6850 6100 50  0000 L CNN
F 2 "Capacitor_SMD:C_0603_1608Metric" H 7088 5850 50  0001 C CNN
F 3 "~" H 7050 6000 50  0001 C CNN
	1    7050 6000
	1    0    0    -1  
$EndComp
$Comp
L Device:C C?
U 1 1 5DD0E28B
P 7050 6400
AR Path="/5DAB9CF3/5DD0E28B" Ref="C?"  Part="1" 
AR Path="/5DA53E0F/5DD0E28B" Ref="C50"  Part="1" 
F 0 "C50" H 6950 6500 50  0000 L CNN
F 1 "0.1uF" H 6850 6300 50  0000 L CNN
F 2 "Capacitor_SMD:C_0603_1608Metric" H 7088 6250 50  0001 C CNN
F 3 "~" H 7050 6400 50  0001 C CNN
	1    7050 6400
	1    0    0    -1  
$EndComp
$Comp
L power:-5V #PWR?
U 1 1 5DD0E295
P 7050 6600
AR Path="/5DD0E295" Ref="#PWR?"  Part="1" 
AR Path="/5DB5BADF/5DD0E295" Ref="#PWR?"  Part="1" 
AR Path="/5DAB9CF3/5DD0E295" Ref="#PWR?"  Part="1" 
AR Path="/5DA53E0F/5DD0E295" Ref="#PWR088"  Part="1" 
F 0 "#PWR088" H 7050 6700 50  0001 C CNN
F 1 "-5V" H 7200 6700 50  0000 C CNN
F 2 "" H 7050 6600 50  0001 C CNN
F 3 "" H 7050 6600 50  0001 C CNN
	1    7050 6600
	-1   0    0    1   
$EndComp
Wire Wire Line
	7050 6550 7050 6600
Wire Wire Line
	7050 6250 7050 6200
Wire Wire Line
	7050 5850 7050 5800
$Comp
L power:GND #PWR?
U 1 1 5DD0E2A2
P 7050 6200
AR Path="/5DAB9CF3/5DD0E2A2" Ref="#PWR?"  Part="1" 
AR Path="/5DA53E0F/5DD0E2A2" Ref="#PWR087"  Part="1" 
F 0 "#PWR087" H 7050 5950 50  0001 C CNN
F 1 "GND" V 7100 6050 50  0000 C CNN
F 2 "" H 7050 6200 50  0001 C CNN
F 3 "" H 7050 6200 50  0001 C CNN
	1    7050 6200
	0    1    1    0   
$EndComp
Connection ~ 7050 6200
Wire Wire Line
	7050 6200 7050 6150
$Comp
L power:-5V #PWR?
U 1 1 5DD8D963
P 8150 6550
AR Path="/5DD8D963" Ref="#PWR?"  Part="1" 
AR Path="/5DB5BADF/5DD8D963" Ref="#PWR?"  Part="1" 
AR Path="/5DAB9CF3/5DD8D963" Ref="#PWR?"  Part="1" 
AR Path="/5DA53E0F/5DD8D963" Ref="#PWR097"  Part="1" 
F 0 "#PWR097" H 8150 6650 50  0001 C CNN
F 1 "-5V" H 8300 6650 50  0000 C CNN
F 2 "" H 8150 6550 50  0001 C CNN
F 3 "" H 8150 6550 50  0001 C CNN
	1    8150 6550
	-1   0    0    1   
$EndComp
Wire Wire Line
	8150 6500 8150 6550
$Comp
L power:GND #PWR?
U 1 1 5DD8D96E
P 7950 6200
AR Path="/5DAB9CF3/5DD8D96E" Ref="#PWR?"  Part="1" 
AR Path="/5DA53E0F/5DD8D96E" Ref="#PWR095"  Part="1" 
F 0 "#PWR095" H 7950 5950 50  0001 C CNN
F 1 "GND" V 8000 6050 50  0000 C CNN
F 2 "" H 7950 6200 50  0001 C CNN
F 3 "" H 7950 6200 50  0001 C CNN
	1    7950 6200
	0    1    1    0   
$EndComp
$Comp
L Device:C C?
U 1 1 5DD8D978
P 8000 6400
AR Path="/5DAB9CF3/5DD8D978" Ref="C?"  Part="1" 
AR Path="/5DA53E0F/5DD8D978" Ref="C56"  Part="1" 
F 0 "C56" H 7900 6500 50  0000 L CNN
F 1 "0.1uF" H 7800 6300 50  0000 L CNN
F 2 "Capacitor_SMD:C_0603_1608Metric" H 8038 6250 50  0001 C CNN
F 3 "~" H 8000 6400 50  0001 C CNN
	1    8000 6400
	1    0    0    -1  
$EndComp
Wire Wire Line
	8000 6200 7950 6200
Wire Wire Line
	8000 6200 8000 6250
Wire Wire Line
	8000 6550 8150 6550
Connection ~ 8150 6550
Connection ~ 8000 6200
Connection ~ 8150 5900
Wire Wire Line
	8000 5900 8150 5900
$Comp
L Device:C C?
U 1 1 5DD8D989
P 8000 6050
AR Path="/5DAB9CF3/5DD8D989" Ref="C?"  Part="1" 
AR Path="/5DA53E0F/5DD8D989" Ref="C55"  Part="1" 
F 0 "C55" H 7850 6250 50  0000 L CNN
F 1 "0.1uF" H 7800 6150 50  0000 L CNN
F 2 "Capacitor_SMD:C_0603_1608Metric" H 8038 5900 50  0001 C CNN
F 3 "~" H 8000 6050 50  0001 C CNN
	1    8000 6050
	1    0    0    -1  
$EndComp
Wire Wire Line
	8150 5850 8150 5900
$Comp
L power:+12V #PWR?
U 1 1 5DD8D994
P 8150 5850
AR Path="/5DD8D994" Ref="#PWR?"  Part="1" 
AR Path="/5DB5BADF/5DD8D994" Ref="#PWR?"  Part="1" 
AR Path="/5DAB9CF3/5DD8D994" Ref="#PWR?"  Part="1" 
AR Path="/5DA53E0F/5DD8D994" Ref="#PWR096"  Part="1" 
F 0 "#PWR096" H 8150 5700 50  0001 C CNN
F 1 "+12V" H 8165 6023 50  0000 C CNN
F 2 "" H 8150 5850 50  0001 C CNN
F 3 "" H 8150 5850 50  0001 C CNN
	1    8150 5850
	1    0    0    -1  
$EndComp
$Comp
L Device:Opamp_Quad_Generic U?
U 5 1 5DD8D99E
P 8250 6200
AR Path="/5DB5BADF/5DD8D99E" Ref="U?"  Part="5" 
AR Path="/5DAB9CF3/5DD8D99E" Ref="U?"  Part="5" 
AR Path="/5DA53E0F/5DD8D99E" Ref="U11"  Part="5" 
F 0 "U11" H 8000 6550 50  0000 L CNN
F 1 "LF347" H 7900 6650 50  0000 L CNN
F 2 "Package_SO:SOIC-14_3.9x8.7mm_P1.27mm" H 8250 6200 50  0001 C CNN
F 3 "~" H 8250 6200 50  0001 C CNN
	5    8250 6200
	1    0    0    -1  
$EndComp
$Comp
L power:-5V #PWR?
U 1 1 5DDBC8AB
P 7800 6550
AR Path="/5DDBC8AB" Ref="#PWR?"  Part="1" 
AR Path="/5DB5BADF/5DDBC8AB" Ref="#PWR?"  Part="1" 
AR Path="/5DAB9CF3/5DDBC8AB" Ref="#PWR?"  Part="1" 
AR Path="/5DA53E0F/5DDBC8AB" Ref="#PWR094"  Part="1" 
F 0 "#PWR094" H 7800 6650 50  0001 C CNN
F 1 "-5V" H 7950 6650 50  0000 C CNN
F 2 "" H 7800 6550 50  0001 C CNN
F 3 "" H 7800 6550 50  0001 C CNN
	1    7800 6550
	-1   0    0    1   
$EndComp
Wire Wire Line
	7800 6500 7800 6550
$Comp
L Device:C C?
U 1 1 5DDBC8C0
P 7650 6400
AR Path="/5DAB9CF3/5DDBC8C0" Ref="C?"  Part="1" 
AR Path="/5DA53E0F/5DDBC8C0" Ref="C54"  Part="1" 
F 0 "C54" H 7550 6500 50  0000 L CNN
F 1 "0.1uF" H 7450 6300 50  0000 L CNN
F 2 "Capacitor_SMD:C_0603_1608Metric" H 7688 6250 50  0001 C CNN
F 3 "~" H 7650 6400 50  0001 C CNN
	1    7650 6400
	1    0    0    -1  
$EndComp
Wire Wire Line
	7650 6200 7600 6200
Wire Wire Line
	7650 6200 7650 6250
Wire Wire Line
	7650 6550 7800 6550
Connection ~ 7800 6550
Connection ~ 7650 6200
Connection ~ 7800 5900
Wire Wire Line
	7650 5900 7800 5900
$Comp
L Device:C C?
U 1 1 5DDBC8D1
P 7650 6050
AR Path="/5DAB9CF3/5DDBC8D1" Ref="C?"  Part="1" 
AR Path="/5DA53E0F/5DDBC8D1" Ref="C53"  Part="1" 
F 0 "C53" H 7500 6250 50  0000 L CNN
F 1 "0.1uF" H 7450 6150 50  0000 L CNN
F 2 "Capacitor_SMD:C_0603_1608Metric" H 7688 5900 50  0001 C CNN
F 3 "~" H 7650 6050 50  0001 C CNN
	1    7650 6050
	1    0    0    -1  
$EndComp
Wire Wire Line
	7800 5850 7800 5900
$Comp
L power:+12V #PWR?
U 1 1 5DDBC8DC
P 7800 5850
AR Path="/5DDBC8DC" Ref="#PWR?"  Part="1" 
AR Path="/5DB5BADF/5DDBC8DC" Ref="#PWR?"  Part="1" 
AR Path="/5DAB9CF3/5DDBC8DC" Ref="#PWR?"  Part="1" 
AR Path="/5DA53E0F/5DDBC8DC" Ref="#PWR093"  Part="1" 
F 0 "#PWR093" H 7800 5700 50  0001 C CNN
F 1 "+12V" H 7815 6023 50  0000 C CNN
F 2 "" H 7800 5850 50  0001 C CNN
F 3 "" H 7800 5850 50  0001 C CNN
	1    7800 5850
	1    0    0    -1  
$EndComp
$Comp
L Device:Opamp_Quad_Generic U?
U 5 1 5DDBC8E6
P 7900 6200
AR Path="/5DB5BADF/5DDBC8E6" Ref="U?"  Part="5" 
AR Path="/5DAB9CF3/5DDBC8E6" Ref="U?"  Part="5" 
AR Path="/5DA53E0F/5DDBC8E6" Ref="U10"  Part="5" 
F 0 "U10" H 7650 6550 50  0000 L CNN
F 1 "LF347" H 7500 6650 50  0000 L CNN
F 2 "Package_SO:SOIC-14_3.9x8.7mm_P1.27mm" H 7900 6200 50  0001 C CNN
F 3 "~" H 7900 6200 50  0001 C CNN
	5    7900 6200
	1    0    0    -1  
$EndComp
Text Notes 500  950  0    50   ~ 0
current in: 60uA\n
Wire Notes Line
	2100 2050 2000 2050
Entry Wire Line
	2100 7650 2200 7750
Entry Wire Line
	2100 7750 2200 7850
Entry Wire Line
	2100 7850 2200 7950
Wire Wire Line
	2200 7750 2500 7750
Wire Wire Line
	2200 7850 2500 7850
Wire Wire Line
	2200 7950 2500 7950
Text Label 2200 7750 0    50   ~ 0
gpio14
Text Label 2200 7850 0    50   ~ 0
gpio15
Text Label 2200 7950 0    50   ~ 0
gpio16
Text Label 2500 7750 0    50   ~ 0
FCONFIG
Text Label 2500 7850 0    50   ~ 0
F1_DISABLE
Text Label 2500 7950 0    50   ~ 0
F2_DISABLE
$Comp
L power:+12V #PWR?
U 1 1 5E21FF24
P 6750 5800
AR Path="/5E21FF24" Ref="#PWR?"  Part="1" 
AR Path="/5DB5BADF/5E21FF24" Ref="#PWR?"  Part="1" 
AR Path="/5DAB9CF3/5E21FF24" Ref="#PWR?"  Part="1" 
AR Path="/5DA53E0F/5E21FF24" Ref="#PWR083"  Part="1" 
F 0 "#PWR083" H 6750 5650 50  0001 C CNN
F 1 "+12V" H 6765 5973 50  0000 C CNN
F 2 "" H 6750 5800 50  0001 C CNN
F 3 "" H 6750 5800 50  0001 C CNN
	1    6750 5800
	1    0    0    -1  
$EndComp
$Comp
L Device:C C?
U 1 1 5E21FF2E
P 6750 6000
AR Path="/5DAB9CF3/5E21FF2E" Ref="C?"  Part="1" 
AR Path="/5DA53E0F/5E21FF2E" Ref="C47"  Part="1" 
F 0 "C47" H 6600 6200 50  0000 L CNN
F 1 "0.1uF" H 6550 6100 50  0000 L CNN
F 2 "Capacitor_SMD:C_0603_1608Metric" H 6788 5850 50  0001 C CNN
F 3 "~" H 6750 6000 50  0001 C CNN
	1    6750 6000
	1    0    0    -1  
$EndComp
$Comp
L Device:C C?
U 1 1 5E21FF38
P 6750 6400
AR Path="/5DAB9CF3/5E21FF38" Ref="C?"  Part="1" 
AR Path="/5DA53E0F/5E21FF38" Ref="C48"  Part="1" 
F 0 "C48" H 6650 6500 50  0000 L CNN
F 1 "0.1uF" H 6550 6300 50  0000 L CNN
F 2 "Capacitor_SMD:C_0603_1608Metric" H 6788 6250 50  0001 C CNN
F 3 "~" H 6750 6400 50  0001 C CNN
	1    6750 6400
	1    0    0    -1  
$EndComp
$Comp
L power:-5V #PWR?
U 1 1 5E21FF42
P 6750 6600
AR Path="/5E21FF42" Ref="#PWR?"  Part="1" 
AR Path="/5DB5BADF/5E21FF42" Ref="#PWR?"  Part="1" 
AR Path="/5DAB9CF3/5E21FF42" Ref="#PWR?"  Part="1" 
AR Path="/5DA53E0F/5E21FF42" Ref="#PWR085"  Part="1" 
F 0 "#PWR085" H 6750 6700 50  0001 C CNN
F 1 "-5V" H 6900 6700 50  0000 C CNN
F 2 "" H 6750 6600 50  0001 C CNN
F 3 "" H 6750 6600 50  0001 C CNN
	1    6750 6600
	-1   0    0    1   
$EndComp
Wire Wire Line
	6750 6550 6750 6600
Wire Wire Line
	6750 6250 6750 6200
Wire Wire Line
	6750 5850 6750 5800
$Comp
L power:GND #PWR?
U 1 1 5E21FF4F
P 6750 6200
AR Path="/5DAB9CF3/5E21FF4F" Ref="#PWR?"  Part="1" 
AR Path="/5DA53E0F/5E21FF4F" Ref="#PWR084"  Part="1" 
F 0 "#PWR084" H 6750 5950 50  0001 C CNN
F 1 "GND" V 6800 6050 50  0000 C CNN
F 2 "" H 6750 6200 50  0001 C CNN
F 3 "" H 6750 6200 50  0001 C CNN
	1    6750 6200
	0    1    1    0   
$EndComp
Connection ~ 6750 6200
Wire Wire Line
	6750 6200 6750 6150
Wire Wire Line
	7750 4300 7800 4300
Text Label 850  4300 2    50   ~ 0
F2_INJECT
Text Label 6750 4800 2    50   ~ 0
F2_DISABLE
Wire Wire Line
	8850 6250 8950 6250
Wire Wire Line
	8950 6250 8950 6150
Wire Wire Line
	8950 6150 9000 6150
$Comp
L power:GND #PWR?
U 1 1 5EB27D2D
P 9850 6100
AR Path="/5DAB9CF3/5EB27D2D" Ref="#PWR?"  Part="1" 
AR Path="/5DA53E0F/5EB27D2D" Ref="#PWR0111"  Part="1" 
F 0 "#PWR0111" H 9850 5850 50  0001 C CNN
F 1 "GND" V 9850 5900 50  0000 C CNN
F 2 "" H 9850 6100 50  0001 C CNN
F 3 "" H 9850 6100 50  0001 C CNN
	1    9850 6100
	0    1    1    0   
$EndComp
Wire Wire Line
	9850 6100 9900 6100
$Comp
L power:-5V #PWR?
U 1 1 5EB27D38
P 9750 6650
AR Path="/5EB27D38" Ref="#PWR?"  Part="1" 
AR Path="/5DB5BADF/5EB27D38" Ref="#PWR?"  Part="1" 
AR Path="/5DAB9CF3/5EB27D38" Ref="#PWR?"  Part="1" 
AR Path="/5DA53E0F/5EB27D38" Ref="#PWR0109"  Part="1" 
F 0 "#PWR0109" H 9750 6750 50  0001 C CNN
F 1 "-5V" H 9900 6750 50  0000 C CNN
F 2 "" H 9750 6650 50  0001 C CNN
F 3 "" H 9750 6650 50  0001 C CNN
	1    9750 6650
	-1   0    0    1   
$EndComp
Wire Wire Line
	9700 6600 9750 6600
Wire Wire Line
	9750 6600 9750 6650
Wire Wire Line
	9700 6150 9900 6150
Wire Wire Line
	9900 6150 9900 6100
Connection ~ 9900 6100
Wire Wire Line
	9900 6100 9950 6100
Wire Wire Line
	9700 6050 9900 6050
Wire Wire Line
	9900 6050 9900 6100
NoConn ~ 9950 6300
Wire Wire Line
	9850 5750 9850 6000
Connection ~ 9850 5750
Wire Wire Line
	9700 5750 9850 5750
Wire Wire Line
	9850 6000 9950 6000
$Comp
L Device:C C?
U 1 1 5EB27D4F
P 9700 5900
AR Path="/5DAB9CF3/5EB27D4F" Ref="C?"  Part="1" 
AR Path="/5DA53E0F/5EB27D4F" Ref="C63"  Part="1" 
F 0 "C63" H 9600 6000 50  0000 L CNN
F 1 "0.1uF" H 9900 5900 50  0000 L CNN
F 2 "Capacitor_SMD:C_0603_1608Metric" H 9738 5750 50  0001 C CNN
F 3 "~" H 9700 5900 50  0001 C CNN
	1    9700 5900
	1    0    0    -1  
$EndComp
Wire Wire Line
	9850 5700 9850 5750
$Comp
L power:+12V #PWR?
U 1 1 5EB27D5A
P 9850 5700
AR Path="/5EB27D5A" Ref="#PWR?"  Part="1" 
AR Path="/5DB5BADF/5EB27D5A" Ref="#PWR?"  Part="1" 
AR Path="/5DAB9CF3/5EB27D5A" Ref="#PWR?"  Part="1" 
AR Path="/5DA53E0F/5EB27D5A" Ref="#PWR0110"  Part="1" 
F 0 "#PWR0110" H 9850 5550 50  0001 C CNN
F 1 "+12V" H 9865 5873 50  0000 C CNN
F 2 "" H 9850 5700 50  0001 C CNN
F 3 "" H 9850 5700 50  0001 C CNN
	1    9850 5700
	1    0    0    -1  
$EndComp
$Comp
L local:SSM2164 U?
U 5 1 5EB27D64
P 10250 6150
AR Path="/5EB27D64" Ref="U?"  Part="1" 
AR Path="/5DAB9CF3/5EB27D64" Ref="U?"  Part="1" 
AR Path="/5DA53E0F/5EB27D64" Ref="U13"  Part="5" 
F 0 "U13" H 10150 5800 50  0000 L CNN
F 1 "SSM2164" H 10150 5900 50  0000 L CNN
F 2 "Package_SO:SOIC-16_3.9x9.9mm_P1.27mm" H 10250 6150 50  0001 C CNN
F 3 "" H 10250 6150 50  0001 C CNN
	5    10250 6150
	1    0    0    1   
$EndComp
$Comp
L Device:C C?
U 1 1 5EB27D6E
P 9700 6450
AR Path="/5DAB9CF3/5EB27D6E" Ref="C?"  Part="1" 
AR Path="/5DA53E0F/5EB27D6E" Ref="C64"  Part="1" 
F 0 "C64" H 9600 6550 50  0000 L CNN
F 1 "0.1uF" H 9800 6350 50  0000 L CNN
F 2 "Capacitor_SMD:C_0603_1608Metric" H 9738 6300 50  0001 C CNN
F 3 "~" H 9700 6450 50  0001 C CNN
	1    9700 6450
	1    0    0    -1  
$EndComp
Wire Wire Line
	9750 6600 9800 6600
Wire Wire Line
	9800 6600 9800 6300
Connection ~ 9750 6600
Wire Wire Line
	9800 6300 9900 6300
Wire Wire Line
	9900 6300 9900 6200
Wire Wire Line
	9900 6200 9950 6200
Wire Wire Line
	9700 6150 9700 6300
$Comp
L local:SSM2164 U13
U 4 1 5EC74923
P 10100 2450
F 0 "U13" H 10150 2865 50  0000 C CNN
F 1 "SSM2164" H 10150 2774 50  0000 C CNN
F 2 "Package_SO:SOIC-16_3.9x9.9mm_P1.27mm" H 10100 2450 50  0001 C CNN
F 3 "" H 10100 2450 50  0001 C CNN
	4    10100 2450
	1    0    0    -1  
$EndComp
$Comp
L local:4052 U15
U 1 1 5ED1BB76
P 7400 2000
F 0 "U15" H 7375 2415 50  0000 C CNN
F 1 "4052" H 7375 2324 50  0000 C CNN
F 2 "Package_SO:SOP-16_4.4x10.4mm_P1.27mm" H 7400 1950 50  0001 C CNN
F 3 "" H 7400 1950 50  0001 C CNN
	1    7400 2000
	1    0    0    -1  
$EndComp
$Comp
L power:GND #PWR?
U 1 1 5DDBC8B6
P 7600 6200
AR Path="/5DAB9CF3/5DDBC8B6" Ref="#PWR?"  Part="1" 
AR Path="/5DA53E0F/5DDBC8B6" Ref="#PWR092"  Part="1" 
F 0 "#PWR092" H 7600 5950 50  0001 C CNN
F 1 "GND" V 7650 6050 50  0000 C CNN
F 2 "" H 7600 6200 50  0001 C CNN
F 3 "" H 7600 6200 50  0001 C CNN
	1    7600 6200
	0    1    1    0   
$EndComp
Wire Wire Line
	7350 6200 7350 6150
$Comp
L power:GND #PWR?
U 1 1 5DCD6C39
P 7350 6200
AR Path="/5DAB9CF3/5DCD6C39" Ref="#PWR?"  Part="1" 
AR Path="/5DA53E0F/5DCD6C39" Ref="#PWR090"  Part="1" 
F 0 "#PWR090" H 7350 5950 50  0001 C CNN
F 1 "GND" V 7400 6050 50  0000 C CNN
F 2 "" H 7350 6200 50  0001 C CNN
F 3 "" H 7350 6200 50  0001 C CNN
	1    7350 6200
	0    1    1    0   
$EndComp
Wire Wire Line
	7350 5850 7350 5800
Connection ~ 7350 6200
Wire Wire Line
	7350 6250 7350 6200
Wire Wire Line
	7350 6550 7350 6600
$Comp
L power:-5V #PWR?
U 1 1 5DC9E3C9
P 7350 6600
AR Path="/5DC9E3C9" Ref="#PWR?"  Part="1" 
AR Path="/5DB5BADF/5DC9E3C9" Ref="#PWR?"  Part="1" 
AR Path="/5DAB9CF3/5DC9E3C9" Ref="#PWR?"  Part="1" 
AR Path="/5DA53E0F/5DC9E3C9" Ref="#PWR091"  Part="1" 
F 0 "#PWR091" H 7350 6700 50  0001 C CNN
F 1 "-5V" H 7500 6700 50  0000 C CNN
F 2 "" H 7350 6600 50  0001 C CNN
F 3 "" H 7350 6600 50  0001 C CNN
	1    7350 6600
	-1   0    0    1   
$EndComp
$Comp
L Device:C C?
U 1 1 5DC9D391
P 7350 6400
AR Path="/5DAB9CF3/5DC9D391" Ref="C?"  Part="1" 
AR Path="/5DA53E0F/5DC9D391" Ref="C52"  Part="1" 
F 0 "C52" H 7250 6500 50  0000 L CNN
F 1 "0.1uF" H 7150 6300 50  0000 L CNN
F 2 "Capacitor_SMD:C_0603_1608Metric" H 7388 6250 50  0001 C CNN
F 3 "~" H 7350 6400 50  0001 C CNN
	1    7350 6400
	1    0    0    -1  
$EndComp
$Comp
L Device:C C?
U 1 1 5DC9D17A
P 7350 6000
AR Path="/5DAB9CF3/5DC9D17A" Ref="C?"  Part="1" 
AR Path="/5DA53E0F/5DC9D17A" Ref="C51"  Part="1" 
F 0 "C51" H 7200 6200 50  0000 L CNN
F 1 "0.1uF" H 7150 6100 50  0000 L CNN
F 2 "Capacitor_SMD:C_0603_1608Metric" H 7388 5850 50  0001 C CNN
F 3 "~" H 7350 6000 50  0001 C CNN
	1    7350 6000
	1    0    0    -1  
$EndComp
$Comp
L power:+12V #PWR?
U 1 1 5DC9CDD8
P 7350 5800
AR Path="/5DC9CDD8" Ref="#PWR?"  Part="1" 
AR Path="/5DB5BADF/5DC9CDD8" Ref="#PWR?"  Part="1" 
AR Path="/5DAB9CF3/5DC9CDD8" Ref="#PWR?"  Part="1" 
AR Path="/5DA53E0F/5DC9CDD8" Ref="#PWR089"  Part="1" 
F 0 "#PWR089" H 7350 5650 50  0001 C CNN
F 1 "+12V" H 7365 5973 50  0000 C CNN
F 2 "" H 7350 5800 50  0001 C CNN
F 3 "" H 7350 5800 50  0001 C CNN
	1    7350 5800
	1    0    0    -1  
$EndComp
$Comp
L local:4052 U15
U 4 1 5F05A28D
P 4750 7700
F 0 "U15" H 4928 7746 50  0000 L CNN
F 1 "4052" H 4928 7655 50  0000 L CNN
F 2 "Package_SO:SOP-16_4.4x10.4mm_P1.27mm" H 4750 7650 50  0001 C CNN
F 3 "" H 4750 7650 50  0001 C CNN
	4    4750 7700
	1    0    0    -1  
$EndComp
Wire Wire Line
	4350 7600 4400 7600
$Comp
L power:GND #PWR?
U 1 1 5F05A299
P 4350 7700
AR Path="/5DAB9CF3/5F05A299" Ref="#PWR?"  Part="1" 
AR Path="/5DA53E0F/5F05A299" Ref="#PWR069"  Part="1" 
F 0 "#PWR069" H 4350 7450 50  0001 C CNN
F 1 "GND" V 4400 7550 50  0000 C CNN
F 2 "" H 4350 7700 50  0001 C CNN
F 3 "" H 4350 7700 50  0001 C CNN
	1    4350 7700
	0    1    1    0   
$EndComp
Wire Wire Line
	4350 7700 4400 7700
$Comp
L power:-5V #PWR?
U 1 1 5F05A2A4
P 4350 7800
AR Path="/5F05A2A4" Ref="#PWR?"  Part="1" 
AR Path="/5DB5BADF/5F05A2A4" Ref="#PWR?"  Part="1" 
AR Path="/5DAB9CF3/5F05A2A4" Ref="#PWR?"  Part="1" 
AR Path="/5DA53E0F/5F05A2A4" Ref="#PWR070"  Part="1" 
F 0 "#PWR070" H 4350 7900 50  0001 C CNN
F 1 "-5V" H 4250 7950 50  0000 C CNN
F 2 "" H 4350 7800 50  0001 C CNN
F 3 "" H 4350 7800 50  0001 C CNN
	1    4350 7800
	0    -1   -1   0   
$EndComp
$Comp
L power:+12V #PWR?
U 1 1 5F05A2AE
P 4350 7600
AR Path="/5F05A2AE" Ref="#PWR?"  Part="1" 
AR Path="/5DB5BADF/5F05A2AE" Ref="#PWR?"  Part="1" 
AR Path="/5DAB9CF3/5F05A2AE" Ref="#PWR?"  Part="1" 
AR Path="/5DA53E0F/5F05A2AE" Ref="#PWR068"  Part="1" 
F 0 "#PWR068" H 4350 7450 50  0001 C CNN
F 1 "+12V" H 4365 7773 50  0000 C CNN
F 2 "" H 4350 7600 50  0001 C CNN
F 3 "" H 4350 7600 50  0001 C CNN
	1    4350 7600
	0    -1   -1   0   
$EndComp
$Comp
L local:4052 U16
U 1 1 5F0D34ED
P 7450 4300
F 0 "U16" H 7425 4715 50  0000 C CNN
F 1 "4052" H 7425 4624 50  0000 C CNN
F 2 "Package_SO:SOP-16_4.4x10.4mm_P1.27mm" H 7450 4250 50  0001 C CNN
F 3 "" H 7450 4250 50  0001 C CNN
	1    7450 4300
	1    0    0    -1  
$EndComp
$Comp
L local:4052 U16
U 3 1 5F0D34F7
P 7100 4700
F 0 "U16" H 7228 4746 50  0000 L CNN
F 1 "4052" H 7228 4655 50  0000 L CNN
F 2 "Package_SO:SOP-16_4.4x10.4mm_P1.27mm" H 7100 4650 50  0001 C CNN
F 3 "" H 7100 4650 50  0001 C CNN
	3    7100 4700
	1    0    0    -1  
$EndComp
$Comp
L local:4052 U16
U 2 1 5F1AF48A
P 4950 6250
F 0 "U16" H 4925 6665 50  0000 C CNN
F 1 "4052" H 4925 6574 50  0000 C CNN
F 2 "Package_SO:SOP-16_4.4x10.4mm_P1.27mm" H 4950 6200 50  0001 C CNN
F 3 "" H 4950 6200 50  0001 C CNN
	2    4950 6250
	1    0    0    -1  
$EndComp
$Comp
L local:4052 U15
U 2 1 5F1B1916
P 4200 6250
F 0 "U15" H 4175 6665 50  0000 C CNN
F 1 "4052" H 4175 6574 50  0000 C CNN
F 2 "Package_SO:SOP-16_4.4x10.4mm_P1.27mm" H 4200 6200 50  0001 C CNN
F 3 "" H 4200 6200 50  0001 C CNN
	2    4200 6250
	1    0    0    -1  
$EndComp
NoConn ~ 5250 6250
NoConn ~ 4600 6400
NoConn ~ 4600 6300
NoConn ~ 4600 6200
NoConn ~ 4600 6100
NoConn ~ 3850 6100
NoConn ~ 3850 6200
NoConn ~ 3850 6300
NoConn ~ 3850 6400
$Comp
L local:4053 U9
U 1 1 5F335768
P 1500 3250
F 0 "U9" H 1850 3400 50  0000 C CNN
F 1 "4053" H 1750 3450 50  0000 C CNN
F 2 "Package_SO:SOP-16_4.4x10.4mm_P1.27mm" H 1500 3250 50  0001 C CNN
F 3 "" H 1500 3250 50  0001 C CNN
	1    1500 3250
	-1   0    0    -1  
$EndComp
Wire Wire Line
	1500 3650 1700 3650
Text Label 1700 3650 0    50   ~ 0
FCONFIG
Wire Wire Line
	1800 3300 2000 3300
Wire Wire Line
	2000 3300 2000 3000
Wire Wire Line
	2000 3000 600  3000
Wire Wire Line
	1150 3250 850  3250
$Comp
L Device:R_US R84
U 1 1 5F481298
P 8150 3250
F 0 "R84" V 8200 3400 50  0000 C CNN
F 1 "68k" V 8200 3100 50  0000 C CNN
F 2 "Resistor_SMD:R_0603_1608Metric" V 8190 3240 50  0001 C CNN
F 3 "~" H 8150 3250 50  0001 C CNN
	1    8150 3250
	0    -1   -1   0   
$EndComp
Text Label 8300 2900 0    50   ~ 0
FCONFIG
Wire Wire Line
	8300 2900 8200 2900
$Comp
L local:4053 U17
U 2 1 5F4214B0
P 7800 2900
F 0 "U17" H 8150 3050 50  0000 C CNN
F 1 "4053" H 8050 3100 50  0000 C CNN
F 2 "Package_SO:SOP-16_4.4x10.4mm_P1.27mm" H 7800 2900 50  0001 C CNN
F 3 "" H 7800 2900 50  0001 C CNN
	2    7800 2900
	0    -1   -1   0   
$EndComp
$Comp
L local:4052 U15
U 3 1 5ED1D663
P 6850 2400
F 0 "U15" H 6978 2446 50  0000 L CNN
F 1 "4052" H 6978 2355 50  0000 L CNN
F 2 "Package_SO:SOP-16_4.4x10.4mm_P1.27mm" H 6850 2350 50  0001 C CNN
F 3 "" H 6850 2350 50  0001 C CNN
	3    6850 2400
	1    0    0    -1  
$EndComp
Text Label 6450 2500 2    50   ~ 0
F1_DISABLE
Wire Wire Line
	6550 2500 6450 2500
Wire Wire Line
	6450 2400 6550 2400
Text Label 6450 2400 2    50   ~ 0
F1_TYPE2
$Comp
L local:4053 U17
U 3 1 5F68D3A4
P 8150 4300
F 0 "U17" H 8500 4450 50  0000 C CNN
F 1 "4053" H 8400 4500 50  0000 C CNN
F 2 "Package_SO:SOP-16_4.4x10.4mm_P1.27mm" H 8150 4300 50  0001 C CNN
F 3 "" H 8150 4300 50  0001 C CNN
	3    8150 4300
	-1   0    0    -1  
$EndComp
Wire Wire Line
	8850 4600 8850 4550
$Comp
L Device:R_US R86
U 1 1 5F76CB84
P 8600 4200
F 0 "R86" V 8650 4350 50  0000 C CNN
F 1 "68k" V 8650 4050 50  0000 C CNN
F 2 "Resistor_SMD:R_0603_1608Metric" V 8640 4190 50  0001 C CNN
F 3 "~" H 8600 4200 50  0001 C CNN
	1    8600 4200
	1    0    0    -1  
$EndComp
Wire Wire Line
	8450 4350 8600 4350
$Comp
L Device:R_US R85
U 1 1 5F7886B8
P 8450 4050
F 0 "R85" V 8400 3900 50  0000 C CNN
F 1 "36k" V 8400 4200 50  0000 C CNN
F 2 "Resistor_SMD:R_0603_1608Metric" V 8490 4040 50  0001 C CNN
F 3 "~" H 8450 4050 50  0001 C CNN
	1    8450 4050
	1    0    0    -1  
$EndComp
Wire Wire Line
	8450 4200 8450 4250
Wire Wire Line
	8600 4050 8600 3800
Wire Wire Line
	8600 3800 8450 3800
Wire Wire Line
	8450 3900 8450 3800
Connection ~ 8450 3800
Wire Wire Line
	8450 3800 8450 3250
Wire Wire Line
	8300 3250 8450 3250
Wire Wire Line
	8000 3250 7850 3250
Wire Wire Line
	7850 3250 7850 3200
Text Label 8100 4700 2    50   ~ 0
FCONFIG
Wire Wire Line
	8100 4700 8150 4700
$Comp
L local:4053 U9
U 4 1 5F8694E1
P 4600 7100
F 0 "U9" H 4828 7096 50  0000 L CNN
F 1 "4053" H 4828 7005 50  0000 L CNN
F 2 "Package_SO:SOP-16_4.4x10.4mm_P1.27mm" H 4600 7100 50  0001 C CNN
F 3 "" H 4600 7100 50  0001 C CNN
	4    4600 7100
	1    0    0    -1  
$EndComp
Wire Wire Line
	4350 7800 4400 7800
$Comp
L local:4052 U16
U 4 1 5F912D90
P 5700 7700
F 0 "U16" H 5878 7746 50  0000 L CNN
F 1 "4052" H 5878 7655 50  0000 L CNN
F 2 "Package_SO:SOP-16_4.4x10.4mm_P1.27mm" H 5700 7650 50  0001 C CNN
F 3 "" H 5700 7650 50  0001 C CNN
	4    5700 7700
	1    0    0    -1  
$EndComp
Wire Wire Line
	5300 7600 5350 7600
$Comp
L power:GND #PWR?
U 1 1 5F912D9B
P 5300 7700
AR Path="/5DAB9CF3/5F912D9B" Ref="#PWR?"  Part="1" 
AR Path="/5DA53E0F/5F912D9B" Ref="#PWR078"  Part="1" 
F 0 "#PWR078" H 5300 7450 50  0001 C CNN
F 1 "GND" V 5350 7550 50  0000 C CNN
F 2 "" H 5300 7700 50  0001 C CNN
F 3 "" H 5300 7700 50  0001 C CNN
	1    5300 7700
	0    1    1    0   
$EndComp
Wire Wire Line
	5300 7700 5350 7700
$Comp
L power:-5V #PWR?
U 1 1 5F912DA6
P 5300 7800
AR Path="/5F912DA6" Ref="#PWR?"  Part="1" 
AR Path="/5DB5BADF/5F912DA6" Ref="#PWR?"  Part="1" 
AR Path="/5DAB9CF3/5F912DA6" Ref="#PWR?"  Part="1" 
AR Path="/5DA53E0F/5F912DA6" Ref="#PWR079"  Part="1" 
F 0 "#PWR079" H 5300 7900 50  0001 C CNN
F 1 "-5V" H 5200 7950 50  0000 C CNN
F 2 "" H 5300 7800 50  0001 C CNN
F 3 "" H 5300 7800 50  0001 C CNN
	1    5300 7800
	0    -1   -1   0   
$EndComp
$Comp
L power:+12V #PWR?
U 1 1 5F912DB0
P 5300 7600
AR Path="/5F912DB0" Ref="#PWR?"  Part="1" 
AR Path="/5DB5BADF/5F912DB0" Ref="#PWR?"  Part="1" 
AR Path="/5DAB9CF3/5F912DB0" Ref="#PWR?"  Part="1" 
AR Path="/5DA53E0F/5F912DB0" Ref="#PWR077"  Part="1" 
F 0 "#PWR077" H 5300 7450 50  0001 C CNN
F 1 "+12V" H 5315 7773 50  0000 C CNN
F 2 "" H 5300 7600 50  0001 C CNN
F 3 "" H 5300 7600 50  0001 C CNN
	1    5300 7600
	0    -1   -1   0   
$EndComp
Wire Wire Line
	5300 7800 5350 7800
Wire Wire Line
	4250 7000 4300 7000
$Comp
L power:GND #PWR?
U 1 1 5F930AA5
P 4250 7100
AR Path="/5DAB9CF3/5F930AA5" Ref="#PWR?"  Part="1" 
AR Path="/5DA53E0F/5F930AA5" Ref="#PWR065"  Part="1" 
F 0 "#PWR065" H 4250 6850 50  0001 C CNN
F 1 "GND" V 4300 6950 50  0000 C CNN
F 2 "" H 4250 7100 50  0001 C CNN
F 3 "" H 4250 7100 50  0001 C CNN
	1    4250 7100
	0    1    1    0   
$EndComp
Wire Wire Line
	4250 7100 4300 7100
$Comp
L power:-5V #PWR?
U 1 1 5F930AB0
P 4250 7200
AR Path="/5F930AB0" Ref="#PWR?"  Part="1" 
AR Path="/5DB5BADF/5F930AB0" Ref="#PWR?"  Part="1" 
AR Path="/5DAB9CF3/5F930AB0" Ref="#PWR?"  Part="1" 
AR Path="/5DA53E0F/5F930AB0" Ref="#PWR066"  Part="1" 
F 0 "#PWR066" H 4250 7300 50  0001 C CNN
F 1 "-5V" H 4150 7350 50  0000 C CNN
F 2 "" H 4250 7200 50  0001 C CNN
F 3 "" H 4250 7200 50  0001 C CNN
	1    4250 7200
	0    -1   -1   0   
$EndComp
$Comp
L power:+12V #PWR?
U 1 1 5F930ABA
P 4250 7000
AR Path="/5F930ABA" Ref="#PWR?"  Part="1" 
AR Path="/5DB5BADF/5F930ABA" Ref="#PWR?"  Part="1" 
AR Path="/5DAB9CF3/5F930ABA" Ref="#PWR?"  Part="1" 
AR Path="/5DA53E0F/5F930ABA" Ref="#PWR064"  Part="1" 
F 0 "#PWR064" H 4250 6850 50  0001 C CNN
F 1 "+12V" H 4265 7173 50  0000 C CNN
F 2 "" H 4250 7000 50  0001 C CNN
F 3 "" H 4250 7000 50  0001 C CNN
	1    4250 7000
	0    -1   -1   0   
$EndComp
Wire Wire Line
	4250 7200 4300 7200
$Comp
L power:GND #PWR?
U 1 1 5F987FD7
P 4250 7300
AR Path="/5DAB9CF3/5F987FD7" Ref="#PWR?"  Part="1" 
AR Path="/5DA53E0F/5F987FD7" Ref="#PWR067"  Part="1" 
F 0 "#PWR067" H 4250 7050 50  0001 C CNN
F 1 "GND" V 4300 7150 50  0000 C CNN
F 2 "" H 4250 7300 50  0001 C CNN
F 3 "" H 4250 7300 50  0001 C CNN
	1    4250 7300
	0    1    1    0   
$EndComp
Wire Wire Line
	4250 7300 4300 7300
$Comp
L local:4053 U17
U 4 1 5F9E7A5F
P 5650 7100
F 0 "U17" H 5878 7096 50  0000 L CNN
F 1 "4053" H 5878 7005 50  0000 L CNN
F 2 "Package_SO:SOP-16_4.4x10.4mm_P1.27mm" H 5650 7100 50  0001 C CNN
F 3 "" H 5650 7100 50  0001 C CNN
	4    5650 7100
	1    0    0    -1  
$EndComp
Wire Wire Line
	5300 7000 5350 7000
$Comp
L power:GND #PWR?
U 1 1 5F9E7A6A
P 5300 7100
AR Path="/5DAB9CF3/5F9E7A6A" Ref="#PWR?"  Part="1" 
AR Path="/5DA53E0F/5F9E7A6A" Ref="#PWR074"  Part="1" 
F 0 "#PWR074" H 5300 6850 50  0001 C CNN
F 1 "GND" V 5350 6950 50  0000 C CNN
F 2 "" H 5300 7100 50  0001 C CNN
F 3 "" H 5300 7100 50  0001 C CNN
	1    5300 7100
	0    1    1    0   
$EndComp
Wire Wire Line
	5300 7100 5350 7100
$Comp
L power:-5V #PWR?
U 1 1 5F9E7A75
P 5300 7200
AR Path="/5F9E7A75" Ref="#PWR?"  Part="1" 
AR Path="/5DB5BADF/5F9E7A75" Ref="#PWR?"  Part="1" 
AR Path="/5DAB9CF3/5F9E7A75" Ref="#PWR?"  Part="1" 
AR Path="/5DA53E0F/5F9E7A75" Ref="#PWR075"  Part="1" 
F 0 "#PWR075" H 5300 7300 50  0001 C CNN
F 1 "-5V" H 5200 7350 50  0000 C CNN
F 2 "" H 5300 7200 50  0001 C CNN
F 3 "" H 5300 7200 50  0001 C CNN
	1    5300 7200
	0    -1   -1   0   
$EndComp
$Comp
L power:+12V #PWR?
U 1 1 5F9E7A7F
P 5300 7000
AR Path="/5F9E7A7F" Ref="#PWR?"  Part="1" 
AR Path="/5DB5BADF/5F9E7A7F" Ref="#PWR?"  Part="1" 
AR Path="/5DAB9CF3/5F9E7A7F" Ref="#PWR?"  Part="1" 
AR Path="/5DA53E0F/5F9E7A7F" Ref="#PWR073"  Part="1" 
F 0 "#PWR073" H 5300 6850 50  0001 C CNN
F 1 "+12V" H 5315 7173 50  0000 C CNN
F 2 "" H 5300 7000 50  0001 C CNN
F 3 "" H 5300 7000 50  0001 C CNN
	1    5300 7000
	0    -1   -1   0   
$EndComp
Wire Wire Line
	5300 7200 5350 7200
$Comp
L power:GND #PWR?
U 1 1 5F9E7A8A
P 5300 7300
AR Path="/5DAB9CF3/5F9E7A8A" Ref="#PWR?"  Part="1" 
AR Path="/5DA53E0F/5F9E7A8A" Ref="#PWR076"  Part="1" 
F 0 "#PWR076" H 5300 7050 50  0001 C CNN
F 1 "GND" V 5350 7150 50  0000 C CNN
F 2 "" H 5300 7300 50  0001 C CNN
F 3 "" H 5300 7300 50  0001 C CNN
	1    5300 7300
	0    1    1    0   
$EndComp
Wire Wire Line
	5300 7300 5350 7300
$Comp
L power:+12V #PWR?
U 1 1 5FA26C22
P 6500 5800
AR Path="/5FA26C22" Ref="#PWR?"  Part="1" 
AR Path="/5DB5BADF/5FA26C22" Ref="#PWR?"  Part="1" 
AR Path="/5DAB9CF3/5FA26C22" Ref="#PWR?"  Part="1" 
AR Path="/5DA53E0F/5FA26C22" Ref="#PWR080"  Part="1" 
F 0 "#PWR080" H 6500 5650 50  0001 C CNN
F 1 "+12V" H 6515 5973 50  0000 C CNN
F 2 "" H 6500 5800 50  0001 C CNN
F 3 "" H 6500 5800 50  0001 C CNN
	1    6500 5800
	1    0    0    -1  
$EndComp
$Comp
L Device:C C?
U 1 1 5FA26C2C
P 6500 6000
AR Path="/5DAB9CF3/5FA26C2C" Ref="C?"  Part="1" 
AR Path="/5DA53E0F/5FA26C2C" Ref="C45"  Part="1" 
F 0 "C45" H 6350 6200 50  0000 L CNN
F 1 "0.1uF" H 6300 6100 50  0000 L CNN
F 2 "Capacitor_SMD:C_0603_1608Metric" H 6538 5850 50  0001 C CNN
F 3 "~" H 6500 6000 50  0001 C CNN
	1    6500 6000
	1    0    0    -1  
$EndComp
$Comp
L Device:C C?
U 1 1 5FA26C36
P 6500 6400
AR Path="/5DAB9CF3/5FA26C36" Ref="C?"  Part="1" 
AR Path="/5DA53E0F/5FA26C36" Ref="C46"  Part="1" 
F 0 "C46" H 6400 6500 50  0000 L CNN
F 1 "0.1uF" H 6300 6300 50  0000 L CNN
F 2 "Capacitor_SMD:C_0603_1608Metric" H 6538 6250 50  0001 C CNN
F 3 "~" H 6500 6400 50  0001 C CNN
	1    6500 6400
	1    0    0    -1  
$EndComp
$Comp
L power:-5V #PWR?
U 1 1 5FA26C40
P 6500 6600
AR Path="/5FA26C40" Ref="#PWR?"  Part="1" 
AR Path="/5DB5BADF/5FA26C40" Ref="#PWR?"  Part="1" 
AR Path="/5DAB9CF3/5FA26C40" Ref="#PWR?"  Part="1" 
AR Path="/5DA53E0F/5FA26C40" Ref="#PWR082"  Part="1" 
F 0 "#PWR082" H 6500 6700 50  0001 C CNN
F 1 "-5V" H 6650 6700 50  0000 C CNN
F 2 "" H 6500 6600 50  0001 C CNN
F 3 "" H 6500 6600 50  0001 C CNN
	1    6500 6600
	-1   0    0    1   
$EndComp
Wire Wire Line
	6500 6550 6500 6600
Wire Wire Line
	6500 6250 6500 6200
Wire Wire Line
	6500 5850 6500 5800
$Comp
L power:GND #PWR?
U 1 1 5FA26C4D
P 6500 6200
AR Path="/5DAB9CF3/5FA26C4D" Ref="#PWR?"  Part="1" 
AR Path="/5DA53E0F/5FA26C4D" Ref="#PWR081"  Part="1" 
F 0 "#PWR081" H 6500 5950 50  0001 C CNN
F 1 "GND" V 6550 6050 50  0000 C CNN
F 2 "" H 6500 6200 50  0001 C CNN
F 3 "" H 6500 6200 50  0001 C CNN
	1    6500 6200
	0    1    1    0   
$EndComp
Connection ~ 6500 6200
Wire Wire Line
	6500 6200 6500 6150
$Comp
L local:4053 U17
U 1 1 5FBA9777
P 8050 1950
F 0 "U17" H 8400 2100 50  0000 C CNN
F 1 "4053" H 8300 2150 50  0000 C CNN
F 2 "Package_SO:SOP-16_4.4x10.4mm_P1.27mm" H 8050 1950 50  0001 C CNN
F 3 "" H 8050 1950 50  0001 C CNN
	1    8050 1950
	1    0    0    -1  
$EndComp
Entry Wire Line
	2100 7150 2200 7250
Text Label 2200 7250 0    50   ~ 0
gpio9
Wire Wire Line
	2200 7250 2500 7250
Text Label 2500 7250 0    50   ~ 0
F_SH
Wire Wire Line
	7700 2000 7750 2000
Wire Wire Line
	8050 2350 8150 2350
Text Label 8150 2350 0    50   ~ 0
F_SH
NoConn ~ 7750 1900
$Comp
L Device:C C59
U 1 1 5FCFD12A
P 8450 1750
F 0 "C59" H 8500 1650 50  0000 C CNN
F 1 "6800pF C0G" H 8200 1850 50  0000 C CNN
F 2 "Capacitor_SMD:C_0603_1608Metric" H 8488 1600 50  0001 C CNN
F 3 "~" H 8450 1750 50  0001 C CNN
	1    8450 1750
	1    0    0    -1  
$EndComp
Wire Wire Line
	8400 1950 8450 1950
Wire Wire Line
	8450 1950 8450 1900
$Comp
L power:GND #PWR099
U 1 1 5FD3BDAD
P 8450 1550
F 0 "#PWR099" H 8450 1300 50  0001 C CNN
F 1 "GND" H 8300 1450 50  0000 C CNN
F 2 "" H 8450 1550 50  0001 C CNN
F 3 "" H 8450 1550 50  0001 C CNN
	1    8450 1550
	-1   0    0    1   
$EndComp
Wire Wire Line
	8450 1600 8450 1550
$Comp
L Device:Opamp_Quad_Generic U14
U 4 1 5FD5AC79
P 9000 3350
F 0 "U14" H 9100 3200 50  0000 C CNN
F 1 "LF347" H 9100 3500 50  0000 C CNN
F 2 "Package_SO:SOIC-14_3.9x8.7mm_P1.27mm" H 9000 3350 50  0001 C CNN
F 3 "~" H 9000 3350 50  0001 C CNN
	4    9000 3350
	1    0    0    1   
$EndComp
$Comp
L Device:Opamp_Quad_Generic U14
U 3 1 5FDB702B
P 8850 1850
F 0 "U14" H 8950 1700 50  0000 C CNN
F 1 "LF347" H 8950 2000 50  0000 C CNN
F 2 "Package_SO:SOIC-14_3.9x8.7mm_P1.27mm" H 8850 1850 50  0001 C CNN
F 3 "~" H 8850 1850 50  0001 C CNN
	3    8850 1850
	1    0    0    1   
$EndComp
Wire Wire Line
	8450 1950 8550 1950
Connection ~ 8450 1950
Wire Wire Line
	8550 1750 8550 1600
Wire Wire Line
	9150 1600 9150 1850
Wire Wire Line
	8550 1600 9150 1600
Wire Wire Line
	9150 1850 9150 2550
Wire Wire Line
	9150 2550 7800 2550
Connection ~ 9150 1850
$Comp
L power:GND #PWR0102
U 1 1 5EE52763
P 8650 3450
F 0 "#PWR0102" H 8650 3200 50  0001 C CNN
F 1 "GND" V 8750 3400 50  0000 C CNN
F 2 "" H 8650 3450 50  0001 C CNN
F 3 "" H 8650 3450 50  0001 C CNN
	1    8650 3450
	0    1    1    0   
$EndComp
Wire Wire Line
	8650 3450 8700 3450
Wire Wire Line
	8700 3250 8450 3250
Connection ~ 8450 3250
$Comp
L Device:R_US R88
U 1 1 5EE92A86
P 8900 3050
F 0 "R88" V 8850 2900 50  0000 C CNN
F 1 "36k" V 8850 3200 50  0000 C CNN
F 2 "Resistor_SMD:R_0603_1608Metric" V 8940 3040 50  0001 C CNN
F 3 "~" H 8900 3050 50  0001 C CNN
	1    8900 3050
	0    1    1    0   
$EndComp
Wire Wire Line
	8750 3050 8450 3050
Wire Wire Line
	8450 3050 8450 3250
Wire Wire Line
	9050 3050 9350 3050
Wire Wire Line
	9350 3050 9350 3350
Wire Wire Line
	9350 3350 9300 3350
Connection ~ 9350 3050
Wire Wire Line
	9350 3650 9350 3350
Wire Wire Line
	8850 3650 8850 4200
Connection ~ 9350 3350
$Comp
L Device:R_US R89
U 1 1 5F17BA2E
P 9100 3650
F 0 "R89" V 9050 3500 50  0000 C CNN
F 1 "36k" V 9050 3800 50  0000 C CNN
F 2 "Resistor_SMD:R_0603_1608Metric" V 9140 3640 50  0001 C CNN
F 3 "~" H 9100 3650 50  0001 C CNN
	1    9100 3650
	0    1    1    0   
$EndComp
Wire Wire Line
	9250 3650 9350 3650
Wire Wire Line
	8950 3650 8850 3650
Text Notes 9350 1550 0    50   ~ 0
-2V -> 2V (no resonance)
$Comp
L Device:R_US R91
U 1 1 5E735959
P 9750 2650
F 0 "R91" H 9650 2600 50  0000 C CNN
F 1 "470" H 9650 2700 50  0000 C CNN
F 2 "Resistor_SMD:R_0603_1608Metric" V 9790 2640 50  0001 C CNN
F 3 "~" H 9750 2650 50  0001 C CNN
	1    9750 2650
	-1   0    0    1   
$EndComp
$Comp
L Device:C C65
U 1 1 5E736391
P 9750 3000
F 0 "C65" V 9800 2900 50  0000 C CNN
F 1 "560pF C0G" V 9600 3000 50  0000 C CNN
F 2 "Capacitor_SMD:C_0603_1608Metric" H 9788 2850 50  0001 C CNN
F 3 "~" H 9750 3000 50  0001 C CNN
	1    9750 3000
	1    0    0    -1  
$EndComp
Wire Wire Line
	9350 3050 9350 2450
Text HLabel 9550 1600 2    50   Output ~ 0
TUNING
Wire Wire Line
	9350 1600 9550 1600
$Comp
L power:GND #PWR0108
U 1 1 5E77B6B6
P 9750 3200
F 0 "#PWR0108" H 9750 2950 50  0001 C CNN
F 1 "GND" V 9850 3150 50  0000 C CNN
F 2 "" H 9750 3200 50  0001 C CNN
F 3 "" H 9750 3200 50  0001 C CNN
	1    9750 3200
	1    0    0    -1  
$EndComp
$Comp
L Device:R_US R90
U 1 1 5E77BEB0
P 9550 2450
F 0 "R90" V 9500 2300 50  0000 C CNN
F 1 "10k" V 9500 2600 50  0000 C CNN
F 2 "Resistor_SMD:R_0603_1608Metric" V 9590 2440 50  0001 C CNN
F 3 "~" H 9550 2450 50  0001 C CNN
	1    9550 2450
	0    1    1    0   
$EndComp
Wire Wire Line
	9350 2450 9400 2450
Connection ~ 9350 2450
Wire Wire Line
	9350 2450 9350 1600
Wire Wire Line
	9700 2450 9750 2450
Wire Wire Line
	9750 3150 9750 3200
Wire Wire Line
	9750 2800 9750 2850
Wire Wire Line
	9750 2500 9750 2450
Connection ~ 9750 2450
Wire Wire Line
	9750 2450 9800 2450
Entry Wire Line
	750  7550 850  7650
Wire Wire Line
	850  7650 1150 7650
Text Label 900  7650 0    50   ~ 0
dac12
Text Label 1150 7650 0    50   ~ 0
FBACK_GAIN
Wire Wire Line
	10100 2900 10100 2950
Text Label 10100 2950 0    50   ~ 0
FBACK_GAIN
Text Label 10500 2150 1    50   ~ 0
FEEDBACK
Wire Wire Line
	1450 2650 2800 2650
Wire Wire Line
	1150 850  1050 850 
$Comp
L Device:R_US R82
U 1 1 5EA0DE19
P 6200 4100
F 0 "R82" V 6150 3950 50  0000 C CNN
F 1 "5.6k" V 6150 4250 50  0000 C CNN
F 2 "Resistor_SMD:R_0603_1608Metric" V 6240 4090 50  0001 C CNN
F 3 "~" H 6200 4100 50  0001 C CNN
	1    6200 4100
	0    1    1    0   
$EndComp
$Comp
L Device:R_US R83
U 1 1 5EA0E512
P 6200 4200
F 0 "R83" V 6150 4050 50  0000 C CNN
F 1 "5.6k" V 6150 4350 50  0000 C CNN
F 2 "Resistor_SMD:R_0603_1608Metric" V 6240 4190 50  0001 C CNN
F 3 "~" H 6200 4200 50  0001 C CNN
	1    6200 4200
	0    1    1    0   
$EndComp
Wire Wire Line
	6350 4100 6400 4100
Wire Wire Line
	6400 4100 6450 4150
Wire Wire Line
	6450 4150 7100 4150
Wire Wire Line
	6350 4200 6400 4200
Wire Wire Line
	6400 4200 6450 4150
Connection ~ 6450 4150
Wire Wire Line
	5550 2150 5950 2150
Wire Wire Line
	5650 1950 5900 1950
Wire Wire Line
	6000 1900 5950 1900
Wire Wire Line
	5950 1900 5950 2150
Wire Wire Line
	6000 1800 5900 1800
Wire Wire Line
	5900 1800 5900 1950
$Comp
L Device:R_US R80
U 1 1 5EB8DFE0
P 6150 1800
F 0 "R80" V 6100 1650 50  0000 C CNN
F 1 "5.6k" V 6100 1950 50  0000 C CNN
F 2 "Resistor_SMD:R_0603_1608Metric" V 6190 1790 50  0001 C CNN
F 3 "~" H 6150 1800 50  0001 C CNN
	1    6150 1800
	0    1    1    0   
$EndComp
$Comp
L Device:R_US R81
U 1 1 5EB8DFE6
P 6150 1900
F 0 "R81" V 6100 1750 50  0000 C CNN
F 1 "5.6k" V 6100 2050 50  0000 C CNN
F 2 "Resistor_SMD:R_0603_1608Metric" V 6190 1890 50  0001 C CNN
F 3 "~" H 6150 1900 50  0001 C CNN
	1    6150 1900
	0    1    1    0   
$EndComp
Wire Wire Line
	6300 1800 6350 1800
Wire Wire Line
	6350 1800 6400 1850
Wire Wire Line
	6400 1850 7050 1850
Wire Wire Line
	6300 1900 6350 1900
Wire Wire Line
	6350 1900 6400 1850
Connection ~ 6400 1850
$Comp
L power:GND #PWR050
U 1 1 5EBD1FC4
P 1050 1050
F 0 "#PWR050" H 1050 800 50  0001 C CNN
F 1 "GND" V 1150 1100 50  0000 R CNN
F 2 "" H 1050 1050 50  0001 C CNN
F 3 "" H 1050 1050 50  0001 C CNN
	1    1050 1050
	0    1    1    0   
$EndComp
Wire Wire Line
	1050 1050 1150 1050
$Comp
L Device:R_US R65
U 1 1 5EBF3E4C
P 1400 650
F 0 "R65" V 1350 500 50  0000 C CNN
F 1 "36k" V 1350 800 50  0000 C CNN
F 2 "Resistor_SMD:R_0603_1608Metric" V 1440 640 50  0001 C CNN
F 3 "~" H 1400 650 50  0001 C CNN
	1    1400 650 
	0    1    1    0   
$EndComp
Wire Wire Line
	1250 650  1050 650 
Wire Wire Line
	1050 650  1050 850 
Wire Wire Line
	800  850  1050 850 
Connection ~ 1050 850 
Wire Wire Line
	1550 650  1800 650 
Wire Wire Line
	1800 650  1800 950 
Wire Wire Line
	1800 950  1750 950 
Connection ~ 5900 1950
Wire Wire Line
	5900 1950 7050 1950
Connection ~ 5950 2150
Wire Wire Line
	5950 2150 7050 2150
Wire Wire Line
	5650 1400 1750 1400
$Comp
L Device:R_US R62
U 1 1 5EDFA1C2
P 1350 1350
F 0 "R62" V 1300 1200 50  0000 C CNN
F 1 "36k" V 1300 1500 50  0000 C CNN
F 2 "Resistor_SMD:R_0603_1608Metric" V 1390 1340 50  0001 C CNN
F 3 "~" H 1350 1350 50  0001 C CNN
	1    1350 1350
	0    1    1    0   
$EndComp
Connection ~ 1000 1500
Wire Wire Line
	1200 1350 1000 1350
Wire Wire Line
	1500 1350 1850 1350
Wire Wire Line
	1850 1350 1850 1200
Wire Wire Line
	1850 950  1800 950 
Connection ~ 1800 950 
Wire Wire Line
	1850 1200 600  1200
Wire Wire Line
	600  1200 600  3000
Connection ~ 1850 1200
Wire Wire Line
	1850 1200 1850 950 
Wire Wire Line
	850  3250 850  3450
Wire Wire Line
	850  3750 850  4150
Connection ~ 850  4150
Wire Wire Line
	1800 3200 7750 3200
Connection ~ 1750 1650
Wire Wire Line
	1000 1350 1000 1500
Wire Wire Line
	10500 550  1050 550 
Wire Wire Line
	1050 550  1050 650 
Wire Wire Line
	10500 550  10500 2450
Connection ~ 1050 650 
NoConn ~ 4500 6250
$Comp
L Device:R_US R60
U 1 1 5DABBA6A
P 1150 2450
F 0 "R60" V 1100 2300 50  0000 C CNN
F 1 "36k" V 1100 2600 50  0000 C CNN
F 2 "Resistor_SMD:R_0603_1608Metric" V 1190 2440 50  0001 C CNN
F 3 "~" H 1150 2450 50  0001 C CNN
	1    1150 2450
	0    1    1    0   
$EndComp
$Comp
L Device:R_US R72
U 1 1 5DAA89E4
P 3550 2400
F 0 "R72" H 3650 2450 50  0000 C CNN
F 1 "36k" H 3650 2350 50  0000 C CNN
F 2 "Resistor_SMD:R_0603_1608Metric" V 3590 2390 50  0001 C CNN
F 3 "~" H 3550 2400 50  0001 C CNN
	1    3550 2400
	-1   0    0    1   
$EndComp
Wire Bus Line
	750  7100 750  7550
Wire Bus Line
	2100 7100 2100 7850
$EndSCHEMATC
