EESchema Schematic File Version 4
EELAYER 30 0
EELAYER END
$Descr USLetter 11000 8500
encoding utf-8
Sheet 2 4
Title ""
Date ""
Rev ""
Comp ""
Comment1 ""
Comment2 ""
Comment3 ""
Comment4 ""
$EndDescr
$Comp
L Reference_Voltage:LM4040DBZ-5 U?
U 1 1 5DB28280
P 7100 6300
AR Path="/5DB28280" Ref="U?"  Part="1" 
AR Path="/5DAB9CF3/5DB28280" Ref="U8"  Part="1" 
F 0 "U8" V 7146 6212 50  0000 R CNN
F 1 "LM4040-5V" H 7350 6400 50  0000 R CNN
F 2 "Package_TO_SOT_SMD:SOT-23" H 7100 6100 50  0001 C CIN
F 3 "http://www.ti.com/lit/ds/symlink/lm4040-n.pdf" H 7100 6300 50  0001 C CIN
	1    7100 6300
	0    -1   -1   0   
$EndComp
$Comp
L power:GND #PWR?
U 1 1 5DB28286
P 7100 6550
AR Path="/5DB28286" Ref="#PWR?"  Part="1" 
AR Path="/5DAB9CF3/5DB28286" Ref="#PWR031"  Part="1" 
F 0 "#PWR031" H 7100 6300 50  0001 C CNN
F 1 "GND" H 7250 6450 50  0000 C CNN
F 2 "" H 7100 6550 50  0001 C CNN
F 3 "" H 7100 6550 50  0001 C CNN
	1    7100 6550
	1    0    0    -1  
$EndComp
Wire Wire Line
	7100 6450 7100 6550
Wire Wire Line
	7100 5950 7100 6050
Wire Wire Line
	7100 6050 7200 6050
Connection ~ 7100 6050
Wire Wire Line
	7100 6050 7100 6150
Text Label 7200 6050 0    50   ~ 0
VREF_5
$Comp
L power:-5V #PWR?
U 1 1 5DB33FAD
P 7550 6450
AR Path="/5DB33FAD" Ref="#PWR?"  Part="1" 
AR Path="/5DAB9CF3/5DB33FAD" Ref="#PWR035"  Part="1" 
F 0 "#PWR035" H 7550 6550 50  0001 C CNN
F 1 "-5V" H 7700 6550 50  0000 C CNN
F 2 "" H 7550 6450 50  0001 C CNN
F 3 "" H 7550 6450 50  0001 C CNN
	1    7550 6450
	-1   0    0    1   
$EndComp
$Comp
L power:GND #PWR036
U 1 1 5DB343D1
P 7650 6050
F 0 "#PWR036" H 7650 5800 50  0001 C CNN
F 1 "GND" V 7600 5900 50  0000 C CNN
F 2 "" H 7650 6050 50  0001 C CNN
F 3 "" H 7650 6050 50  0001 C CNN
	1    7650 6050
	0    -1   -1   0   
$EndComp
$Comp
L Device:C C21
U 1 1 5DB36EDC
P 7550 6250
F 0 "C21" H 7665 6296 50  0000 L CNN
F 1 "0.1uF" H 7665 6205 50  0000 L CNN
F 2 "Capacitor_SMD:C_0603_1608Metric" H 7588 6100 50  0001 C CNN
F 3 "~" H 7550 6250 50  0001 C CNN
	1    7550 6250
	1    0    0    -1  
$EndComp
Wire Wire Line
	7550 6400 7550 6450
Wire Wire Line
	7550 6100 7550 6050
Wire Wire Line
	7550 6050 7650 6050
$Comp
L power:-5V #PWR?
U 1 1 5DB4FDC1
P 7950 6450
AR Path="/5DB4FDC1" Ref="#PWR?"  Part="1" 
AR Path="/5DAB9CF3/5DB4FDC1" Ref="#PWR038"  Part="1" 
F 0 "#PWR038" H 7950 6550 50  0001 C CNN
F 1 "-5V" H 8100 6550 50  0000 C CNN
F 2 "" H 7950 6450 50  0001 C CNN
F 3 "" H 7950 6450 50  0001 C CNN
	1    7950 6450
	-1   0    0    1   
$EndComp
$Comp
L power:GND #PWR039
U 1 1 5DB4FDCB
P 8050 6050
F 0 "#PWR039" H 8050 5800 50  0001 C CNN
F 1 "GND" V 8000 5900 50  0000 C CNN
F 2 "" H 8050 6050 50  0001 C CNN
F 3 "" H 8050 6050 50  0001 C CNN
	1    8050 6050
	0    -1   -1   0   
$EndComp
$Comp
L Device:C C24
U 1 1 5DB4FDDF
P 7950 6250
F 0 "C24" H 8065 6296 50  0000 L CNN
F 1 "0.1uF" H 8065 6205 50  0000 L CNN
F 2 "Capacitor_SMD:C_0603_1608Metric" H 7988 6100 50  0001 C CNN
F 3 "~" H 7950 6250 50  0001 C CNN
	1    7950 6250
	1    0    0    -1  
$EndComp
Wire Wire Line
	7950 6400 7950 6450
Wire Wire Line
	7950 6100 7950 6050
Wire Wire Line
	7950 6050 8050 6050
$Comp
L power:-5V #PWR?
U 1 1 5DA72FF2
P 9100 6350
AR Path="/5DA72FF2" Ref="#PWR?"  Part="1" 
AR Path="/5DB5BADF/5DA72FF2" Ref="#PWR?"  Part="1" 
AR Path="/5DAB9CF3/5DA72FF2" Ref="#PWR046"  Part="1" 
F 0 "#PWR046" H 9100 6450 50  0001 C CNN
F 1 "-5V" H 9250 6450 50  0000 C CNN
F 2 "" H 9100 6350 50  0001 C CNN
F 3 "" H 9100 6350 50  0001 C CNN
	1    9100 6350
	-1   0    0    1   
$EndComp
Wire Wire Line
	9100 6300 9100 6350
$Comp
L power:GND #PWR044
U 1 1 5DC970AB
P 8900 6000
F 0 "#PWR044" H 8900 5750 50  0001 C CNN
F 1 "GND" V 9000 5850 50  0000 C CNN
F 2 "" H 8900 6000 50  0001 C CNN
F 3 "" H 8900 6000 50  0001 C CNN
	1    8900 6000
	0    1    1    0   
$EndComp
$Comp
L Device:C C28
U 1 1 5DC97DA6
P 8950 6200
F 0 "C28" H 8850 6300 50  0000 L CNN
F 1 "0.1uF" H 8800 6100 50  0000 L CNN
F 2 "Capacitor_SMD:C_0603_1608Metric" H 8988 6050 50  0001 C CNN
F 3 "~" H 8950 6200 50  0001 C CNN
	1    8950 6200
	1    0    0    -1  
$EndComp
Wire Wire Line
	8950 6000 8900 6000
Wire Wire Line
	8950 6000 8950 6050
Wire Wire Line
	8950 6350 9100 6350
Connection ~ 9100 6350
$Comp
L power:GND #PWR049
U 1 1 5DCDC0F9
P 9450 5850
F 0 "#PWR049" H 9450 5600 50  0001 C CNN
F 1 "GND" V 9500 5700 50  0000 C CNN
F 2 "" H 9450 5850 50  0001 C CNN
F 3 "" H 9450 5850 50  0001 C CNN
	1    9450 5850
	0    1    1    0   
$EndComp
Wire Wire Line
	9450 5850 9500 5850
$Comp
L power:-5V #PWR?
U 1 1 5DCE9E93
P 9350 6400
AR Path="/5DCE9E93" Ref="#PWR?"  Part="1" 
AR Path="/5DB5BADF/5DCE9E93" Ref="#PWR?"  Part="1" 
AR Path="/5DAB9CF3/5DCE9E93" Ref="#PWR047"  Part="1" 
F 0 "#PWR047" H 9350 6500 50  0001 C CNN
F 1 "-5V" H 9500 6500 50  0000 C CNN
F 2 "" H 9350 6400 50  0001 C CNN
F 3 "" H 9350 6400 50  0001 C CNN
	1    9350 6400
	-1   0    0    1   
$EndComp
Wire Wire Line
	9550 6050 9350 6050
Wire Wire Line
	9350 6050 9350 6350
$Comp
L Device:C C30
U 1 1 5DCF87AC
P 9300 6200
F 0 "C30" H 9200 6300 50  0000 L CNN
F 1 "0.1uF" H 9150 6100 50  0000 L CNN
F 2 "Capacitor_SMD:C_0603_1608Metric" H 9338 6050 50  0001 C CNN
F 3 "~" H 9300 6200 50  0001 C CNN
	1    9300 6200
	1    0    0    -1  
$EndComp
Wire Wire Line
	9300 6350 9350 6350
Connection ~ 9350 6350
Wire Wire Line
	9350 6350 9350 6400
Wire Wire Line
	9300 6050 9300 5950
Wire Wire Line
	9300 5950 9500 5950
Wire Wire Line
	9500 5950 9500 5850
Connection ~ 9500 5850
Wire Wire Line
	9300 5800 9500 5800
Wire Wire Line
	9500 5800 9500 5850
NoConn ~ 9600 6050
Text HLabel 700  7150 0    50   Input ~ 0
dac[0..12]
Wire Bus Line
	700  7150 750  7150
Text Label 750  7150 0    50   ~ 0
dac[0..12]
Entry Wire Line
	750  7200 850  7300
Entry Wire Line
	750  7300 850  7400
Entry Wire Line
	750  7400 850  7500
Entry Wire Line
	750  7500 850  7600
Entry Wire Line
	750  7600 850  7700
Text Label 900  7300 0    50   ~ 0
dac0
Wire Wire Line
	850  7300 1150 7300
Text Label 1150 7300 0    50   ~ 0
OSC1_PITCH
Wire Wire Line
	850  7400 1150 7400
Text Label 900  7400 0    50   ~ 0
dac1
Text Label 1150 7400 0    50   ~ 0
OSC1_SHAPE
Wire Wire Line
	850  7500 1150 7500
Wire Wire Line
	850  7600 1150 7600
Wire Wire Line
	850  7700 1150 7700
Text Label 900  7500 0    50   ~ 0
dac2
Text Label 1150 7500 0    50   ~ 0
OSC1_LEVEL
Text Label 900  7600 0    50   ~ 0
dac3
Text Label 1150 7600 0    50   ~ 0
OSC2_PITCH
Text Label 900  7700 0    50   ~ 0
dac4
Text Label 1150 7700 0    50   ~ 0
OSC2_SHAPE
Entry Wire Line
	750  7700 850  7800
Wire Wire Line
	850  7800 1150 7800
Entry Wire Line
	750  7800 850  7900
Wire Wire Line
	850  7900 1150 7900
Text Label 900  7800 0    50   ~ 0
dac5
Text Label 1150 7800 0    50   ~ 0
OSC2_LEVEL
Text Label 900  8000 0    50   ~ 0
dac11
Entry Wire Line
	750  7900 850  8000
Wire Wire Line
	850  8000 1150 8000
Text Label 900  7900 0    50   ~ 0
dac10
Text Label 1150 7900 0    50   ~ 0
NOISE
Text Label 1150 8000 0    50   ~ 0
FM
Wire Notes Line style solid rgb(132, 0, 0)
	1650 6900 1650 8100
Text HLabel 1950 7000 0    50   Input ~ 0
gpio[0..16]
Wire Bus Line
	1950 7000 2100 7000
Entry Wire Line
	2100 7050 2200 7150
Text Label 2000 7000 0    50   ~ 0
gpio[0..16]
Connection ~ 8950 6000
Connection ~ 7950 6050
Connection ~ 7550 6050
$Comp
L 4xxx_IEEE:4016 U4
U 4 1 5DAFB7B9
P 4850 2900
F 0 "U4" H 4900 2500 50  0000 C CNN
F 1 "4016" H 5000 2600 50  0000 C CNN
F 2 "Package_SO:SOIC-14_3.9x8.7mm_P1.27mm" H 4850 2900 50  0001 C CNN
F 3 "" H 4850 2900 50  0001 C CNN
	4    4850 2900
	-1   0    0    1   
$EndComp
$Comp
L Device:R_US R31
U 1 1 5DAFB7A9
P 3800 2900
F 0 "R31" H 3868 2946 50  0000 L CNN
F 1 "10k" H 3868 2855 50  0000 L CNN
F 2 "Resistor_SMD:R_0603_1608Metric" V 3840 2890 50  0001 C CNN
F 3 "~" H 3800 2900 50  0001 C CNN
	1    3800 2900
	0    -1   -1   0   
$EndComp
$Comp
L Device:C C10
U 1 1 5DAFB7B2
P 4150 2900
F 0 "C10" H 4000 3050 50  0000 L CNN
F 1 "470pF" H 4000 2800 50  0000 L CNN
F 2 "Capacitor_SMD:C_0603_1608Metric" H 4188 2750 50  0001 C CNN
F 3 "~" H 4150 2900 50  0001 C CNN
	1    4150 2900
	0    -1   -1   0   
$EndComp
Wire Wire Line
	3600 2200 3600 2900
Wire Wire Line
	2250 4550 2300 4550
Connection ~ 1700 5000
Wire Wire Line
	1500 5000 1700 5000
Wire Wire Line
	1700 4100 1700 4150
Connection ~ 2100 5000
Wire Wire Line
	2100 5000 2250 5000
$Comp
L Device:R_US R14
U 1 1 5E80E0F0
P 1700 3950
F 0 "R14" H 1768 3996 50  0000 L CNN
F 1 "430k" V 1600 3900 50  0000 L CNN
F 2 "Resistor_SMD:R_0603_1608Metric" V 1740 3940 50  0001 C CNN
F 3 "~" H 1700 3950 50  0001 C CNN
	1    1700 3950
	1    0    0    -1  
$EndComp
Wire Wire Line
	1700 3750 1700 3800
$Comp
L power:-5V #PWR?
U 1 1 5E80E0E3
P 650 3650
AR Path="/5E80E0E3" Ref="#PWR?"  Part="1" 
AR Path="/5DAB9CF3/5E80E0E3" Ref="#PWR01"  Part="1" 
F 0 "#PWR01" H 650 3750 50  0001 C CNN
F 1 "-5V" V 750 3700 50  0000 C CNN
F 2 "" H 650 3650 50  0001 C CNN
F 3 "" H 650 3650 50  0001 C CNN
	1    650  3650
	0    -1   -1   0   
$EndComp
$Comp
L power:-5V #PWR?
U 1 1 5E80E0D9
P 2800 4800
AR Path="/5E80E0D9" Ref="#PWR?"  Part="1" 
AR Path="/5DAB9CF3/5E80E0D9" Ref="#PWR011"  Part="1" 
F 0 "#PWR011" H 2800 4900 50  0001 C CNN
F 1 "-5V" H 2950 4900 50  0000 C CNN
F 2 "" H 2800 4800 50  0001 C CNN
F 3 "" H 2800 4800 50  0001 C CNN
	1    2800 4800
	-1   0    0    1   
$EndComp
Wire Wire Line
	2800 4750 2800 4800
Wire Wire Line
	2700 3250 3350 3250
Wire Wire Line
	1700 5000 1900 5000
$Comp
L power:GND #PWR08
U 1 1 5E80E0CC
P 2300 3950
F 0 "#PWR08" H 2300 3700 50  0001 C CNN
F 1 "GND" V 2300 3750 50  0000 C CNN
F 2 "" H 2300 3950 50  0001 C CNN
F 3 "" H 2300 3950 50  0001 C CNN
	1    2300 3950
	0    1    1    0   
$EndComp
Wire Wire Line
	1700 4950 1700 5000
Wire Wire Line
	750  3650 800  3650
Text Label 650  4250 0    50   ~ 0
OSC2_PITCH
Text Label 1000 3250 2    50   ~ 0
OSC2_SHAPE
Text Notes 750  4350 0    50   ~ 0
0-3.3V
Wire Wire Line
	750  3550 750  3650
Text Label 650  3950 0    50   ~ 0
VREF_5
Wire Wire Line
	1150 3950 650  3950
Wire Wire Line
	1500 3950 1500 4250
Wire Wire Line
	1450 3950 1500 3950
$Comp
L Device:R_US R8
U 1 1 5E80E0B4
P 1300 3950
F 0 "R8" V 1250 3800 50  0000 C CNN
F 1 "180k" V 1400 3850 50  0000 C CNN
F 2 "Resistor_SMD:R_0603_1608Metric" V 1340 3940 50  0001 C CNN
F 3 "~" H 1300 3950 50  0001 C CNN
	1    1300 3950
	0    1    1    0   
$EndComp
Text Label 1700 3750 2    50   ~ 0
VREF_5
Wire Wire Line
	1700 4650 1700 4600
NoConn ~ 2300 3850
Wire Wire Line
	1500 4950 1500 5000
Wire Wire Line
	1500 4600 1500 4650
$Comp
L Device:C C1
U 1 1 5E80E09B
P 1500 4800
F 0 "C1" V 1450 4650 50  0000 L CNN
F 1 "0.01uF C0G" V 1350 4500 50  0000 L CNN
F 2 "Capacitor_SMD:C_0603_1608Metric" H 1538 4650 50  0001 C CNN
F 3 "~" H 1500 4800 50  0001 C CNN
	1    1500 4800
	1    0    0    -1  
$EndComp
Wire Wire Line
	1500 4250 2300 4250
Connection ~ 1500 4250
Wire Wire Line
	1500 4250 1500 4300
$Comp
L Device:R_US R12
U 1 1 5E80E08E
P 1500 4450
F 0 "R12" V 1600 4550 50  0000 C CNN
F 1 "470" V 1600 4400 50  0000 C CNN
F 2 "Resistor_SMD:R_0603_1608Metric" V 1540 4440 50  0001 C CNN
F 3 "~" H 1500 4450 50  0001 C CNN
	1    1500 4450
	-1   0    0    1   
$EndComp
Wire Wire Line
	1900 4050 1900 4650
Text Notes 550  3150 0    50   ~ 0
0.1-3.9V
Wire Wire Line
	1100 3250 1000 3250
Connection ~ 2000 3250
Wire Wire Line
	2000 3250 1400 3250
$Comp
L Device:R_US R6
U 1 1 5E80E06D
P 1250 3250
F 0 "R6" V 1045 3250 50  0000 C CNN
F 1 "10k" V 1136 3250 50  0000 C CNN
F 2 "Resistor_SMD:R_0603_1608Metric" V 1290 3240 50  0001 C CNN
F 3 "~" H 1250 3250 50  0001 C CNN
	1    1250 3250
	0    1    1    0   
$EndComp
Wire Wire Line
	3350 3250 3350 3850
Wire Wire Line
	2000 3250 2400 3250
$Comp
L Device:R_US R24
U 1 1 5E80E061
P 2550 3250
F 0 "R24" V 2345 3250 50  0000 C CNN
F 1 "1M" V 2436 3250 50  0000 C CNN
F 2 "Resistor_SMD:R_0603_1608Metric" V 2590 3240 50  0001 C CNN
F 3 "~" H 2550 3250 50  0001 C CNN
	1    2550 3250
	0    1    1    0   
$EndComp
Wire Wire Line
	750  3650 650  3650
Wire Wire Line
	1150 4250 650  4250
$Comp
L Device:R_US R9
U 1 1 5E80E055
P 1300 4250
F 0 "R9" V 1250 4100 50  0000 C CNN
F 1 "27k" V 1400 4100 50  0000 C CNN
F 2 "Resistor_SMD:R_0603_1608Metric" V 1340 4240 50  0001 C CNN
F 3 "~" H 1300 4250 50  0001 C CNN
	1    1300 4250
	0    1    1    0   
$EndComp
Wire Wire Line
	1450 4250 1500 4250
Wire Wire Line
	1700 4150 1700 4300
Wire Wire Line
	1900 5000 1900 5050
Connection ~ 1900 5000
Wire Wire Line
	1900 4950 1900 5000
Wire Wire Line
	2300 4050 1900 4050
$Comp
L Device:C C5
U 1 1 5E80E045
P 1900 4800
F 0 "C5" V 1850 4650 50  0000 L CNN
F 1 "0.1uF" V 1950 4850 50  0000 L CNN
F 2 "Capacitor_SMD:C_0603_1608Metric" H 1938 4650 50  0001 C CNN
F 3 "~" H 1900 4800 50  0001 C CNN
	1    1900 4800
	1    0    0    -1  
$EndComp
$Comp
L Device:C C3
U 1 1 5E80E03B
P 1700 4800
F 0 "C3" V 1650 4650 50  0000 L CNN
F 1 "0.01uF C0G" V 1800 4850 50  0000 L CNN
F 2 "Capacitor_SMD:C_0603_1608Metric" H 1738 4650 50  0001 C CNN
F 3 "~" H 1700 4800 50  0001 C CNN
	1    1700 4800
	1    0    0    -1  
$EndComp
Connection ~ 1700 4150
$Comp
L Device:R_US R15
U 1 1 5E80E030
P 1700 4450
F 0 "R15" V 1650 4250 50  0000 L CNN
F 1 "470" V 1650 4500 50  0000 L CNN
F 2 "Resistor_SMD:R_0603_1608Metric" V 1740 4440 50  0001 C CNN
F 3 "~" H 1700 4450 50  0001 C CNN
	1    1700 4450
	1    0    0    -1  
$EndComp
Wire Wire Line
	2000 3750 2300 3750
Wire Wire Line
	2000 3250 2000 3750
Connection ~ 750  3650
Wire Wire Line
	1100 3650 2300 3650
$Comp
L Device:R_US R2
U 1 1 5E80E022
P 950 3650
F 0 "R2" V 1000 3500 50  0000 C CNN
F 1 "5.6K" V 1000 3350 50  0000 C CNN
F 2 "Resistor_SMD:R_0603_1608Metric" V 990 3640 50  0001 C CNN
F 3 "~" H 950 3650 50  0001 C CNN
	1    950  3650
	0    -1   -1   0   
$EndComp
Wire Wire Line
	750  3550 800  3550
Wire Wire Line
	1100 3550 2300 3550
$Comp
L Device:R_US R1
U 1 1 5E80E016
P 950 3550
F 0 "R1" V 745 3550 50  0000 C CNN
F 1 "30k" V 836 3550 50  0000 C CNN
F 2 "Resistor_SMD:R_0603_1608Metric" V 990 3540 50  0001 C CNN
F 3 "~" H 950 3550 50  0001 C CNN
	1    950  3550
	0    1    1    0   
$EndComp
Wire Wire Line
	2300 4150 1700 4150
Wire Wire Line
	2100 4450 2100 4650
Wire Wire Line
	2100 4450 2300 4450
Wire Wire Line
	2100 5000 1900 5000
Wire Wire Line
	2100 4950 2100 5000
$Comp
L Device:C C7
U 1 1 5E80E006
P 2100 4800
F 0 "C7" V 2050 4650 50  0000 L CNN
F 1 "1000pF C0G" V 2150 4850 50  0000 L CNN
F 2 "Capacitor_SMD:C_0603_1608Metric" H 2138 4650 50  0001 C CNN
F 3 "~" H 2100 4800 50  0001 C CNN
	1    2100 4800
	1    0    0    -1  
$EndComp
Wire Wire Line
	2250 4950 2250 5000
Wire Wire Line
	2900 4750 2900 4800
Wire Wire Line
	3350 4650 3350 4800
Wire Wire Line
	2250 4550 2250 4650
$Comp
L Device:R_US R22
U 1 1 5E80DFF7
P 2250 4800
F 0 "R22" H 2318 4846 50  0000 L CNN
F 1 "1.8k" H 2318 4755 50  0000 L CNN
F 2 "Resistor_SMD:R_0603_1608Metric" V 2290 4790 50  0001 C CNN
F 3 "~" H 2250 4800 50  0001 C CNN
	1    2250 4800
	1    0    0    -1  
$EndComp
Connection ~ 3350 3850
Wire Wire Line
	3350 4350 3350 3850
$Comp
L Device:R_US R29
U 1 1 5E80DFEB
P 3350 4500
F 0 "R29" H 3418 4546 50  0000 L CNN
F 1 "10k" H 3418 4455 50  0000 L CNN
F 2 "Resistor_SMD:R_0603_1608Metric" V 3390 4490 50  0001 C CNN
F 3 "~" H 3350 4500 50  0001 C CNN
	1    3350 4500
	1    0    0    -1  
$EndComp
Wire Wire Line
	3300 3850 3350 3850
$Comp
L power:GND #PWR017
U 1 1 5E80DFE0
P 3350 4800
F 0 "#PWR017" H 3350 4550 50  0001 C CNN
F 1 "GND" H 3500 4700 50  0000 C CNN
F 2 "" H 3350 4800 50  0001 C CNN
F 3 "" H 3350 4800 50  0001 C CNN
	1    3350 4800
	1    0    0    -1  
$EndComp
$Comp
L power:GND #PWR05
U 1 1 5E80DFD6
P 1900 5050
F 0 "#PWR05" H 1900 4800 50  0001 C CNN
F 1 "GND" H 2050 5000 50  0000 C CNN
F 2 "" H 1900 5050 50  0001 C CNN
F 3 "" H 1900 5050 50  0001 C CNN
	1    1900 5050
	1    0    0    -1  
$EndComp
$Comp
L power:GND #PWR012
U 1 1 5E80DFCC
P 2900 4800
F 0 "#PWR012" H 2900 4550 50  0001 C CNN
F 1 "GND" H 3050 4700 50  0000 C CNN
F 2 "" H 2900 4800 50  0001 C CNN
F 3 "" H 2900 4800 50  0001 C CNN
	1    2900 4800
	1    0    0    -1  
$EndComp
Wire Wire Line
	2800 3200 2800 3350
$Comp
L power:+12V #PWR010
U 1 1 5E80DFC1
P 2800 3200
F 0 "#PWR010" H 2800 3050 50  0001 C CNN
F 1 "+12V" H 2815 3373 50  0000 C CNN
F 2 "" H 2800 3200 50  0001 C CNN
F 3 "" H 2800 3200 50  0001 C CNN
	1    2800 3200
	1    0    0    -1  
$EndComp
$Comp
L Audio:AS3340 U2
U 1 1 5E80DFB7
P 2800 4050
F 0 "U2" H 2450 4800 50  0000 C CNN
F 1 "V3340M" H 2550 4700 50  0000 C CNN
F 2 "Package_SO:SOP-16_4.4x10.4mm_P1.27mm" H 3300 3750 50  0001 C CNN
F 3 "http://www.alfarzpp.lv/eng/sc/AS3340.pdf" H 3400 3600 50  0001 C CNN
	1    2800 4050
	1    0    0    -1  
$EndComp
Connection ~ 2300 2700
Wire Wire Line
	2300 2700 2450 2700
Wire Wire Line
	3500 1550 4000 1550
$Comp
L Device:R_US R19
U 1 1 5DAFB680
P 1900 1050
F 0 "R19" H 1968 1096 50  0000 L CNN
F 1 "430k" V 1800 1000 50  0000 L CNN
F 2 "Resistor_SMD:R_0603_1608Metric" V 1940 1040 50  0001 C CNN
F 3 "~" H 1900 1050 50  0001 C CNN
	1    1900 1050
	1    0    0    -1  
$EndComp
Wire Wire Line
	1750 900  1900 900 
Wire Wire Line
	1900 1500 1900 1200
Connection ~ 1900 1500
$Comp
L power:-5V #PWR?
U 1 1 5E3BA87B
P 750 1350
AR Path="/5E3BA87B" Ref="#PWR?"  Part="1" 
AR Path="/5DAB9CF3/5E3BA87B" Ref="#PWR02"  Part="1" 
F 0 "#PWR02" H 750 1450 50  0001 C CNN
F 1 "-5V" H 900 1450 50  0000 C CNN
F 2 "" H 750 1350 50  0001 C CNN
F 3 "" H 750 1350 50  0001 C CNN
	1    750  1350
	0    -1   -1   0   
$EndComp
$Comp
L power:-5V #PWR?
U 1 1 5E38D3CC
P 2950 2500
AR Path="/5E38D3CC" Ref="#PWR?"  Part="1" 
AR Path="/5DAB9CF3/5E38D3CC" Ref="#PWR014"  Part="1" 
F 0 "#PWR014" H 2950 2600 50  0001 C CNN
F 1 "-5V" H 3100 2600 50  0000 C CNN
F 2 "" H 2950 2500 50  0001 C CNN
F 3 "" H 2950 2500 50  0001 C CNN
	1    2950 2500
	-1   0    0    1   
$EndComp
Wire Wire Line
	2950 2450 2950 2500
Wire Wire Line
	2850 750  3500 750 
Wire Wire Line
	1900 2700 2100 2700
$Comp
L power:GND #PWR09
U 1 1 5E1E8935
P 2400 1650
F 0 "#PWR09" H 2400 1400 50  0001 C CNN
F 1 "GND" V 2400 1450 50  0000 C CNN
F 2 "" H 2400 1650 50  0001 C CNN
F 3 "" H 2400 1650 50  0001 C CNN
	1    2400 1650
	0    1    1    0   
$EndComp
Wire Wire Line
	2450 1650 2400 1650
Wire Wire Line
	1900 2650 1900 2700
Wire Wire Line
	850  1350 900  1350
Text Label 4900 5600 0    50   ~ 0
FM
Text Label 750  1950 0    50   ~ 0
OSC1_PITCH
Text Label 1050 750  2    50   ~ 0
OSC1_SHAPE
$Comp
L local:SSM2164 U?
U 2 1 5D9E8B25
P 4850 5100
AR Path="/5D9E8B25" Ref="U?"  Part="2" 
AR Path="/5DAB9CF3/5D9E8B25" Ref="U6"  Part="2" 
F 0 "U6" H 4650 5300 50  0000 C CNN
F 1 "SSM2164" H 5200 5300 50  0000 C CNN
F 2 "Package_SO:SOIC-16_3.9x9.9mm_P1.27mm" H 4850 5100 50  0001 C CNN
F 3 "" H 4850 5100 50  0001 C CNN
	2    4850 5100
	1    0    0    -1  
$EndComp
Wire Wire Line
	4850 5550 4850 5600
Wire Wire Line
	5250 5100 5300 5100
Text Notes 850  2050 0    50   ~ 0
0-3.3V
Text Notes 5000 5600 0    50   ~ 0
0-2.5V
Wire Wire Line
	9450 5500 9450 5750
Connection ~ 9450 5500
Wire Wire Line
	9300 5500 9450 5500
Wire Wire Line
	9450 5750 9600 5750
$Comp
L Device:C C29
U 1 1 5DD14E9A
P 9300 5650
F 0 "C29" H 9200 5750 50  0000 L CNN
F 1 "0.1uF" H 9150 5550 50  0000 L CNN
F 2 "Capacitor_SMD:C_0603_1608Metric" H 9338 5500 50  0001 C CNN
F 3 "~" H 9300 5650 50  0001 C CNN
	1    9300 5650
	1    0    0    -1  
$EndComp
Wire Wire Line
	9450 5450 9450 5500
$Comp
L power:+12V #PWR?
U 1 1 5DCCE3C7
P 9450 5450
AR Path="/5DCCE3C7" Ref="#PWR?"  Part="1" 
AR Path="/5DB5BADF/5DCCE3C7" Ref="#PWR?"  Part="1" 
AR Path="/5DAB9CF3/5DCCE3C7" Ref="#PWR048"  Part="1" 
F 0 "#PWR048" H 9450 5300 50  0001 C CNN
F 1 "+12V" H 9465 5623 50  0000 C CNN
F 2 "" H 9450 5450 50  0001 C CNN
F 3 "" H 9450 5450 50  0001 C CNN
	1    9450 5450
	1    0    0    -1  
$EndComp
Connection ~ 9100 5700
Wire Wire Line
	8950 5700 9100 5700
$Comp
L Device:C C27
U 1 1 5DC97659
P 8950 5850
F 0 "C27" H 8800 6000 50  0000 L CNN
F 1 "0.1uF" H 8750 5950 50  0000 L CNN
F 2 "Capacitor_SMD:C_0603_1608Metric" H 8988 5700 50  0001 C CNN
F 3 "~" H 8950 5850 50  0001 C CNN
	1    8950 5850
	1    0    0    -1  
$EndComp
$Comp
L power:GND #PWR?
U 1 1 5DC89125
P 4850 2700
AR Path="/5DC89125" Ref="#PWR?"  Part="1" 
AR Path="/5DB5BADF/5DC89125" Ref="#PWR?"  Part="1" 
AR Path="/5DAB9CF3/5DC89125" Ref="#PWR023"  Part="1" 
F 0 "#PWR023" H 4850 2450 50  0001 C CNN
F 1 "GND" H 4750 2650 50  0000 C CNN
F 2 "" H 4850 2700 50  0001 C CNN
F 3 "" H 4850 2700 50  0001 C CNN
	1    4850 2700
	-1   0    0    1   
$EndComp
$Comp
L power:+12V #PWR?
U 1 1 5DC7BD9F
P 4850 3100
AR Path="/5DC7BD9F" Ref="#PWR?"  Part="1" 
AR Path="/5DB5BADF/5DC7BD9F" Ref="#PWR?"  Part="1" 
AR Path="/5DAB9CF3/5DC7BD9F" Ref="#PWR022"  Part="1" 
F 0 "#PWR022" H 4850 2950 50  0001 C CNN
F 1 "+12V" H 5000 3150 50  0000 C CNN
F 2 "" H 4850 3100 50  0001 C CNN
F 3 "" H 4850 3100 50  0001 C CNN
	1    4850 3100
	-1   0    0    1   
$EndComp
Wire Wire Line
	4100 1950 4100 1750
Wire Wire Line
	4050 1300 4200 1300
Wire Wire Line
	4050 1750 4050 1300
Wire Wire Line
	4000 850  4200 850 
Wire Wire Line
	4000 1550 4000 850 
Connection ~ 3900 1950
$Comp
L 4xxx_IEEE:4016 U?
U 1 1 5DA730E5
P 4700 950
AR Path="/5DA730E5" Ref="U?"  Part="2" 
AR Path="/5DB5BADF/5DA730E5" Ref="U?"  Part="2" 
AR Path="/5DAB9CF3/5DA730E5" Ref="U4"  Part="1" 
F 0 "U4" H 4750 1050 50  0000 C CNN
F 1 "4016" H 4800 800 50  0000 C CNN
F 2 "Package_SO:SOIC-14_3.9x8.7mm_P1.27mm" H 4700 950 50  0001 C CNN
F 3 "" H 4700 950 50  0001 C CNN
	1    4700 950 
	1    0    0    -1  
$EndComp
$Comp
L 4xxx_IEEE:4016 U?
U 2 1 5DA730DF
P 4700 1400
AR Path="/5DA730DF" Ref="U?"  Part="3" 
AR Path="/5DB5BADF/5DA730DF" Ref="U?"  Part="3" 
AR Path="/5DAB9CF3/5DA730DF" Ref="U4"  Part="2" 
F 0 "U4" H 4750 1500 50  0000 C CNN
F 1 "4016" H 4750 1250 50  0000 C CNN
F 2 "Package_SO:SOIC-14_3.9x8.7mm_P1.27mm" H 4700 1400 50  0001 C CNN
F 3 "" H 4700 1400 50  0001 C CNN
	2    4700 1400
	1    0    0    -1  
$EndComp
$Comp
L 4xxx_IEEE:4016 U?
U 3 1 5DA730D9
P 4700 1850
AR Path="/5DA730D9" Ref="U?"  Part="4" 
AR Path="/5DB5BADF/5DA730D9" Ref="U?"  Part="4" 
AR Path="/5DAB9CF3/5DA730D9" Ref="U4"  Part="3" 
F 0 "U4" H 4750 1950 50  0000 C CNN
F 1 "4016" H 4750 1700 50  0000 C CNN
F 2 "Package_SO:SOIC-14_3.9x8.7mm_P1.27mm" H 4700 1850 50  0001 C CNN
F 3 "" H 4700 1850 50  0001 C CNN
	3    4700 1850
	1    0    0    -1  
$EndComp
$Comp
L 4xxx_IEEE:4016 U?
U 1 1 5DA730D3
P 4850 3650
AR Path="/5DA730D3" Ref="U?"  Part="2" 
AR Path="/5DB5BADF/5DA730D3" Ref="U?"  Part="1" 
AR Path="/5DAB9CF3/5DA730D3" Ref="U5"  Part="1" 
F 0 "U5" H 5000 3900 50  0000 C CNN
F 1 "4016" H 4750 3900 50  0000 C CNN
F 2 "Package_SO:SOIC-14_3.9x8.7mm_P1.27mm" H 4850 3650 50  0001 C CNN
F 3 "" H 4850 3650 50  0001 C CNN
	1    4850 3650
	1    0    0    -1  
$EndComp
$Comp
L 4xxx_IEEE:4016 U?
U 2 1 5DA730CD
P 4850 4150
AR Path="/5DA730CD" Ref="U?"  Part="3" 
AR Path="/5DB5BADF/5DA730CD" Ref="U?"  Part="2" 
AR Path="/5DAB9CF3/5DA730CD" Ref="U5"  Part="2" 
F 0 "U5" H 4950 4300 50  0000 C CNN
F 1 "4016" H 4950 4050 50  0000 C CNN
F 2 "Package_SO:SOIC-14_3.9x8.7mm_P1.27mm" H 4850 4150 50  0001 C CNN
F 3 "" H 4850 4150 50  0001 C CNN
	2    4850 4150
	1    0    0    -1  
$EndComp
Wire Wire Line
	4200 1950 4150 1950
$Comp
L Device:Opamp_Quad_Generic U7
U 1 1 5DA7309A
P 6500 850
F 0 "U7" H 6500 1217 50  0000 C CNN
F 1 "LF347" H 6500 1126 50  0000 C CNN
F 2 "Package_SO:SOIC-14_3.9x8.7mm_P1.27mm" H 6500 850 50  0001 C CNN
F 3 "~" H 6500 850 50  0001 C CNN
	1    6500 850 
	1    0    0    -1  
$EndComp
Wire Wire Line
	6000 1400 6000 1150
Connection ~ 6000 1400
Connection ~ 6000 1150
Connection ~ 6000 950 
Wire Wire Line
	6000 950  6200 950 
Wire Wire Line
	5900 950  6000 950 
Wire Wire Line
	6000 1850 6000 1400
$Comp
L Device:R_US R?
U 1 1 5DA73087
P 6500 1150
AR Path="/5DA73087" Ref="R?"  Part="1" 
AR Path="/5DB5BADF/5DA73087" Ref="R?"  Part="1" 
AR Path="/5DAB9CF3/5DA73087" Ref="R48"  Part="1" 
F 0 "R48" H 6568 1196 50  0000 L CNN
F 1 "120k" H 6600 1100 50  0000 L CNN
F 2 "Resistor_SMD:R_0603_1608Metric" V 6540 1140 50  0001 C CNN
F 3 "~" H 6500 1150 50  0001 C CNN
	1    6500 1150
	0    1    1    0   
$EndComp
Wire Wire Line
	6000 1150 6350 1150
Wire Wire Line
	6000 1150 6000 950 
Wire Wire Line
	6650 1150 6900 1150
Wire Wire Line
	6900 1150 6900 850 
Connection ~ 6900 850 
Wire Wire Line
	6900 850  6800 850 
Text Notes 6600 800  0    50   ~ 0
-2V -> 2V\n
$Comp
L Device:Opamp_Quad_Generic U7
U 2 1 5DA73079
P 6500 1800
F 0 "U7" H 6500 2167 50  0000 C CNN
F 1 "LF347" H 6500 2076 50  0000 C CNN
F 2 "Package_SO:SOIC-14_3.9x8.7mm_P1.27mm" H 6500 1800 50  0001 C CNN
F 3 "~" H 6500 1800 50  0001 C CNN
	2    6500 1800
	1    0    0    -1  
$EndComp
Connection ~ 6100 4150
Connection ~ 6100 3650
Wire Wire Line
	6100 3650 6100 2150
Wire Wire Line
	6050 3650 6100 3650
Wire Wire Line
	6100 4600 6100 4150
$Comp
L power:GND #PWR029
U 1 1 5DA7306C
P 6150 1700
F 0 "#PWR029" H 6150 1450 50  0001 C CNN
F 1 "GND" V 6250 1750 50  0000 R CNN
F 2 "" H 6150 1700 50  0001 C CNN
F 3 "" H 6150 1700 50  0001 C CNN
	1    6150 1700
	0    1    1    0   
$EndComp
$Comp
L Device:R_US R?
U 1 1 5DA73066
P 6450 2150
AR Path="/5DA73066" Ref="R?"  Part="1" 
AR Path="/5DB5BADF/5DA73066" Ref="R?"  Part="1" 
AR Path="/5DAB9CF3/5DA73066" Ref="R47"  Part="1" 
F 0 "R47" H 6518 2196 50  0000 L CNN
F 1 "120k" H 6550 2100 50  0000 L CNN
F 2 "Resistor_SMD:R_0603_1608Metric" V 6490 2140 50  0001 C CNN
F 3 "~" H 6450 2150 50  0001 C CNN
	1    6450 2150
	0    1    1    0   
$EndComp
Wire Wire Line
	6100 2150 6300 2150
Wire Wire Line
	6600 2150 6900 2150
Wire Wire Line
	6900 2150 6900 1800
Connection ~ 6900 1800
Wire Wire Line
	6900 1800 6800 1800
Wire Wire Line
	6900 1800 6950 1800
Wire Wire Line
	6150 1700 6200 1700
$Comp
L Device:C C12
U 1 1 5DA73057
P 5400 950
F 0 "C12" V 5148 950 50  0000 C CNN
F 1 "0.01uF C0G" V 5239 950 50  0000 C CNN
F 2 "Capacitor_SMD:C_0603_1608Metric" H 5438 800 50  0001 C CNN
F 3 "~" H 5400 950 50  0001 C CNN
	1    5400 950 
	0    1    1    0   
$EndComp
$Comp
L Device:R_US R39
U 1 1 5DA73051
P 5750 950
F 0 "R39" V 5550 1000 50  0000 C CNN
F 1 "1M" V 5650 1000 50  0000 C CNN
F 2 "Resistor_SMD:R_0603_1608Metric" V 5790 940 50  0001 C CNN
F 3 "~" H 5750 950 50  0001 C CNN
	1    5750 950 
	0    1    1    0   
$EndComp
Wire Wire Line
	5600 950  5550 950 
Wire Wire Line
	5250 950  5200 950 
$Comp
L Device:C C13
U 1 1 5DA73049
P 5400 1400
F 0 "C13" V 5148 1400 50  0000 C CNN
F 1 "0.01uF C0G" V 5239 1400 50  0000 C CNN
F 2 "Capacitor_SMD:C_0603_1608Metric" H 5438 1250 50  0001 C CNN
F 3 "~" H 5400 1400 50  0001 C CNN
	1    5400 1400
	0    1    1    0   
$EndComp
$Comp
L Device:C C14
U 1 1 5DA73043
P 5400 1850
F 0 "C14" V 5148 1850 50  0000 C CNN
F 1 "0.047uF C0G" V 5239 1850 50  0000 C CNN
F 2 "Capacitor_SMD:C_0805_2012Metric" H 5438 1700 50  0001 C CNN
F 3 "~" H 5400 1850 50  0001 C CNN
	1    5400 1850
	0    1    1    0   
$EndComp
$Comp
L Device:R_US R40
U 1 1 5DA7303D
P 5750 1400
F 0 "R40" V 5550 1450 50  0000 C CNN
F 1 "750k" V 5650 1450 50  0000 C CNN
F 2 "Resistor_SMD:R_0603_1608Metric" V 5790 1390 50  0001 C CNN
F 3 "~" H 5750 1400 50  0001 C CNN
	1    5750 1400
	0    1    1    0   
$EndComp
$Comp
L Device:R_US R41
U 1 1 5DA73037
P 5750 1850
F 0 "R41" V 5550 1900 50  0000 C CNN
F 1 "360k" V 5650 1900 50  0000 C CNN
F 2 "Resistor_SMD:R_0603_1608Metric" V 5790 1840 50  0001 C CNN
F 3 "~" H 5750 1850 50  0001 C CNN
	1    5750 1850
	0    1    1    0   
$EndComp
Wire Wire Line
	5200 1400 5250 1400
Wire Wire Line
	5200 1850 5250 1850
Wire Wire Line
	5550 1850 5600 1850
Wire Wire Line
	5900 1850 6000 1850
Wire Wire Line
	5900 1400 6000 1400
Wire Wire Line
	5600 1400 5550 1400
$Comp
L Device:C C15
U 1 1 5DA7302B
P 5550 3650
F 0 "C15" V 5298 3650 50  0000 C CNN
F 1 "0.01uF C0G" V 5389 3650 50  0000 C CNN
F 2 "Capacitor_SMD:C_0603_1608Metric" H 5588 3500 50  0001 C CNN
F 3 "~" H 5550 3650 50  0001 C CNN
	1    5550 3650
	0    1    1    0   
$EndComp
$Comp
L Device:R_US R43
U 1 1 5DA73025
P 5900 3650
F 0 "R43" V 5700 3700 50  0000 C CNN
F 1 "1M" V 5800 3700 50  0000 C CNN
F 2 "Resistor_SMD:R_0603_1608Metric" V 5940 3640 50  0001 C CNN
F 3 "~" H 5900 3650 50  0001 C CNN
	1    5900 3650
	0    1    1    0   
$EndComp
Wire Wire Line
	5750 3650 5700 3650
Wire Wire Line
	5400 3650 5350 3650
$Comp
L Device:C C16
U 1 1 5DA7301D
P 5550 4150
F 0 "C16" V 5298 4150 50  0000 C CNN
F 1 "0.01uF C0G" V 5389 4150 50  0000 C CNN
F 2 "Capacitor_SMD:C_0603_1608Metric" H 5588 4000 50  0001 C CNN
F 3 "~" H 5550 4150 50  0001 C CNN
	1    5550 4150
	0    1    1    0   
$EndComp
$Comp
L Device:C C17
U 1 1 5DA73017
P 5550 4600
F 0 "C17" V 5298 4600 50  0000 C CNN
F 1 "0.047uF C0G" V 5389 4600 50  0000 C CNN
F 2 "Capacitor_SMD:C_0805_2012Metric" H 5588 4450 50  0001 C CNN
F 3 "~" H 5550 4600 50  0001 C CNN
	1    5550 4600
	0    1    1    0   
$EndComp
$Comp
L Device:R_US R44
U 1 1 5DA73011
P 5900 4150
F 0 "R44" V 5700 4200 50  0000 C CNN
F 1 "750k" V 5800 4200 50  0000 C CNN
F 2 "Resistor_SMD:R_0603_1608Metric" V 5940 4140 50  0001 C CNN
F 3 "~" H 5900 4150 50  0001 C CNN
	1    5900 4150
	0    1    1    0   
$EndComp
$Comp
L Device:R_US R45
U 1 1 5DA7300B
P 5900 4600
F 0 "R45" V 5700 4650 50  0000 C CNN
F 1 "360k" V 5800 4650 50  0000 C CNN
F 2 "Resistor_SMD:R_0603_1608Metric" V 5940 4590 50  0001 C CNN
F 3 "~" H 5900 4600 50  0001 C CNN
	1    5900 4600
	0    1    1    0   
$EndComp
Wire Wire Line
	5350 4150 5400 4150
Wire Wire Line
	5700 4600 5750 4600
Wire Wire Line
	5750 4150 5700 4150
Wire Wire Line
	5350 4600 5400 4600
Wire Wire Line
	6050 4150 6100 4150
Wire Wire Line
	6050 4600 6100 4600
Wire Wire Line
	9100 5650 9100 5700
$Comp
L power:+12V #PWR?
U 1 1 5DA72FEB
P 9100 5650
AR Path="/5DA72FEB" Ref="#PWR?"  Part="1" 
AR Path="/5DB5BADF/5DA72FEB" Ref="#PWR?"  Part="1" 
AR Path="/5DAB9CF3/5DA72FEB" Ref="#PWR045"  Part="1" 
F 0 "#PWR045" H 9100 5500 50  0001 C CNN
F 1 "+12V" H 9115 5823 50  0000 C CNN
F 2 "" H 9100 5650 50  0001 C CNN
F 3 "" H 9100 5650 50  0001 C CNN
	1    9100 5650
	1    0    0    -1  
$EndComp
$Comp
L Device:Opamp_Quad_Generic U?
U 5 1 5DA72FE5
P 9200 6000
AR Path="/5DB5BADF/5DA72FE5" Ref="U?"  Part="5" 
AR Path="/5DAB9CF3/5DA72FE5" Ref="U7"  Part="5" 
F 0 "U7" H 9050 6000 50  0000 L CNN
F 1 "LF347" H 8950 5450 50  0000 L CNN
F 2 "Package_SO:SOIC-14_3.9x8.7mm_P1.27mm" H 9200 6000 50  0001 C CNN
F 3 "~" H 9200 6000 50  0001 C CNN
	5    9200 6000
	1    0    0    -1  
$EndComp
Wire Wire Line
	750  1500 1900 1500
Text Label 750  1500 0    50   ~ 0
SCALED_FM
Text Label 5300 5100 0    50   ~ 0
SCALED_FM
Wire Wire Line
	4850 5600 4900 5600
Wire Wire Line
	4000 5400 3950 5400
$Comp
L power:GND #PWR020
U 1 1 5DA10249
P 3950 5400
F 0 "#PWR020" H 3950 5150 50  0001 C CNN
F 1 "GND" H 4100 5300 50  0000 C CNN
F 2 "" H 3950 5400 50  0001 C CNN
F 3 "" H 3950 5400 50  0001 C CNN
	1    3950 5400
	0    1    1    0   
$EndComp
Wire Wire Line
	4350 5350 4350 5400
$Comp
L Device:C C11
U 1 1 5DA08E1C
P 4150 5400
F 0 "C11" H 4000 5550 50  0000 L CNN
F 1 "560pF C0G" V 4100 4900 50  0000 L CNN
F 2 "Capacitor_SMD:C_0603_1608Metric" H 4188 5250 50  0001 C CNN
F 3 "~" H 4150 5400 50  0001 C CNN
	1    4150 5400
	0    -1   -1   0   
$EndComp
$Comp
L Device:R_US R35
U 1 1 5DA084B1
P 4350 5200
F 0 "R35" H 4418 5246 50  0000 L CNN
F 1 "470" H 4418 5155 50  0000 L CNN
F 2 "Resistor_SMD:R_0603_1608Metric" V 4390 5190 50  0001 C CNN
F 3 "~" H 4350 5200 50  0001 C CNN
	1    4350 5200
	-1   0    0    1   
$EndComp
Wire Wire Line
	4350 4900 4350 5050
Wire Wire Line
	4300 4900 4350 4900
Wire Wire Line
	3950 4900 4000 4900
$Comp
L Device:R_US R34
U 1 1 5D9F3C71
P 4150 4900
F 0 "R34" H 4218 4946 50  0000 L CNN
F 1 "36k" H 4218 4855 50  0000 L CNN
F 2 "Resistor_SMD:R_0603_1608Metric" V 4190 4890 50  0001 C CNN
F 3 "~" H 4150 4900 50  0001 C CNN
	1    4150 4900
	0    1    1    0   
$EndComp
$Comp
L Device:C C9
U 1 1 5D9F2ED4
P 3800 4900
F 0 "C9" H 3650 5050 50  0000 L CNN
F 1 "0.1uF C0G" V 3950 4450 50  0000 L CNN
F 2 "Capacitor_SMD:C_1206_3216Metric" H 3838 4750 50  0001 C CNN
F 3 "~" H 3800 4900 50  0001 C CNN
	1    3800 4900
	0    1    1    0   
$EndComp
$Comp
L local:SSM2164 U?
U 5 1 5D9E6948
P 9900 5900
AR Path="/5D9E6948" Ref="U?"  Part="1" 
AR Path="/5DAB9CF3/5D9E6948" Ref="U6"  Part="5" 
F 0 "U6" H 9850 5650 50  0000 L CNN
F 1 "SSM2164" H 9850 6150 50  0000 L CNN
F 2 "Package_SO:SOIC-16_3.9x9.9mm_P1.27mm" H 9900 5900 50  0001 C CNN
F 3 "" H 9900 5900 50  0001 C CNN
	5    9900 5900
	1    0    0    1   
$EndComp
Wire Wire Line
	7950 5750 7950 5700
$Comp
L Device:C C23
U 1 1 5DB4FDD5
P 7950 5900
F 0 "C23" H 8065 5946 50  0000 L CNN
F 1 "0.1uF" H 8065 5855 50  0000 L CNN
F 2 "Capacitor_SMD:C_0603_1608Metric" H 7988 5750 50  0001 C CNN
F 3 "~" H 7950 5900 50  0001 C CNN
	1    7950 5900
	1    0    0    -1  
$EndComp
$Comp
L power:+12V #PWR?
U 1 1 5DB4FDB7
P 7950 5700
AR Path="/5DB4FDB7" Ref="#PWR?"  Part="1" 
AR Path="/5DAB9CF3/5DB4FDB7" Ref="#PWR037"  Part="1" 
F 0 "#PWR037" H 7950 5550 50  0001 C CNN
F 1 "+12V" H 7965 5873 50  0000 C CNN
F 2 "" H 7950 5700 50  0001 C CNN
F 3 "" H 7950 5700 50  0001 C CNN
	1    7950 5700
	1    0    0    -1  
$EndComp
Wire Wire Line
	7550 5750 7550 5700
$Comp
L Device:C C20
U 1 1 5DB36345
P 7550 5900
F 0 "C20" H 7665 5946 50  0000 L CNN
F 1 "0.1uF" H 7665 5855 50  0000 L CNN
F 2 "Capacitor_SMD:C_0603_1608Metric" H 7588 5750 50  0001 C CNN
F 3 "~" H 7550 5900 50  0001 C CNN
	1    7550 5900
	1    0    0    -1  
$EndComp
$Comp
L power:+12V #PWR?
U 1 1 5DB2DF45
P 7550 5700
AR Path="/5DB2DF45" Ref="#PWR?"  Part="1" 
AR Path="/5DAB9CF3/5DB2DF45" Ref="#PWR034"  Part="1" 
F 0 "#PWR034" H 7550 5550 50  0001 C CNN
F 1 "+12V" H 7565 5873 50  0000 C CNN
F 2 "" H 7550 5700 50  0001 C CNN
F 3 "" H 7550 5700 50  0001 C CNN
	1    7550 5700
	1    0    0    -1  
$EndComp
Wire Wire Line
	7100 5600 7100 5650
$Comp
L power:+12V #PWR?
U 1 1 5DB28293
P 7100 5600
AR Path="/5DB28293" Ref="#PWR?"  Part="1" 
AR Path="/5DAB9CF3/5DB28293" Ref="#PWR030"  Part="1" 
F 0 "#PWR030" H 7100 5450 50  0001 C CNN
F 1 "+12V" H 7115 5773 50  0000 C CNN
F 2 "" H 7100 5600 50  0001 C CNN
F 3 "" H 7100 5600 50  0001 C CNN
	1    7100 5600
	1    0    0    -1  
$EndComp
$Comp
L Device:R_US R?
U 1 1 5DB2828D
P 7100 5800
AR Path="/5DB2828D" Ref="R?"  Part="1" 
AR Path="/5DAB9CF3/5DB2828D" Ref="R51"  Part="1" 
F 0 "R51" H 7168 5846 50  0000 L CNN
F 1 "18k" H 7168 5755 50  0000 L CNN
F 2 "Resistor_SMD:R_0603_1608Metric" V 7140 5790 50  0001 C CNN
F 3 "~" H 7100 5800 50  0001 C CNN
	1    7100 5800
	1    0    0    -1  
$EndComp
Wire Wire Line
	850  1250 850  1350
Text Label 750  1650 0    50   ~ 0
VREF_5
Wire Wire Line
	1250 1650 750  1650
Wire Wire Line
	1600 1650 1600 1950
Wire Wire Line
	1550 1650 1600 1650
$Comp
L Device:R_US R10
U 1 1 5DAFB7FA
P 1400 1650
F 0 "R10" V 1350 1500 50  0000 C CNN
F 1 "180k" V 1500 1550 50  0000 C CNN
F 2 "Resistor_SMD:R_0603_1608Metric" V 1440 1640 50  0001 C CNN
F 3 "~" H 1400 1650 50  0001 C CNN
	1    1400 1650
	0    1    1    0   
$EndComp
Text Label 1750 900  2    50   ~ 0
VREF_5
Wire Wire Line
	1900 2350 1900 2300
NoConn ~ 2450 1550
Wire Wire Line
	1600 2650 1600 2750
$Comp
L power:GND #PWR04
U 1 1 5DAFB7D5
P 1600 2750
F 0 "#PWR04" H 1600 2500 50  0001 C CNN
F 1 "GND" H 1450 2650 50  0000 C CNN
F 2 "" H 1600 2750 50  0001 C CNN
F 3 "" H 1600 2750 50  0001 C CNN
	1    1600 2750
	1    0    0    -1  
$EndComp
Wire Wire Line
	1600 2300 1600 2350
$Comp
L Device:C C2
U 1 1 5DAFB7CE
P 1600 2500
F 0 "C2" H 1450 2650 50  0000 L CNN
F 1 "0.01uF C0G" V 1400 2300 50  0000 L CNN
F 2 "Capacitor_SMD:C_0603_1608Metric" H 1638 2350 50  0001 C CNN
F 3 "~" H 1600 2500 50  0001 C CNN
	1    1600 2500
	1    0    0    -1  
$EndComp
Wire Wire Line
	1600 1950 2450 1950
Connection ~ 1600 1950
Wire Wire Line
	1600 1950 1600 2000
$Comp
L Device:R_US R13
U 1 1 5DAFB7C5
P 1600 2150
F 0 "R13" V 1700 2250 50  0000 C CNN
F 1 "470" V 1700 2100 50  0000 C CNN
F 2 "Resistor_SMD:R_0603_1608Metric" V 1640 2140 50  0001 C CNN
F 3 "~" H 1600 2150 50  0001 C CNN
	1    1600 2150
	-1   0    0    1   
$EndComp
Wire Wire Line
	1750 1750 1750 2000
Wire Wire Line
	3900 2400 3900 2450
$Comp
L power:-5V #PWR019
U 1 1 5DAFB7A2
P 3900 2450
F 0 "#PWR019" H 3900 2550 50  0001 C CNN
F 1 "-5V" H 4050 2550 50  0000 C CNN
F 2 "" H 3900 2450 50  0001 C CNN
F 3 "" H 3900 2450 50  0001 C CNN
	1    3900 2450
	-1   0    0    1   
$EndComp
Wire Wire Line
	3900 1950 3900 2000
Wire Wire Line
	1750 2900 3600 2900
Wire Wire Line
	1750 2300 1750 2900
$Comp
L Transistor_BJT:MMBT3906 Q1
U 1 1 5DAFB799
P 3800 2200
F 0 "Q1" H 3991 2154 50  0000 L CNN
F 1 "MMBT3906" H 3991 2245 50  0000 L CNN
F 2 "Package_TO_SOT_SMD:SOT-23" H 4000 2125 50  0001 L CIN
F 3 "https://www.fairchildsemi.com/datasheets/2N/2N3906.pdf" H 3800 2200 50  0001 L CNN
	1    3800 2200
	1    0    0    1   
$EndComp
$Comp
L Device:R_US R18
U 1 1 5DAFB793
P 1750 2150
F 0 "R18" V 1700 1950 50  0000 L CNN
F 1 "36k" V 1700 2200 50  0000 L CNN
F 2 "Resistor_SMD:R_0603_1608Metric" V 1790 2140 50  0001 C CNN
F 3 "~" H 1750 2150 50  0001 C CNN
	1    1750 2150
	1    0    0    -1  
$EndComp
Wire Wire Line
	2100 1750 2100 2350
Connection ~ 2100 1750
Wire Wire Line
	2100 1750 1750 1750
Text Notes 3450 4250 0    50   ~ 0
0-4V
Text Notes 3500 4050 0    50   ~ 0
0-8V
Text Notes 3500 3650 0    50   ~ 0
0-10.5V
Text Notes 3700 1950 0    50   ~ 0
0-4V
Text Notes 3700 1750 0    50   ~ 0
0-8V
Text Notes 3700 1550 0    50   ~ 0
0-10.5V
Text Notes 650  850  0    50   ~ 0
0.1-3.3V
Wire Wire Line
	1150 750  1050 750 
Connection ~ 2100 750 
Wire Wire Line
	2100 750  1450 750 
$Comp
L Device:R_US R7
U 1 1 5DAFB6D1
P 1300 750
F 0 "R7" V 1095 750 50  0000 C CNN
F 1 "10k" V 1186 750 50  0000 C CNN
F 2 "Resistor_SMD:R_0603_1608Metric" V 1340 740 50  0001 C CNN
F 3 "~" H 1300 750 50  0001 C CNN
	1    1300 750 
	0    1    1    0   
$EndComp
Wire Wire Line
	3500 750  3500 1550
Wire Wire Line
	2100 750  2550 750 
$Comp
L Device:R_US R25
U 1 1 5DAFB6C7
P 2700 750
F 0 "R25" V 2495 750 50  0000 C CNN
F 1 "1M" V 2586 750 50  0000 C CNN
F 2 "Resistor_SMD:R_0603_1608Metric" V 2740 740 50  0001 C CNN
F 3 "~" H 2700 750 50  0001 C CNN
	1    2700 750 
	0    1    1    0   
$EndComp
Wire Wire Line
	850  1350 750  1350
Wire Wire Line
	1250 1950 750  1950
$Comp
L Device:R_US R11
U 1 1 5DAFB6BA
P 1400 1950
F 0 "R11" V 1350 1800 50  0000 C CNN
F 1 "27k" V 1500 1800 50  0000 C CNN
F 2 "Resistor_SMD:R_0603_1608Metric" V 1440 1940 50  0001 C CNN
F 3 "~" H 1400 1950 50  0001 C CNN
	1    1400 1950
	0    1    1    0   
$EndComp
Wire Wire Line
	1550 1950 1600 1950
Wire Wire Line
	1900 1850 1900 2000
Wire Wire Line
	2100 2700 2100 2750
Connection ~ 2100 2700
Wire Wire Line
	2100 2650 2100 2700
Wire Wire Line
	2450 1750 2100 1750
$Comp
L Device:C C6
U 1 1 5DAFB6AC
P 2100 2500
F 0 "C6" V 2050 2350 50  0000 L CNN
F 1 "0.1uF" V 2150 2550 50  0000 L CNN
F 2 "Capacitor_SMD:C_0603_1608Metric" H 2138 2350 50  0001 C CNN
F 3 "~" H 2100 2500 50  0001 C CNN
	1    2100 2500
	1    0    0    -1  
$EndComp
$Comp
L Device:C C4
U 1 1 5DAFB6A5
P 1900 2500
F 0 "C4" V 1850 2350 50  0000 L CNN
F 1 "0.01uF C0G" V 2000 2550 50  0000 L CNN
F 2 "Capacitor_SMD:C_0603_1608Metric" H 1938 2350 50  0001 C CNN
F 3 "~" H 1900 2500 50  0001 C CNN
	1    1900 2500
	1    0    0    -1  
$EndComp
Connection ~ 1900 1850
$Comp
L Device:R_US R20
U 1 1 5DAFB69E
P 1900 2150
F 0 "R20" V 1850 1950 50  0000 L CNN
F 1 "470" V 1850 2200 50  0000 L CNN
F 2 "Resistor_SMD:R_0603_1608Metric" V 1940 2140 50  0001 C CNN
F 3 "~" H 1900 2150 50  0001 C CNN
	1    1900 2150
	1    0    0    -1  
$EndComp
Wire Wire Line
	2100 1450 2450 1450
Wire Wire Line
	2100 750  2100 1450
Connection ~ 850  1350
Wire Wire Line
	1200 1350 2450 1350
$Comp
L Device:R_US R4
U 1 1 5DAFB690
P 1050 1350
F 0 "R4" V 1100 1200 50  0000 C CNN
F 1 "5.6K" V 1100 1050 50  0000 C CNN
F 2 "Resistor_SMD:R_0603_1608Metric" V 1090 1340 50  0001 C CNN
F 3 "~" H 1050 1350 50  0001 C CNN
	1    1050 1350
	0    -1   -1   0   
$EndComp
Wire Wire Line
	850  1250 900  1250
Wire Wire Line
	1200 1250 2450 1250
$Comp
L Device:R_US R3
U 1 1 5DAFB688
P 1050 1250
F 0 "R3" V 845 1250 50  0000 C CNN
F 1 "30k" V 936 1250 50  0000 C CNN
F 2 "Resistor_SMD:R_0603_1608Metric" V 1090 1240 50  0001 C CNN
F 3 "~" H 1050 1250 50  0001 C CNN
	1    1050 1250
	0    1    1    0   
$EndComp
Wire Wire Line
	1900 1850 1900 1500
Wire Wire Line
	2450 1850 1900 1850
Wire Wire Line
	2300 2150 2300 2350
Wire Wire Line
	2300 2150 2450 2150
Wire Wire Line
	2300 2700 2100 2700
Wire Wire Line
	2300 2650 2300 2700
$Comp
L Device:C C8
U 1 1 5DAFB676
P 2300 2500
F 0 "C8" V 2250 2350 50  0000 L CNN
F 1 "1000pF C0G" V 2350 2550 50  0000 L CNN
F 2 "Capacitor_SMD:C_0603_1608Metric" H 2338 2350 50  0001 C CNN
F 3 "~" H 2300 2500 50  0001 C CNN
	1    2300 2500
	1    0    0    -1  
$EndComp
Wire Wire Line
	3450 1950 3900 1950
Wire Wire Line
	2450 2650 2450 2700
Wire Wire Line
	3050 2450 3050 2500
Wire Wire Line
	3500 2350 3500 2500
Wire Wire Line
	2450 2250 2450 2350
$Comp
L Device:R_US R23
U 1 1 5DAFB666
P 2450 2500
F 0 "R23" H 2518 2546 50  0000 L CNN
F 1 "1.8k" H 2518 2455 50  0000 L CNN
F 2 "Resistor_SMD:R_0603_1608Metric" V 2490 2490 50  0001 C CNN
F 3 "~" H 2450 2500 50  0001 C CNN
	1    2450 2500
	1    0    0    -1  
$EndComp
Connection ~ 3500 1550
Wire Wire Line
	3500 2050 3500 1550
$Comp
L Device:R_US R30
U 1 1 5DAFB65D
P 3500 2200
F 0 "R30" H 3568 2246 50  0000 L CNN
F 1 "10k" V 3400 2150 50  0000 L CNN
F 2 "Resistor_SMD:R_0603_1608Metric" V 3540 2190 50  0001 C CNN
F 3 "~" H 3500 2200 50  0001 C CNN
	1    3500 2200
	1    0    0    -1  
$EndComp
Wire Wire Line
	3450 1550 3500 1550
$Comp
L power:GND #PWR018
U 1 1 5DAFB656
P 3500 2500
F 0 "#PWR018" H 3500 2250 50  0001 C CNN
F 1 "GND" H 3350 2450 50  0000 C CNN
F 2 "" H 3500 2500 50  0001 C CNN
F 3 "" H 3500 2500 50  0001 C CNN
	1    3500 2500
	1    0    0    -1  
$EndComp
$Comp
L power:GND #PWR07
U 1 1 5DAFB64F
P 2100 2750
F 0 "#PWR07" H 2100 2500 50  0001 C CNN
F 1 "GND" H 2250 2650 50  0000 C CNN
F 2 "" H 2100 2750 50  0001 C CNN
F 3 "" H 2100 2750 50  0001 C CNN
	1    2100 2750
	1    0    0    -1  
$EndComp
$Comp
L power:GND #PWR016
U 1 1 5DAFB643
P 3050 2500
F 0 "#PWR016" H 3050 2250 50  0001 C CNN
F 1 "GND" H 3200 2400 50  0000 C CNN
F 2 "" H 3050 2500 50  0001 C CNN
F 3 "" H 3050 2500 50  0001 C CNN
	1    3050 2500
	1    0    0    -1  
$EndComp
Wire Wire Line
	2950 1000 2950 1050
$Comp
L power:+12V #PWR013
U 1 1 5DAFB63C
P 2950 1000
F 0 "#PWR013" H 2950 850 50  0001 C CNN
F 1 "+12V" H 2965 1173 50  0000 C CNN
F 2 "" H 2950 1000 50  0001 C CNN
F 3 "" H 2950 1000 50  0001 C CNN
	1    2950 1000
	1    0    0    -1  
$EndComp
$Comp
L Audio:AS3340 U3
U 1 1 5DAFB636
P 2950 1750
F 0 "U3" H 2600 2500 50  0000 C CNN
F 1 "V3340M" H 2700 2400 50  0000 C CNN
F 2 "Package_SO:SOP-16_4.4x10.4mm_P1.27mm" H 3450 1450 50  0001 C CNN
F 3 "http://www.alfarzpp.lv/eng/sc/AS3340.pdf" H 3550 1300 50  0001 C CNN
	1    2950 1750
	1    0    0    -1  
$EndComp
Text Label 5350 2800 0    50   ~ 0
HARD_SYNC
Wire Wire Line
	3450 1750 4050 1750
Wire Wire Line
	4200 1050 3950 1050
Text Label 3950 1050 2    50   ~ 0
OSC1_PULSE
Text Label 4100 1650 0    50   ~ 0
OSC1_SAW
Wire Wire Line
	3900 1950 4100 1950
Wire Wire Line
	4100 1750 4200 1750
Text Label 4150 2150 0    50   ~ 0
OSC1_TRI
Wire Wire Line
	4150 1950 4150 2150
Wire Wire Line
	4100 1650 4100 1500
Wire Wire Line
	4100 1500 4200 1500
Wire Wire Line
	6150 750  6200 750 
$Comp
L power:GND #PWR028
U 1 1 5DA7308D
P 6150 750
F 0 "#PWR028" H 6150 500 50  0001 C CNN
F 1 "GND" V 6050 700 50  0000 R CNN
F 2 "" H 6150 750 50  0001 C CNN
F 3 "" H 6150 750 50  0001 C CNN
	1    6150 750 
	0    1    1    0   
$EndComp
Wire Wire Line
	3600 2900 3650 2900
Connection ~ 3600 2900
Wire Wire Line
	3950 2900 4000 2900
Wire Wire Line
	4300 2900 4350 2900
$Comp
L power:+12V #PWR?
U 1 1 5F3774A5
P 4850 3400
AR Path="/5F3774A5" Ref="#PWR?"  Part="1" 
AR Path="/5DB5BADF/5F3774A5" Ref="#PWR?"  Part="1" 
AR Path="/5DAB9CF3/5F3774A5" Ref="#PWR024"  Part="1" 
F 0 "#PWR024" H 4850 3250 50  0001 C CNN
F 1 "+12V" H 4700 3500 50  0000 C CNN
F 2 "" H 4850 3400 50  0001 C CNN
F 3 "" H 4850 3400 50  0001 C CNN
	1    4850 3400
	1    0    0    -1  
$EndComp
Wire Wire Line
	4850 3400 4850 3450
$Comp
L power:GND #PWR?
U 1 1 5F39678C
P 5100 3900
AR Path="/5F39678C" Ref="#PWR?"  Part="1" 
AR Path="/5DB5BADF/5F39678C" Ref="#PWR?"  Part="1" 
AR Path="/5DAB9CF3/5F39678C" Ref="#PWR025"  Part="1" 
F 0 "#PWR025" H 5100 3650 50  0001 C CNN
F 1 "GND" V 5200 3850 50  0000 C CNN
F 2 "" H 5100 3900 50  0001 C CNN
F 3 "" H 5100 3900 50  0001 C CNN
	1    5100 3900
	0    -1   -1   0   
$EndComp
Wire Wire Line
	4850 3850 4850 3900
Wire Wire Line
	4850 3900 5100 3900
Wire Wire Line
	3300 4050 3400 4050
Wire Wire Line
	3400 4050 3400 3250
Wire Wire Line
	3400 3250 5350 3250
Wire Wire Line
	5350 3250 5350 3000
Wire Wire Line
	3350 3850 3450 3850
Wire Wire Line
	3450 3850 3450 3550
Wire Wire Line
	3450 3550 4350 3550
Text Label 4350 3750 2    50   ~ 0
OSC2_PULSE
Wire Wire Line
	3400 4050 4350 4050
Connection ~ 3400 4050
Text Label 4350 4250 2    50   ~ 0
OSC2_SAW
$Comp
L 4xxx_IEEE:4016 U?
U 3 1 5F3EBAA0
P 4850 4600
AR Path="/5F3EBAA0" Ref="U?"  Part="4" 
AR Path="/5DB5BADF/5F3EBAA0" Ref="U?"  Part="3" 
AR Path="/5DAB9CF3/5F3EBAA0" Ref="U5"  Part="3" 
F 0 "U5" H 4950 4700 50  0000 C CNN
F 1 "4016" H 4950 4500 50  0000 C CNN
F 2 "Package_SO:SOIC-14_3.9x8.7mm_P1.27mm" H 4850 4600 50  0001 C CNN
F 3 "" H 4850 4600 50  0001 C CNN
	3    4850 4600
	1    0    0    -1  
$EndComp
Wire Wire Line
	3300 4250 3600 4250
Wire Wire Line
	3950 4250 3950 4500
Wire Wire Line
	3950 4500 4350 4500
Text Label 4350 4700 2    50   ~ 0
OSC2_TRI
Wire Wire Line
	3600 4250 3600 4900
Wire Wire Line
	3600 4900 3650 4900
Connection ~ 3600 4250
Wire Wire Line
	3600 4250 3950 4250
Wire Wire Line
	4350 4900 4550 4900
Wire Wire Line
	4550 4900 4550 5100
Connection ~ 4350 4900
Text Label 2200 7150 0    50   ~ 0
gpio0
Wire Wire Line
	2200 7150 2500 7150
Text Label 2500 7150 0    50   ~ 0
OSC1_PULSE
Wire Wire Line
	6100 3650 6100 4150
Connection ~ 6100 2150
Wire Wire Line
	6100 2150 6100 1900
Wire Wire Line
	6100 1900 6200 1900
Text Notes 6600 1750 0    50   ~ 0
-2V -> 2V\n
Entry Wire Line
	2100 7150 2200 7250
Entry Wire Line
	2100 7250 2200 7350
Entry Wire Line
	2100 7350 2200 7450
Entry Wire Line
	2100 7450 2200 7550
Entry Wire Line
	2100 7550 2200 7650
Entry Wire Line
	2100 7650 2200 7750
Wire Wire Line
	2200 7250 2500 7250
Wire Wire Line
	2200 7350 2500 7350
Wire Wire Line
	2200 7450 2500 7450
Wire Wire Line
	2200 7550 2500 7550
Wire Wire Line
	2200 7650 2500 7650
Wire Wire Line
	2200 7750 2500 7750
Text Label 2200 7250 0    50   ~ 0
gpio1
Text Label 2500 7250 0    50   ~ 0
OSC1_SAW
Text Label 2200 7350 0    50   ~ 0
gpio2
Text Label 2500 7350 0    50   ~ 0
OSC1_TRI
Text Label 2200 7450 0    50   ~ 0
gpio3
Text Label 2500 7450 0    50   ~ 0
OSC2_PULSE
Text Label 2200 7550 0    50   ~ 0
gpio4
Text Label 2500 7550 0    50   ~ 0
OSC2_SAW
Text Label 2200 7650 0    50   ~ 0
gpio5
Text Label 2500 7650 0    50   ~ 0
OSC2_TRI
Text Label 2200 7750 0    50   ~ 0
gpio6
Text Label 2500 7750 0    50   ~ 0
HARD_SYNC
Wire Notes Line style solid rgb(132, 0, 0)
	3100 6900 3100 8100
$Comp
L local:SSM2164 U?
U 1 1 5F789248
P 7650 850
AR Path="/5F789248" Ref="U?"  Part="2" 
AR Path="/5DAB9CF3/5F789248" Ref="U6"  Part="1" 
F 0 "U6" H 7450 1050 50  0000 C CNN
F 1 "SSM2164" H 8000 1050 50  0000 C CNN
F 2 "Package_SO:SOIC-16_3.9x9.9mm_P1.27mm" H 7650 850 50  0001 C CNN
F 3 "" H 7650 850 50  0001 C CNN
	1    7650 850 
	1    0    0    -1  
$EndComp
$Comp
L Device:R_US R49
U 1 1 5F78B923
P 7100 850
F 0 "R49" V 6900 900 50  0000 C CNN
F 1 "100k" V 7000 900 50  0000 C CNN
F 2 "Resistor_SMD:R_0603_1608Metric" V 7140 840 50  0001 C CNN
F 3 "~" H 7100 850 50  0001 C CNN
	1    7100 850 
	0    1    1    0   
$EndComp
Wire Notes Line style solid rgb(132, 0, 0)
	500  6900 3100 6900
Wire Wire Line
	6900 850  6950 850 
Wire Wire Line
	7250 850  7300 850 
Wire Wire Line
	7300 1550 7300 1600
$Comp
L power:GND #PWR032
U 1 1 5F7AEE90
P 7300 1600
F 0 "#PWR032" H 7300 1350 50  0001 C CNN
F 1 "GND" H 7450 1500 50  0000 C CNN
F 2 "" H 7300 1600 50  0001 C CNN
F 3 "" H 7300 1600 50  0001 C CNN
	1    7300 1600
	1    0    0    -1  
$EndComp
Wire Wire Line
	7300 1200 7300 1250
$Comp
L Device:C C18
U 1 1 5F7AEE9B
P 7300 1400
F 0 "C18" H 7150 1300 50  0000 L CNN
F 1 "560pF C0G" H 7300 1300 50  0000 L CNN
F 2 "Capacitor_SMD:C_0603_1608Metric" H 7338 1250 50  0001 C CNN
F 3 "~" H 7300 1400 50  0001 C CNN
	1    7300 1400
	-1   0    0    1   
$EndComp
Wire Wire Line
	7300 850  7300 900 
Connection ~ 7300 850 
Wire Wire Line
	7300 850  7350 850 
Wire Wire Line
	7650 1300 7750 1300
Text Notes 7750 1200 0    50   ~ 0
0-2.5V
Text Label 7750 1300 0    50   ~ 0
OSC1_LEVEL
$Comp
L local:SSM2164 U?
U 3 1 5F7FAD1D
P 7650 1800
AR Path="/5F7FAD1D" Ref="U?"  Part="2" 
AR Path="/5DAB9CF3/5F7FAD1D" Ref="U6"  Part="3" 
F 0 "U6" H 7450 2000 50  0000 C CNN
F 1 "SSM2164" H 8000 2000 50  0000 C CNN
F 2 "Package_SO:SOIC-16_3.9x9.9mm_P1.27mm" H 7650 1800 50  0001 C CNN
F 3 "" H 7650 1800 50  0001 C CNN
	3    7650 1800
	1    0    0    -1  
$EndComp
$Comp
L Device:R_US R50
U 1 1 5F7FAD27
P 7100 1800
F 0 "R50" V 6900 1850 50  0000 C CNN
F 1 "100k" V 7000 1850 50  0000 C CNN
F 2 "Resistor_SMD:R_0603_1608Metric" V 7140 1790 50  0001 C CNN
F 3 "~" H 7100 1800 50  0001 C CNN
	1    7100 1800
	0    1    1    0   
$EndComp
Wire Wire Line
	7250 1800 7300 1800
Wire Wire Line
	7300 2500 7300 2550
$Comp
L power:GND #PWR033
U 1 1 5F7FAD33
P 7300 2550
F 0 "#PWR033" H 7300 2300 50  0001 C CNN
F 1 "GND" H 7450 2450 50  0000 C CNN
F 2 "" H 7300 2550 50  0001 C CNN
F 3 "" H 7300 2550 50  0001 C CNN
	1    7300 2550
	1    0    0    -1  
$EndComp
Wire Wire Line
	7300 2150 7300 2200
$Comp
L Device:C C19
U 1 1 5F7FAD3E
P 7300 2350
F 0 "C19" H 7200 2250 50  0000 L CNN
F 1 "560pF C0G" H 7350 2250 50  0000 L CNN
F 2 "Capacitor_SMD:C_0603_1608Metric" H 7338 2200 50  0001 C CNN
F 3 "~" H 7300 2350 50  0001 C CNN
	1    7300 2350
	-1   0    0    1   
$EndComp
$Comp
L Device:R_US R53
U 1 1 5F7FAD48
P 7300 2000
F 0 "R53" H 7368 2046 50  0000 L CNN
F 1 "470" H 7368 1955 50  0000 L CNN
F 2 "Resistor_SMD:R_0603_1608Metric" V 7340 1990 50  0001 C CNN
F 3 "~" H 7300 2000 50  0001 C CNN
	1    7300 2000
	-1   0    0    1   
$EndComp
Wire Wire Line
	7300 1800 7300 1850
Connection ~ 7300 1800
Wire Wire Line
	7300 1800 7350 1800
Wire Wire Line
	7650 2250 7700 2250
Text Notes 7750 2150 0    50   ~ 0
0-2.5V
Text Label 7700 2250 0    50   ~ 0
OSC2_LEVEL
$Comp
L Device:R_US R54
U 1 1 5F996764
P 8250 2450
F 0 "R54" V 8050 2500 50  0000 C CNN
F 1 "68k" V 8150 2500 50  0000 C CNN
F 2 "Resistor_SMD:R_0603_1608Metric" V 8290 2440 50  0001 C CNN
F 3 "~" H 8250 2450 50  0001 C CNN
	1    8250 2450
	0    1    1    0   
$EndComp
$Comp
L Device:C C22
U 1 1 5F996CA0
P 7900 2450
F 0 "C22" V 7950 2500 50  0000 L CNN
F 1 "0.1uF C0G" V 7750 2300 50  0000 L CNN
F 2 "Capacitor_SMD:C_1206_3216Metric" H 7938 2300 50  0001 C CNN
F 3 "~" H 7900 2450 50  0001 C CNN
	1    7900 2450
	0    -1   -1   0   
$EndComp
Wire Wire Line
	8050 2450 8100 2450
Wire Wire Line
	8450 2450 8400 2450
Wire Wire Line
	7750 2450 7600 2450
Text Label 7600 2450 2    50   ~ 0
NOISE
Text Notes 7400 2550 0    50   ~ 0
0-3.3V
Text HLabel 9000 800  2    50   Output ~ 0
OUT
Text Notes 9200 800  0    50   ~ 0
Current out +- 60uA
Wire Wire Line
	9500 5850 9600 5850
Wire Wire Line
	9550 6050 9550 5950
Wire Wire Line
	9550 5950 9600 5950
$Comp
L local:SSM2164 U?
U 4 1 5EC27211
P 9900 5000
AR Path="/5EC27211" Ref="U?"  Part="2" 
AR Path="/5DAB9CF3/5EC27211" Ref="U6"  Part="4" 
F 0 "U6" H 9700 5200 50  0000 C CNN
F 1 "SSM2164" H 10250 5200 50  0000 C CNN
F 2 "Package_SO:SOIC-16_3.9x9.9mm_P1.27mm" H 9900 5000 50  0001 C CNN
F 3 "" H 9900 5000 50  0001 C CNN
	4    9900 5000
	1    0    0    -1  
$EndComp
NoConn ~ 9600 5000
NoConn ~ 10300 5000
NoConn ~ 9900 5450
$Comp
L 4xxx_IEEE:4016 U?
U 4 1 5FF3C84E
P 8950 5000
AR Path="/5FF3C84E" Ref="U?"  Part="2" 
AR Path="/5DB5BADF/5FF3C84E" Ref="U?"  Part="1" 
AR Path="/5DAB9CF3/5FF3C84E" Ref="U5"  Part="4" 
F 0 "U5" H 9100 5250 50  0000 C CNN
F 1 "4016" H 8850 5250 50  0000 C CNN
F 2 "Package_SO:SOIC-14_3.9x8.7mm_P1.27mm" H 8950 5000 50  0001 C CNN
F 3 "" H 8950 5000 50  0001 C CNN
	4    8950 5000
	1    0    0    -1  
$EndComp
NoConn ~ 8450 5100
NoConn ~ 9450 5000
Text Label 8850 800  0    50   ~ 0
OUT
Text Label 8450 2450 0    50   ~ 0
OUT
$Comp
L local:4053 U?
U 2 1 5DBF28B5
P 8450 1800
AR Path="/5DA53E0F/5DBF28B5" Ref="U?"  Part="2" 
AR Path="/5DAB9CF3/5DBF28B5" Ref="U9"  Part="2" 
F 0 "U9" H 8350 2050 50  0000 C CNN
F 1 "4053" H 8550 2000 50  0000 C CNN
F 2 "Package_SO:SOP-16_4.4x10.4mm_P1.27mm" H 8450 1800 50  0001 C CNN
F 3 "" H 8450 1800 50  0001 C CNN
	2    8450 1800
	-1   0    0    -1  
$EndComp
Wire Wire Line
	8050 1800 8100 1800
Wire Wire Line
	8450 2200 8350 2200
Entry Wire Line
	2100 7750 2200 7850
Wire Wire Line
	2200 7850 2500 7850
Text Label 2200 7850 0    50   ~ 0
gpio7
Text Label 2500 7850 0    50   ~ 0
WAVE_SHAPER1
Text Label 8350 2050 2    50   ~ 0
WAVE_SHAPER2
Wire Wire Line
	8750 1750 8850 1750
Text Label 8850 1750 0    50   ~ 0
OUT
$Comp
L Device:Opamp_Quad_Generic U1
U 4 1 5DCAA37B
P 1150 6350
F 0 "U1" H 1150 6717 50  0000 C CNN
F 1 "LF347" H 1150 6626 50  0000 C CNN
F 2 "Package_SO:SOIC-14_3.9x8.7mm_P1.27mm" H 1150 6350 50  0001 C CNN
F 3 "~" H 1150 6350 50  0001 C CNN
	4    1150 6350
	1    0    0    -1  
$EndComp
$Comp
L Device:Opamp_Quad_Generic U7
U 3 1 5DCAB4D6
P 9200 1950
F 0 "U7" H 9200 1650 50  0000 C CNN
F 1 "LF347" H 9200 1750 50  0000 C CNN
F 2 "Package_SO:SOIC-14_3.9x8.7mm_P1.27mm" H 9200 1950 50  0001 C CNN
F 3 "~" H 9200 1950 50  0001 C CNN
	3    9200 1950
	1    0    0    1   
$EndComp
Wire Wire Line
	8350 2200 8350 2050
Wire Wire Line
	8750 1850 8800 1850
$Comp
L power:GND #PWR043
U 1 1 5DD56866
P 8900 2100
F 0 "#PWR043" H 8900 1850 50  0001 C CNN
F 1 "GND" H 8950 2200 50  0000 C CNN
F 2 "" H 8900 2100 50  0001 C CNN
F 3 "" H 8900 2100 50  0001 C CNN
	1    8900 2100
	1    0    0    -1  
$EndComp
Wire Wire Line
	8900 2100 8900 2050
$Comp
L Device:R_US R55
U 1 1 5DDA20FD
P 9100 2250
F 0 "R55" V 9150 2100 50  0000 C CNN
F 1 "270k" V 9150 2450 50  0000 C CNN
F 2 "Resistor_SMD:R_0603_1608Metric" V 9140 2240 50  0001 C CNN
F 3 "~" H 9100 2250 50  0001 C CNN
	1    9100 2250
	0    1    1    0   
$EndComp
Wire Wire Line
	9250 2250 9500 2250
Wire Wire Line
	8950 2250 8800 2250
Wire Wire Line
	8800 2250 8800 1850
Connection ~ 8800 1850
Wire Wire Line
	8800 1850 8900 1850
$Comp
L Device:D_Zener D11
U 1 1 5DDE103E
P 9100 2350
F 0 "D11" H 8950 2300 50  0000 C CNN
F 1 "2.9V" H 9300 2300 50  0000 C CNN
F 2 "Diode_SMD:D_SOT-23_ANK" H 9100 2350 50  0001 C CNN
F 3 "~" H 9100 2350 50  0001 C CNN
	1    9100 2350
	1    0    0    -1  
$EndComp
Wire Wire Line
	8950 2350 8800 2350
Wire Wire Line
	8800 2350 8800 2250
Connection ~ 8800 2250
Wire Wire Line
	9500 2250 9500 2350
Wire Wire Line
	9500 2350 9250 2350
Connection ~ 9500 2250
$Comp
L Device:D_Zener D12
U 1 1 5DE30AD0
P 9100 2450
F 0 "D12" H 9250 2500 50  0000 C CNN
F 1 "2.9V" H 8900 2500 50  0000 C CNN
F 2 "Diode_SMD:D_SOT-23_ANK" H 9100 2450 50  0001 C CNN
F 3 "~" H 9100 2450 50  0001 C CNN
	1    9100 2450
	-1   0    0    1   
$EndComp
Wire Wire Line
	9250 2450 9500 2450
Wire Wire Line
	9500 2450 9500 2350
Connection ~ 9500 2350
Wire Wire Line
	8950 2450 8800 2450
Wire Wire Line
	8800 2450 8800 2350
Connection ~ 8800 2350
Wire Wire Line
	9500 1950 9500 2250
$Comp
L Device:R_US R56
U 1 1 5DEAC0E4
P 9700 1950
F 0 "R56" V 9750 1800 50  0000 C CNN
F 1 "36k" V 9750 2150 50  0000 C CNN
F 2 "Resistor_SMD:R_0603_1608Metric" V 9740 1940 50  0001 C CNN
F 3 "~" H 9700 1950 50  0001 C CNN
	1    9700 1950
	0    1    1    0   
$EndComp
Wire Wire Line
	9500 1950 9550 1950
Connection ~ 9500 1950
Wire Wire Line
	9850 1950 9900 1950
Text Label 9900 1950 0    50   ~ 0
OUT
$Comp
L local:4053 U?
U 3 1 5DF809F8
P 8500 850
AR Path="/5DA53E0F/5DF809F8" Ref="U?"  Part="2" 
AR Path="/5DAB9CF3/5DF809F8" Ref="U9"  Part="3" 
F 0 "U9" H 8400 1100 50  0000 C CNN
F 1 "4053" H 8600 1050 50  0000 C CNN
F 2 "Package_SO:SOP-16_4.4x10.4mm_P1.27mm" H 8500 850 50  0001 C CNN
F 3 "" H 8500 850 50  0001 C CNN
	3    8500 850 
	-1   0    0    -1  
$EndComp
Wire Wire Line
	8050 850  8150 850 
Text Label 8350 1100 2    50   ~ 0
WAVE_SHAPER1
Wire Wire Line
	8350 1100 8350 1250
Wire Wire Line
	8350 1250 8500 1250
Wire Wire Line
	8800 800  9000 800 
Wire Wire Line
	8800 900  8900 900 
Text Label 8900 900  0    50   ~ 0
TIMBRE_IN
$Comp
L power:GND #PWR03
U 1 1 5DC3C431
P 800 6250
F 0 "#PWR03" H 800 6000 50  0001 C CNN
F 1 "GND" V 805 6122 50  0000 R CNN
F 2 "" H 800 6250 50  0001 C CNN
F 3 "" H 800 6250 50  0001 C CNN
	1    800  6250
	0    1    1    0   
$EndComp
Wire Wire Line
	800  6250 850  6250
Text Label 650  6450 3    50   ~ 0
TIMBRE_IN
Wire Wire Line
	650  6450 800  6450
$Comp
L Device:R_US R5
U 1 1 5DD03D06
P 1050 6600
F 0 "R5" V 1100 6450 50  0000 C CNN
F 1 "430k" V 1100 6800 50  0000 C CNN
F 2 "Resistor_SMD:R_0603_1608Metric" V 1090 6590 50  0001 C CNN
F 3 "~" H 1050 6600 50  0001 C CNN
	1    1050 6600
	0    1    1    0   
$EndComp
Wire Wire Line
	900  6600 800  6600
Wire Wire Line
	800  6600 800  6450
Connection ~ 800  6450
Wire Wire Line
	800  6450 850  6450
Wire Wire Line
	1200 6600 1500 6600
Wire Wire Line
	1500 6600 1500 6450
Wire Wire Line
	1500 6350 1450 6350
Connection ~ 1500 6600
Wire Wire Line
	800  6750 800  6600
Connection ~ 800  6600
$Comp
L Device:D_Zener D2
U 1 1 5DDA664A
P 1350 6750
F 0 "D2" H 1500 6800 50  0000 C CNN
F 1 "6.2V" H 1350 6850 50  0000 C CNN
F 2 "Diode_SMD:D_SOT-23_ANK" H 1350 6750 50  0001 C CNN
F 3 "~" H 1350 6750 50  0001 C CNN
	1    1350 6750
	-1   0    0    1   
$EndComp
$Comp
L Device:Opamp_Quad_Generic U1
U 1 1 5DDD92F4
P 2250 6350
F 0 "U1" H 2350 6600 50  0000 C CNN
F 1 "LF347" H 2350 6500 50  0000 C CNN
F 2 "Package_SO:SOIC-14_3.9x8.7mm_P1.27mm" H 2250 6350 50  0001 C CNN
F 3 "~" H 2250 6350 50  0001 C CNN
	1    2250 6350
	1    0    0    -1  
$EndComp
$Comp
L Device:R_US R16
U 1 1 5DDDC5A5
P 1700 6250
F 0 "R16" V 1750 6100 50  0000 C CNN
F 1 "100k" V 1750 6450 50  0000 C CNN
F 2 "Resistor_SMD:R_0603_1608Metric" V 1740 6240 50  0001 C CNN
F 3 "~" H 1700 6250 50  0001 C CNN
	1    1700 6250
	0    1    1    0   
$EndComp
$Comp
L Device:R_US R17
U 1 1 5DDDD298
P 1700 6450
F 0 "R17" V 1750 6300 50  0000 C CNN
F 1 "100k" V 1800 6450 50  0000 C CNN
F 2 "Resistor_SMD:R_0603_1608Metric" V 1740 6440 50  0001 C CNN
F 3 "~" H 1700 6450 50  0001 C CNN
	1    1700 6450
	0    1    1    0   
$EndComp
Wire Wire Line
	1500 6350 1500 6250
Wire Wire Line
	1500 6250 1550 6250
Connection ~ 1500 6350
Wire Wire Line
	1500 6450 1550 6450
Connection ~ 1500 6450
Wire Wire Line
	1500 6450 1500 6350
Wire Wire Line
	1850 6450 1900 6450
Wire Wire Line
	1850 6250 1900 6250
$Comp
L Device:D_Zener D3
U 1 1 5DE5E374
P 1850 6050
F 0 "D3" V 1750 5900 50  0000 C CNN
F 1 "2.9V" V 1950 5900 50  0000 C CNN
F 2 "Diode_SMD:D_SOT-23_ANK" H 1850 6050 50  0001 C CNN
F 3 "~" H 1850 6050 50  0001 C CNN
	1    1850 6050
	0    1    1    0   
$EndComp
$Comp
L Device:D_Zener D4
U 1 1 5DE5EE9B
P 1950 6050
F 0 "D4" V 2050 6000 50  0000 C CNN
F 1 "2.9V" V 1950 5900 50  0000 C CNN
F 2 "Diode_SMD:D_SOT-23_ANK" H 1950 6050 50  0001 C CNN
F 3 "~" H 1950 6050 50  0001 C CNN
	1    1950 6050
	0    -1   -1   0   
$EndComp
$Comp
L power:GND #PWR06
U 1 1 5DE7BFC9
P 1900 5850
F 0 "#PWR06" H 1900 5600 50  0001 C CNN
F 1 "GND" H 2050 5800 50  0000 C CNN
F 2 "" H 1900 5850 50  0001 C CNN
F 3 "" H 1900 5850 50  0001 C CNN
	1    1900 5850
	-1   0    0    1   
$EndComp
Wire Wire Line
	1850 6200 1900 6200
Wire Wire Line
	1900 6200 1900 6250
Connection ~ 1900 6200
Wire Wire Line
	1900 6200 1950 6200
Connection ~ 1900 6250
Wire Wire Line
	1900 6250 1950 6250
Wire Wire Line
	1850 5900 1900 5900
Wire Wire Line
	1900 5900 1900 5850
Connection ~ 1900 5900
Wire Wire Line
	1900 5900 1950 5900
$Comp
L Device:R_US R21
U 1 1 5DEE88C5
P 2200 6600
F 0 "R21" V 2250 6450 50  0000 C CNN
F 1 "120k" V 2250 6800 50  0000 C CNN
F 2 "Resistor_SMD:R_0603_1608Metric" V 2240 6590 50  0001 C CNN
F 3 "~" H 2200 6600 50  0001 C CNN
	1    2200 6600
	0    1    1    0   
$EndComp
Wire Wire Line
	2050 6600 1900 6600
Wire Wire Line
	1900 6600 1900 6450
Connection ~ 1900 6450
Wire Wire Line
	1900 6450 1950 6450
Wire Wire Line
	2350 6600 2600 6600
Wire Wire Line
	2600 6600 2600 6450
Wire Wire Line
	2600 6350 2550 6350
$Comp
L Device:Opamp_Quad_Generic U1
U 2 1 5DF5A19B
P 3350 6350
F 0 "U1" H 3450 6600 50  0000 C CNN
F 1 "LF347" H 3450 6500 50  0000 C CNN
F 2 "Package_SO:SOIC-14_3.9x8.7mm_P1.27mm" H 3350 6350 50  0001 C CNN
F 3 "~" H 3350 6350 50  0001 C CNN
	2    3350 6350
	1    0    0    -1  
$EndComp
$Comp
L Device:R_US R26
U 1 1 5DF5A1A5
P 2800 6250
F 0 "R26" V 2850 6100 50  0000 C CNN
F 1 "100k" V 2850 6450 50  0000 C CNN
F 2 "Resistor_SMD:R_0603_1608Metric" V 2840 6240 50  0001 C CNN
F 3 "~" H 2800 6250 50  0001 C CNN
	1    2800 6250
	0    1    1    0   
$EndComp
$Comp
L Device:R_US R27
U 1 1 5DF5A1AF
P 2800 6450
F 0 "R27" V 2850 6300 50  0000 C CNN
F 1 "100k" V 2900 6450 50  0000 C CNN
F 2 "Resistor_SMD:R_0603_1608Metric" V 2840 6440 50  0001 C CNN
F 3 "~" H 2800 6450 50  0001 C CNN
	1    2800 6450
	0    1    1    0   
$EndComp
Wire Wire Line
	2950 6450 3000 6450
Wire Wire Line
	2950 6250 3000 6250
$Comp
L Device:D_Zener D5
U 1 1 5DF5A1BB
P 2950 6050
F 0 "D5" V 2850 5900 50  0000 C CNN
F 1 "2.9V" V 3050 5900 50  0000 C CNN
F 2 "Diode_SMD:D_SOT-23_ANK" H 2950 6050 50  0001 C CNN
F 3 "~" H 2950 6050 50  0001 C CNN
	1    2950 6050
	0    1    1    0   
$EndComp
$Comp
L Device:D_Zener D6
U 1 1 5DF5A1C5
P 3050 6050
F 0 "D6" V 3150 6000 50  0000 C CNN
F 1 "2.9V" V 3050 5900 50  0000 C CNN
F 2 "Diode_SMD:D_SOT-23_ANK" H 3050 6050 50  0001 C CNN
F 3 "~" H 3050 6050 50  0001 C CNN
	1    3050 6050
	0    -1   -1   0   
$EndComp
$Comp
L power:GND #PWR015
U 1 1 5DF5A1CF
P 3000 5850
F 0 "#PWR015" H 3000 5600 50  0001 C CNN
F 1 "GND" H 3150 5800 50  0000 C CNN
F 2 "" H 3000 5850 50  0001 C CNN
F 3 "" H 3000 5850 50  0001 C CNN
	1    3000 5850
	-1   0    0    1   
$EndComp
Wire Wire Line
	2950 6200 3000 6200
Wire Wire Line
	3000 6200 3000 6250
Connection ~ 3000 6200
Wire Wire Line
	3000 6200 3050 6200
Connection ~ 3000 6250
Wire Wire Line
	3000 6250 3050 6250
Wire Wire Line
	2950 5900 3000 5900
Wire Wire Line
	3000 5900 3000 5850
Connection ~ 3000 5900
Wire Wire Line
	3000 5900 3050 5900
$Comp
L Device:R_US R28
U 1 1 5DF5A1E3
P 3300 6600
F 0 "R28" V 3350 6450 50  0000 C CNN
F 1 "120k" V 3350 6800 50  0000 C CNN
F 2 "Resistor_SMD:R_0603_1608Metric" V 3340 6590 50  0001 C CNN
F 3 "~" H 3300 6600 50  0001 C CNN
	1    3300 6600
	0    1    1    0   
$EndComp
Wire Wire Line
	3150 6600 3000 6600
Wire Wire Line
	3000 6600 3000 6450
Connection ~ 3000 6450
Wire Wire Line
	3000 6450 3050 6450
Wire Wire Line
	3450 6600 3700 6600
Wire Wire Line
	3700 6600 3700 6400
Wire Wire Line
	3700 6350 3650 6350
Wire Wire Line
	2650 6250 2600 6250
Wire Wire Line
	2600 6250 2600 6350
Connection ~ 2600 6350
Wire Wire Line
	2600 6450 2650 6450
Connection ~ 2600 6450
Wire Wire Line
	2600 6450 2600 6350
Wire Wire Line
	4300 5400 4350 5400
$Comp
L Device:Opamp_Quad_Generic U1
U 3 1 5E074EDF
P 4450 6300
F 0 "U1" H 4550 6550 50  0000 C CNN
F 1 "LF347" H 4550 6450 50  0000 C CNN
F 2 "Package_SO:SOIC-14_3.9x8.7mm_P1.27mm" H 4450 6300 50  0001 C CNN
F 3 "~" H 4450 6300 50  0001 C CNN
	3    4450 6300
	1    0    0    -1  
$EndComp
$Comp
L Device:R_US R32
U 1 1 5E074EE9
P 3900 6200
F 0 "R32" V 3950 6050 50  0000 C CNN
F 1 "100k" V 3950 6400 50  0000 C CNN
F 2 "Resistor_SMD:R_0603_1608Metric" V 3940 6190 50  0001 C CNN
F 3 "~" H 3900 6200 50  0001 C CNN
	1    3900 6200
	0    1    1    0   
$EndComp
$Comp
L Device:R_US R33
U 1 1 5E074EF3
P 3900 6400
F 0 "R33" V 3950 6250 50  0000 C CNN
F 1 "100k" V 4000 6400 50  0000 C CNN
F 2 "Resistor_SMD:R_0603_1608Metric" V 3940 6390 50  0001 C CNN
F 3 "~" H 3900 6400 50  0001 C CNN
	1    3900 6400
	0    1    1    0   
$EndComp
Wire Wire Line
	4050 6400 4100 6400
Wire Wire Line
	4050 6200 4100 6200
$Comp
L Device:D_Zener D7
U 1 1 5E074EFF
P 4050 6000
F 0 "D7" V 3950 5850 50  0000 C CNN
F 1 "2.9V" V 4150 5850 50  0000 C CNN
F 2 "Diode_SMD:D_SOT-23_ANK" H 4050 6000 50  0001 C CNN
F 3 "~" H 4050 6000 50  0001 C CNN
	1    4050 6000
	0    1    1    0   
$EndComp
$Comp
L Device:D_Zener D8
U 1 1 5E074F09
P 4150 6000
F 0 "D8" V 4250 5950 50  0000 C CNN
F 1 "2.9V" V 4150 5850 50  0000 C CNN
F 2 "Diode_SMD:D_SOT-23_ANK" H 4150 6000 50  0001 C CNN
F 3 "~" H 4150 6000 50  0001 C CNN
	1    4150 6000
	0    -1   -1   0   
$EndComp
$Comp
L power:GND #PWR021
U 1 1 5E074F13
P 4100 5800
F 0 "#PWR021" H 4100 5550 50  0001 C CNN
F 1 "GND" H 4250 5750 50  0000 C CNN
F 2 "" H 4100 5800 50  0001 C CNN
F 3 "" H 4100 5800 50  0001 C CNN
	1    4100 5800
	-1   0    0    1   
$EndComp
Wire Wire Line
	4050 6150 4100 6150
Wire Wire Line
	4100 6150 4100 6200
Connection ~ 4100 6150
Wire Wire Line
	4100 6150 4150 6150
Connection ~ 4100 6200
Wire Wire Line
	4100 6200 4150 6200
Wire Wire Line
	4050 5850 4100 5850
Wire Wire Line
	4100 5850 4100 5800
Connection ~ 4100 5850
Wire Wire Line
	4100 5850 4150 5850
$Comp
L Device:R_US R36
U 1 1 5E074F27
P 4400 6550
F 0 "R36" V 4450 6400 50  0000 C CNN
F 1 "120k" V 4450 6750 50  0000 C CNN
F 2 "Resistor_SMD:R_0603_1608Metric" V 4440 6540 50  0001 C CNN
F 3 "~" H 4400 6550 50  0001 C CNN
	1    4400 6550
	0    1    1    0   
$EndComp
Wire Wire Line
	4250 6550 4100 6550
Wire Wire Line
	4100 6550 4100 6400
Connection ~ 4100 6400
Wire Wire Line
	4100 6400 4150 6400
Wire Wire Line
	4550 6550 4800 6550
Wire Wire Line
	4800 6550 4800 6300
Wire Wire Line
	4800 6300 4750 6300
Wire Wire Line
	3700 6400 3750 6400
Connection ~ 3700 6400
Wire Wire Line
	3700 6400 3700 6350
Wire Wire Line
	3700 6350 3700 6200
Wire Wire Line
	3700 6200 3750 6200
Connection ~ 3700 6350
$Comp
L Device:R_US R37
U 1 1 5E0E6629
P 5000 6300
F 0 "R37" V 5050 6150 50  0000 C CNN
F 1 "100k" V 5100 6300 50  0000 C CNN
F 2 "Resistor_SMD:R_0603_1608Metric" V 5040 6290 50  0001 C CNN
F 3 "~" H 5000 6300 50  0001 C CNN
	1    5000 6300
	0    1    1    0   
$EndComp
Wire Wire Line
	4800 6300 4850 6300
Connection ~ 4800 6300
$Comp
L Device:D_Zener D9
U 1 1 5E10B494
P 5200 6450
F 0 "D9" V 5250 6300 50  0000 C CNN
F 1 "2.9V" V 5350 6300 50  0000 C CNN
F 2 "Diode_SMD:D_SOT-23_ANK" H 5200 6450 50  0001 C CNN
F 3 "~" H 5200 6450 50  0001 C CNN
	1    5200 6450
	0    1    1    0   
$EndComp
Wire Wire Line
	5150 6300 5200 6300
$Comp
L Device:D_Zener D10
U 1 1 5E130D54
P 5300 6450
F 0 "D10" V 5250 6350 50  0000 C CNN
F 1 "2.9V" V 5150 6300 50  0000 C CNN
F 2 "Diode_SMD:D_SOT-23_ANK" H 5300 6450 50  0001 C CNN
F 3 "~" H 5300 6450 50  0001 C CNN
	1    5300 6450
	0    -1   -1   0   
$EndComp
Wire Wire Line
	5200 6300 5300 6300
Connection ~ 5200 6300
Wire Wire Line
	5200 6600 5250 6600
$Comp
L power:GND #PWR026
U 1 1 5E17C185
P 5250 6650
F 0 "#PWR026" H 5250 6400 50  0001 C CNN
F 1 "GND" H 5400 6600 50  0000 C CNN
F 2 "" H 5250 6650 50  0001 C CNN
F 3 "" H 5250 6650 50  0001 C CNN
	1    5250 6650
	1    0    0    -1  
$EndComp
Wire Wire Line
	5250 6600 5250 6650
Connection ~ 5250 6600
Wire Wire Line
	5250 6600 5300 6600
$Comp
L Device:Opamp_Quad_Generic U7
U 4 1 5E1A1F8E
P 5850 6400
F 0 "U7" H 5950 6650 50  0000 C CNN
F 1 "LF347" H 5950 6550 50  0000 C CNN
F 2 "Package_SO:SOIC-14_3.9x8.7mm_P1.27mm" H 5850 6400 50  0001 C CNN
F 3 "~" H 5850 6400 50  0001 C CNN
	4    5850 6400
	1    0    0    -1  
$EndComp
Wire Wire Line
	5300 6300 5550 6300
Connection ~ 5300 6300
Wire Wire Line
	5550 6500 5550 6650
$Comp
L Device:R_US R38
U 1 1 5E1F0945
P 5550 6850
F 0 "R38" H 5450 6850 50  0000 C CNN
F 1 "100k" H 5400 6950 50  0000 C CNN
F 2 "Resistor_SMD:R_0603_1608Metric" V 5590 6840 50  0001 C CNN
F 3 "~" H 5550 6850 50  0001 C CNN
	1    5550 6850
	-1   0    0    1   
$EndComp
$Comp
L power:GND #PWR027
U 1 1 5E216AA4
P 5550 7050
F 0 "#PWR027" H 5550 6800 50  0001 C CNN
F 1 "GND" H 5700 7000 50  0000 C CNN
F 2 "" H 5550 7050 50  0001 C CNN
F 3 "" H 5550 7050 50  0001 C CNN
	1    5550 7050
	1    0    0    -1  
$EndComp
Wire Wire Line
	5550 7000 5550 7050
$Comp
L Device:R_US R42
U 1 1 5E263DE2
P 5800 6650
F 0 "R42" V 5850 6550 50  0000 C CNN
F 1 "390k" V 5700 6500 50  0000 C CNN
F 2 "Resistor_SMD:R_0603_1608Metric" V 5840 6640 50  0001 C CNN
F 3 "~" H 5800 6650 50  0001 C CNN
	1    5800 6650
	0    -1   -1   0   
$EndComp
Wire Wire Line
	5650 6650 5550 6650
Connection ~ 5550 6650
Wire Wire Line
	5550 6650 5550 6700
Wire Wire Line
	5950 6650 6200 6650
Wire Wire Line
	6200 6650 6200 6400
Wire Wire Line
	6200 6400 6150 6400
$Comp
L Device:R_US R46
U 1 1 5E2B2EEB
P 6400 6400
F 0 "R46" V 6500 6350 50  0000 C CNN
F 1 "180k" V 6300 6400 50  0000 C CNN
F 2 "Resistor_SMD:R_0603_1608Metric" V 6440 6390 50  0001 C CNN
F 3 "~" H 6400 6400 50  0001 C CNN
	1    6400 6400
	0    -1   -1   0   
$EndComp
Wire Wire Line
	6200 6400 6250 6400
Connection ~ 6200 6400
Wire Wire Line
	6550 6400 6650 6400
Text Label 6650 6400 0    50   ~ 0
OUT
$Comp
L power:-5V #PWR?
U 1 1 5E4FD643
P 8650 6300
AR Path="/5E4FD643" Ref="#PWR?"  Part="1" 
AR Path="/5DB5BADF/5E4FD643" Ref="#PWR?"  Part="1" 
AR Path="/5DAB9CF3/5E4FD643" Ref="#PWR042"  Part="1" 
F 0 "#PWR042" H 8650 6400 50  0001 C CNN
F 1 "-5V" H 8800 6400 50  0000 C CNN
F 2 "" H 8650 6300 50  0001 C CNN
F 3 "" H 8650 6300 50  0001 C CNN
	1    8650 6300
	-1   0    0    1   
$EndComp
Wire Wire Line
	8650 6250 8650 6300
$Comp
L power:GND #PWR040
U 1 1 5E4FD64E
P 8450 5950
F 0 "#PWR040" H 8450 5700 50  0001 C CNN
F 1 "GND" V 8500 5800 50  0000 C CNN
F 2 "" H 8450 5950 50  0001 C CNN
F 3 "" H 8450 5950 50  0001 C CNN
	1    8450 5950
	0    1    1    0   
$EndComp
$Comp
L Device:C C26
U 1 1 5E4FD658
P 8500 6150
F 0 "C26" H 8400 6250 50  0000 L CNN
F 1 "0.1uF" H 8350 6050 50  0000 L CNN
F 2 "Capacitor_SMD:C_0603_1608Metric" H 8538 6000 50  0001 C CNN
F 3 "~" H 8500 6150 50  0001 C CNN
	1    8500 6150
	1    0    0    -1  
$EndComp
Wire Wire Line
	8500 5950 8450 5950
Wire Wire Line
	8500 5950 8500 6000
Wire Wire Line
	8500 6300 8650 6300
Connection ~ 8650 6300
Connection ~ 8500 5950
Connection ~ 8650 5650
Wire Wire Line
	8500 5650 8650 5650
$Comp
L Device:C C25
U 1 1 5E4FD669
P 8500 5800
F 0 "C25" H 8350 5950 50  0000 L CNN
F 1 "0.1uF" H 8300 5900 50  0000 L CNN
F 2 "Capacitor_SMD:C_0603_1608Metric" H 8538 5650 50  0001 C CNN
F 3 "~" H 8500 5800 50  0001 C CNN
	1    8500 5800
	1    0    0    -1  
$EndComp
Wire Wire Line
	8650 5600 8650 5650
$Comp
L power:+12V #PWR?
U 1 1 5E4FD674
P 8650 5600
AR Path="/5E4FD674" Ref="#PWR?"  Part="1" 
AR Path="/5DB5BADF/5E4FD674" Ref="#PWR?"  Part="1" 
AR Path="/5DAB9CF3/5E4FD674" Ref="#PWR041"  Part="1" 
F 0 "#PWR041" H 8650 5450 50  0001 C CNN
F 1 "+12V" H 8665 5773 50  0000 C CNN
F 2 "" H 8650 5600 50  0001 C CNN
F 3 "" H 8650 5600 50  0001 C CNN
	1    8650 5600
	1    0    0    -1  
$EndComp
$Comp
L Device:Opamp_Quad_Generic U?
U 5 1 5E4FD67E
P 8750 5950
AR Path="/5DB5BADF/5E4FD67E" Ref="U?"  Part="5" 
AR Path="/5DAB9CF3/5E4FD67E" Ref="U1"  Part="5" 
F 0 "U1" H 8600 5950 50  0000 L CNN
F 1 "LF347" H 8500 5400 50  0000 L CNN
F 2 "Package_SO:SOIC-14_3.9x8.7mm_P1.27mm" H 8750 5950 50  0001 C CNN
F 3 "~" H 8750 5950 50  0001 C CNN
	5    8750 5950
	1    0    0    -1  
$EndComp
Wire Wire Line
	1500 6600 1500 6750
Wire Wire Line
	850  6750 800  6750
$Comp
L Device:D_Zener D1
U 1 1 5DD766B1
P 1000 6750
F 0 "D1" H 850 6700 50  0000 C CNN
F 1 "6.2V" H 1000 6650 50  0000 C CNN
F 2 "Diode_SMD:D_SOT-23_ANK" H 1000 6750 50  0001 C CNN
F 3 "~" H 1000 6750 50  0001 C CNN
	1    1000 6750
	1    0    0    -1  
$EndComp
Wire Wire Line
	1150 6750 1200 6750
Entry Wire Line
	2100 7850 2200 7950
Wire Wire Line
	2200 7950 2500 7950
Text Label 2200 7950 0    50   ~ 0
gpio8
Text Label 2500 7950 0    50   ~ 0
WAVE_SHAPER2
NoConn ~ 8450 4900
$Comp
L Device:R_US R52
U 1 1 5F7AEEA5
P 7300 1050
F 0 "R52" H 7368 1096 50  0000 L CNN
F 1 "470" H 7368 1005 50  0000 L CNN
F 2 "Resistor_SMD:R_0603_1608Metric" V 7340 1040 50  0001 C CNN
F 3 "~" H 7300 1050 50  0001 C CNN
	1    7300 1050
	-1   0    0    1   
$EndComp
Wire Bus Line
	2100 7000 2100 7850
Wire Bus Line
	750  7150 750  7900
$EndSCHEMATC
