EESchema Schematic File Version 4
EELAYER 30 0
EELAYER END
$Descr USLetter 11000 8500
encoding utf-8
Sheet 4 4
Title ""
Date ""
Rev ""
Comp ""
Comment1 ""
Comment2 ""
Comment3 ""
Comment4 ""
$EndDescr
$Comp
L MCU_ST_STM32F3:STM32F303RETx U21
U 1 1 5DE16F9A
P 2350 3050
F 0 "U21" H 2350 2000 50  0000 C CNN
F 1 "STM32F303RETx" H 2350 1900 50  0000 C CNN
F 2 "Package_QFP:LQFP-64_10x10mm_P0.5mm" H 1750 1350 50  0001 R CNN
F 3 "http://www.st.com/st-web-ui/static/active/en/resource/technical/document/datasheet/DM00118585.pdf" H 2350 3050 50  0001 C CNN
	1    2350 3050
	1    0    0    -1  
$EndComp
$Comp
L Connector_Generic:Conn_01x06 J2
U 1 1 5DE1EBFD
P 6050 7600
F 0 "J2" H 6150 7800 50  0000 L CNN
F 1 "Conn_01x06" V 6150 7300 50  0000 L CNN
F 2 "Connector_PinHeader_2.54mm:PinHeader_2x03_P2.54mm_Vertical" H 6050 7600 50  0001 C CNN
F 3 "~" H 6050 7600 50  0001 C CNN
	1    6050 7600
	1    0    0    -1  
$EndComp
Wire Wire Line
	3050 2850 3450 2850
Text Label 3450 2850 0    50   ~ 0
SWCLK
Wire Wire Line
	5850 7500 5650 7500
Text Label 5650 7500 0    50   ~ 0
SWCLK
$Comp
L power:GND #PWR0143
U 1 1 5DE20FB9
P 5800 7600
F 0 "#PWR0143" H 5800 7350 50  0001 C CNN
F 1 "GND" V 5750 7500 50  0000 R CNN
F 2 "" H 5800 7600 50  0001 C CNN
F 3 "" H 5800 7600 50  0001 C CNN
	1    5800 7600
	0    1    1    0   
$EndComp
Wire Wire Line
	5800 7600 5850 7600
Wire Wire Line
	3050 2750 3450 2750
Text Label 3450 2750 0    50   ~ 0
SWDIO
Wire Wire Line
	5850 7700 5650 7700
Text Label 5650 7700 2    50   ~ 0
SWDIO
Text Label 5650 7800 2    50   ~ 0
NRST
Wire Wire Line
	3050 3450 3450 3450
Text Label 3450 3450 0    50   ~ 0
SWO
Wire Wire Line
	5850 7900 5650 7900
Text Label 5650 7900 2    50   ~ 0
SWO
NoConn ~ 5850 7400
$Comp
L power:+3.3V #PWR0114
U 1 1 5DE26CF5
P 2350 1150
F 0 "#PWR0114" H 2350 1000 50  0001 C CNN
F 1 "+3.3V" H 2365 1323 50  0000 C CNN
F 2 "" H 2350 1150 50  0001 C CNN
F 3 "" H 2350 1150 50  0001 C CNN
	1    2350 1150
	1    0    0    -1  
$EndComp
Wire Wire Line
	2150 1250 2150 1200
Wire Wire Line
	2150 1200 2250 1200
Wire Wire Line
	2650 1200 2650 1250
Wire Wire Line
	2550 1250 2550 1200
Wire Wire Line
	2450 1250 2450 1200
Connection ~ 2450 1200
Wire Wire Line
	2450 1200 2550 1200
Wire Wire Line
	2350 1250 2350 1200
Connection ~ 2350 1200
Wire Wire Line
	2350 1200 2450 1200
Wire Wire Line
	2250 1250 2250 1200
Connection ~ 2250 1200
Wire Wire Line
	2250 1200 2350 1200
Wire Wire Line
	2350 1200 2350 1150
$Comp
L power:GND #PWR0115
U 1 1 5DE29B47
P 2350 4950
F 0 "#PWR0115" H 2350 4700 50  0001 C CNN
F 1 "GND" H 2355 4777 50  0000 C CNN
F 2 "" H 2350 4950 50  0001 C CNN
F 3 "" H 2350 4950 50  0001 C CNN
	1    2350 4950
	1    0    0    -1  
$EndComp
Wire Wire Line
	2150 4850 2150 4900
Wire Wire Line
	2150 4900 2250 4900
Wire Wire Line
	2550 4900 2550 4850
Wire Wire Line
	2450 4850 2450 4900
Connection ~ 2450 4900
Wire Wire Line
	2450 4900 2550 4900
Wire Wire Line
	2350 4850 2350 4900
Connection ~ 2350 4900
Wire Wire Line
	2350 4900 2450 4900
Wire Wire Line
	2350 4900 2350 4950
Wire Wire Line
	2250 4850 2250 4900
Connection ~ 2250 4900
Wire Wire Line
	2250 4900 2350 4900
$Comp
L Device:Crystal Y1
U 1 1 5DE2CD51
P 1300 2700
F 0 "Y1" V 1254 2831 50  0000 L CNN
F 1 "8Mhz" V 1450 2750 50  0000 L CNN
F 2 "Crystal:Crystal_SMD_HC49-SD" H 1300 2700 50  0001 C CNN
F 3 "~" H 1300 2700 50  0001 C CNN
	1    1300 2700
	0    1    1    0   
$EndComp
$Comp
L Device:C C66
U 1 1 5DE2D8DC
P 1100 2450
F 0 "C66" V 848 2450 50  0000 C CNN
F 1 "18pF" V 939 2450 50  0000 C CNN
F 2 "Capacitor_SMD:C_0603_1608Metric" H 1138 2300 50  0001 C CNN
F 3 "~" H 1100 2450 50  0001 C CNN
	1    1100 2450
	0    1    1    0   
$EndComp
$Comp
L Device:C C67
U 1 1 5DE2DD24
P 1100 2950
F 0 "C67" V 848 2950 50  0000 C CNN
F 1 "18pF" V 939 2950 50  0000 C CNN
F 2 "Capacitor_SMD:C_0603_1608Metric" H 1138 2800 50  0001 C CNN
F 3 "~" H 1100 2950 50  0001 C CNN
	1    1100 2950
	0    1    1    0   
$EndComp
Wire Wire Line
	1300 2850 1300 2900
Wire Wire Line
	1300 2950 1250 2950
Wire Wire Line
	1300 2550 1300 2500
Wire Wire Line
	1300 2450 1250 2450
Wire Wire Line
	1300 2500 1550 2500
Wire Wire Line
	1550 2500 1550 2650
Wire Wire Line
	1550 2650 1650 2650
Connection ~ 1300 2500
Wire Wire Line
	1300 2500 1300 2450
Wire Wire Line
	1650 2750 1550 2750
Wire Wire Line
	1550 2750 1550 2900
Wire Wire Line
	1550 2900 1300 2900
Connection ~ 1300 2900
Wire Wire Line
	1300 2900 1300 2950
$Comp
L power:GND #PWR0112
U 1 1 5DE34B88
P 900 2700
F 0 "#PWR0112" H 900 2450 50  0001 C CNN
F 1 "GND" V 905 2572 50  0000 R CNN
F 2 "" H 900 2700 50  0001 C CNN
F 3 "" H 900 2700 50  0001 C CNN
	1    900  2700
	0    1    1    0   
$EndComp
Wire Wire Line
	950  2450 950  2700
Wire Wire Line
	950  2700 900  2700
Wire Wire Line
	950  2700 950  2950
Connection ~ 950  2700
Wire Wire Line
	1600 1650 1650 1650
$Comp
L power:+3.3V #PWR0125
U 1 1 5DE3CB14
P 3500 7300
F 0 "#PWR0125" H 3500 7150 50  0001 C CNN
F 1 "+3.3V" H 3515 7473 50  0000 C CNN
F 2 "" H 3500 7300 50  0001 C CNN
F 3 "" H 3500 7300 50  0001 C CNN
	1    3500 7300
	1    0    0    -1  
$EndComp
$Comp
L power:GND #PWR0126
U 1 1 5DE3CFC6
P 3500 7800
F 0 "#PWR0126" H 3500 7550 50  0001 C CNN
F 1 "GND" H 3505 7627 50  0000 C CNN
F 2 "" H 3500 7800 50  0001 C CNN
F 3 "" H 3500 7800 50  0001 C CNN
	1    3500 7800
	1    0    0    -1  
$EndComp
$Comp
L Device:C C73
U 1 1 5DE3FA66
P 3600 7550
F 0 "C73" H 3600 7450 50  0000 R CNN
F 1 "0.1uF" H 3600 7650 50  0000 R CNN
F 2 "Capacitor_SMD:C_0603_1608Metric" H 3638 7400 50  0001 C CNN
F 3 "~" H 3600 7550 50  0001 C CNN
	1    3600 7550
	-1   0    0    1   
$EndComp
$Comp
L Device:C C75
U 1 1 5DE40D09
P 3850 7550
F 0 "C75" H 3850 7450 50  0000 R CNN
F 1 "0.1uF" H 3850 7650 50  0000 R CNN
F 2 "Capacitor_SMD:C_0603_1608Metric" H 3888 7400 50  0001 C CNN
F 3 "~" H 3850 7550 50  0001 C CNN
	1    3850 7550
	-1   0    0    1   
$EndComp
Wire Wire Line
	3850 7750 3850 7700
Wire Wire Line
	3600 7700 3600 7750
Connection ~ 3600 7750
Wire Wire Line
	3600 7750 3850 7750
Wire Wire Line
	3500 7750 3500 7800
Wire Wire Line
	3500 7750 3600 7750
Wire Wire Line
	3850 7350 3850 7400
Wire Wire Line
	3600 7350 3600 7400
Connection ~ 3600 7350
Wire Wire Line
	3600 7350 3850 7350
Wire Wire Line
	3500 7350 3500 7300
Wire Wire Line
	3500 7350 3600 7350
$Comp
L local:dac8554 U27
U 1 1 5DE5EB98
P 9650 1500
F 0 "U27" H 9675 2325 50  0000 C CNN
F 1 "dac8554" H 9675 2234 50  0000 C CNN
F 2 "Package_SO:TSSOP-16_4.4x5mm_P0.65mm" H 9850 1300 50  0001 C CNN
F 3 "" H 9850 1300 50  0001 C CNN
	1    9650 1500
	1    0    0    -1  
$EndComp
Text HLabel 1100 6650 2    50   Output ~ 0
dac[0..12]
Text Label 950  6650 2    50   ~ 0
dac[0..12]
Entry Wire Line
	950  6700 850  6800
Entry Wire Line
	950  6800 850  6900
Entry Wire Line
	950  6900 850  7000
Entry Wire Line
	950  7000 850  7100
Entry Wire Line
	950  7100 850  7200
Text Label 800  6800 2    50   ~ 0
dac0
Wire Wire Line
	850  6800 800  6800
Wire Wire Line
	850  6900 800  6900
Text Label 800  6900 2    50   ~ 0
dac1
Wire Wire Line
	850  7000 800  7000
Wire Wire Line
	850  7100 800  7100
Wire Wire Line
	850  7200 800  7200
Text Label 800  7000 2    50   ~ 0
dac2
Text Label 800  7100 2    50   ~ 0
dac3
Text Label 800  7200 2    50   ~ 0
dac4
Entry Wire Line
	950  7200 850  7300
Wire Wire Line
	850  7300 800  7300
Entry Wire Line
	950  7700 850  7800
Wire Wire Line
	850  7800 800  7800
Text Label 800  7300 2    50   ~ 0
dac5
Text Label 800  7900 2    50   ~ 0
dac11
Entry Wire Line
	950  7800 850  7900
Wire Wire Line
	850  7900 800  7900
Text Label 800  7800 2    50   ~ 0
dac10
Wire Bus Line
	950  6650 1100 6650
Entry Wire Line
	950  7300 850  7400
Entry Wire Line
	950  7400 850  7500
Entry Wire Line
	950  7500 850  7600
Entry Wire Line
	950  7600 850  7700
Wire Wire Line
	850  7400 800  7400
Wire Wire Line
	850  7500 800  7500
Wire Wire Line
	850  7600 800  7600
Wire Wire Line
	850  7700 800  7700
Text Label 800  7400 2    50   ~ 0
dac6
Text Label 800  7500 2    50   ~ 0
dac7
Text Label 800  7600 2    50   ~ 0
dac8
Text Label 800  7700 2    50   ~ 0
dac9
Wire Wire Line
	10150 1350 10250 1350
Text Label 10250 1350 0    50   ~ 0
dac0
Wire Wire Line
	10150 1450 10250 1450
Text Label 10250 1450 0    50   ~ 0
dac3
Wire Wire Line
	10150 1550 10250 1550
Text Label 10250 1550 0    50   ~ 0
dac7
Wire Wire Line
	10150 1650 10250 1650
Text Label 10250 1650 0    50   ~ 0
dac8
$Comp
L power:GND #PWR0152
U 1 1 5DEA5EE4
P 9150 1100
F 0 "#PWR0152" H 9150 850 50  0001 C CNN
F 1 "GND" V 9100 1000 50  0000 R CNN
F 2 "" H 9150 1100 50  0001 C CNN
F 3 "" H 9150 1100 50  0001 C CNN
	1    9150 1100
	0    1    1    0   
$EndComp
Wire Wire Line
	9150 1100 9200 1100
$Comp
L power:+3.3V #PWR0151
U 1 1 5DEA835F
P 9150 850
F 0 "#PWR0151" H 9150 700 50  0001 C CNN
F 1 "+3.3V" H 9165 1023 50  0000 C CNN
F 2 "" H 9150 850 50  0001 C CNN
F 3 "" H 9150 850 50  0001 C CNN
	1    9150 850 
	1    0    0    -1  
$EndComp
Wire Wire Line
	9150 850  9150 900 
Wire Wire Line
	9150 900  9200 900 
Wire Wire Line
	9150 900  9150 1000
Wire Wire Line
	9150 1000 9200 1000
Connection ~ 9150 900 
Wire Wire Line
	9150 1350 9200 1350
$Comp
L power:GND #PWR0153
U 1 1 5DEAD214
P 9150 1350
F 0 "#PWR0153" H 9150 1100 50  0001 C CNN
F 1 "GND" V 9100 1250 50  0000 R CNN
F 2 "" H 9150 1350 50  0001 C CNN
F 3 "" H 9150 1350 50  0001 C CNN
	1    9150 1350
	0    1    1    0   
$EndComp
$Comp
L Reference_Voltage:LM4040DBZ-3 U26
U 1 1 5DEB56F1
P 8800 1450
F 0 "U26" V 8846 1362 50  0000 R CNN
F 1 "LM4040DBZ-3.3" H 9000 1600 50  0000 R CNN
F 2 "Package_TO_SOT_SMD:SOT-23" H 8800 1250 50  0001 C CIN
F 3 "http://www.ti.com/lit/ds/symlink/lm4040-n.pdf" H 8800 1450 50  0001 C CIN
	1    8800 1450
	0    -1   -1   0   
$EndComp
$Comp
L Device:R_US R107
U 1 1 5DEBAD86
P 8800 1050
F 0 "R107" H 8650 1100 50  0000 L CNN
F 1 "18k" H 8600 1000 50  0000 L CNN
F 2 "Resistor_SMD:R_0603_1608Metric" V 8840 1040 50  0001 C CNN
F 3 "~" H 8800 1050 50  0001 C CNN
	1    8800 1050
	1    0    0    -1  
$EndComp
$Comp
L power:GND #PWR0149
U 1 1 5DEBB342
P 8800 1700
F 0 "#PWR0149" H 8800 1450 50  0001 C CNN
F 1 "GND" H 9050 1650 50  0000 R CNN
F 2 "" H 8800 1700 50  0001 C CNN
F 3 "" H 8800 1700 50  0001 C CNN
	1    8800 1700
	1    0    0    -1  
$EndComp
Wire Wire Line
	8800 1600 8800 1650
$Comp
L power:+12V #PWR0148
U 1 1 5DEBE0E7
P 8800 800
F 0 "#PWR0148" H 8800 650 50  0001 C CNN
F 1 "+12V" H 8815 973 50  0000 C CNN
F 2 "" H 8800 800 50  0001 C CNN
F 3 "" H 8800 800 50  0001 C CNN
	1    8800 800 
	1    0    0    -1  
$EndComp
Wire Wire Line
	8800 800  8800 900 
Wire Wire Line
	9200 1250 8800 1250
Wire Wire Line
	8800 1200 8800 1250
Wire Wire Line
	8800 1250 8800 1300
Connection ~ 8800 1250
$Comp
L power:GND #PWR0150
U 1 1 5DED149A
P 9100 1500
F 0 "#PWR0150" H 9100 1250 50  0001 C CNN
F 1 "GND" V 9200 1500 50  0000 R CNN
F 2 "" H 9100 1500 50  0001 C CNN
F 3 "" H 9100 1500 50  0001 C CNN
	1    9100 1500
	0    1    1    0   
$EndComp
Wire Wire Line
	9100 1500 9150 1500
Wire Wire Line
	9150 1500 9150 1600
Wire Wire Line
	9150 1600 9200 1600
Connection ~ 9150 1500
Wire Wire Line
	9150 1500 9200 1500
Wire Wire Line
	9150 1600 9150 1700
Wire Wire Line
	9150 1700 9200 1700
Connection ~ 9150 1600
$Comp
L power:GND #PWR0154
U 1 1 5DEDC9C6
P 9150 2150
F 0 "#PWR0154" H 9150 1900 50  0001 C CNN
F 1 "GND" V 9250 2150 50  0000 R CNN
F 2 "" H 9150 2150 50  0001 C CNN
F 3 "" H 9150 2150 50  0001 C CNN
	1    9150 2150
	0    1    1    0   
$EndComp
Wire Wire Line
	9150 2150 9200 2150
Wire Wire Line
	3050 4350 3250 4350
Text Label 3250 4350 0    50   ~ 0
DAC_nSYNC
Wire Wire Line
	9200 1850 9150 1850
Text Label 9150 1850 2    50   ~ 0
DAC_nSYNC
Wire Wire Line
	9200 1950 9150 1950
Text Label 9150 1950 2    50   ~ 0
DAC_SCLK
Wire Wire Line
	3050 4450 3250 4450
Text Label 3250 4450 0    50   ~ 0
DAC_SCLK
Wire Wire Line
	9200 2050 9150 2050
Text Label 9150 2050 2    50   ~ 0
DAC_MOSI
Wire Wire Line
	3050 4650 3250 4650
Text Label 3250 4650 0    50   ~ 0
DAC_MOSI
Connection ~ 3500 7350
Connection ~ 3500 7750
Wire Wire Line
	3350 7350 3500 7350
Connection ~ 3350 7350
Wire Wire Line
	3350 7350 3350 7400
Wire Wire Line
	3100 7350 3350 7350
Wire Wire Line
	3100 7400 3100 7350
Wire Wire Line
	3350 7750 3500 7750
Connection ~ 3350 7750
Wire Wire Line
	3350 7700 3350 7750
Wire Wire Line
	3100 7750 3350 7750
Wire Wire Line
	3100 7700 3100 7750
$Comp
L Device:C C72
U 1 1 5DE3DA73
P 3350 7550
F 0 "C72" H 3350 7450 50  0000 R CNN
F 1 "0.1uF" H 3350 7650 50  0000 R CNN
F 2 "Capacitor_SMD:C_0603_1608Metric" H 3388 7400 50  0001 C CNN
F 3 "~" H 3350 7550 50  0001 C CNN
	1    3350 7550
	-1   0    0    1   
$EndComp
$Comp
L Device:C C71
U 1 1 5DE3D46B
P 3100 7550
F 0 "C71" H 3050 7450 50  0000 R CNN
F 1 "0.1uF" H 3100 7650 50  0000 R CNN
F 2 "Capacitor_SMD:C_0603_1608Metric" H 3138 7400 50  0001 C CNN
F 3 "~" H 3100 7550 50  0001 C CNN
	1    3100 7550
	-1   0    0    1   
$EndComp
Wire Wire Line
	2850 7350 2850 7400
Wire Wire Line
	2600 7350 2700 7350
Wire Wire Line
	2600 7400 2600 7350
Wire Wire Line
	2850 7700 2850 7750
Wire Wire Line
	2600 7750 2700 7750
Wire Wire Line
	2600 7700 2600 7750
$Comp
L Device:C C70
U 1 1 5DF04B95
P 2850 7550
F 0 "C70" H 2850 7450 50  0000 R CNN
F 1 "10uF" H 2850 7650 50  0000 R CNN
F 2 "Capacitor_SMD:C_0805_2012Metric" H 2888 7400 50  0001 C CNN
F 3 "~" H 2850 7550 50  0001 C CNN
	1    2850 7550
	-1   0    0    1   
$EndComp
$Comp
L Device:C C68
U 1 1 5DF04B9B
P 2600 7550
F 0 "C68" H 2550 7450 50  0000 R CNN
F 1 "0.1uF" H 2600 7650 50  0000 R CNN
F 2 "Capacitor_SMD:C_0603_1608Metric" H 2638 7400 50  0001 C CNN
F 3 "~" H 2600 7550 50  0001 C CNN
	1    2600 7550
	-1   0    0    1   
$EndComp
$Comp
L power:+3.3V #PWR0118
U 1 1 5DF0F51D
P 2700 7300
F 0 "#PWR0118" H 2700 7150 50  0001 C CNN
F 1 "+3.3V" H 2850 7350 50  0000 C CNN
F 2 "" H 2700 7300 50  0001 C CNN
F 3 "" H 2700 7300 50  0001 C CNN
	1    2700 7300
	1    0    0    -1  
$EndComp
Wire Wire Line
	2700 7300 2700 7350
Connection ~ 2700 7350
Wire Wire Line
	2700 7350 2850 7350
$Comp
L power:GND #PWR0119
U 1 1 5DF1337A
P 2700 7800
F 0 "#PWR0119" H 2700 7550 50  0001 C CNN
F 1 "GND" H 2705 7627 50  0000 C CNN
F 2 "" H 2700 7800 50  0001 C CNN
F 3 "" H 2700 7800 50  0001 C CNN
	1    2700 7800
	1    0    0    -1  
$EndComp
Wire Wire Line
	2700 7800 2700 7750
Connection ~ 2700 7750
Wire Wire Line
	2700 7750 2850 7750
$Comp
L Device:C C89
U 1 1 5DF1744C
P 8500 1450
F 0 "C89" H 8500 1350 50  0000 R CNN
F 1 "1uF" H 8650 1550 50  0000 R CNN
F 2 "Capacitor_SMD:C_0603_1608Metric" H 8538 1300 50  0001 C CNN
F 3 "~" H 8500 1450 50  0001 C CNN
	1    8500 1450
	-1   0    0    1   
$EndComp
Wire Wire Line
	8500 1300 8500 1250
Wire Wire Line
	8500 1250 8800 1250
Wire Wire Line
	8500 1600 8500 1650
Wire Wire Line
	8500 1650 8800 1650
Connection ~ 8800 1650
Wire Wire Line
	8800 1650 8800 1700
Wire Notes Line style solid rgb(132, 0, 0)
	6250 7300 5350 7300
$Comp
L Device:Opamp_Quad_Generic U20
U 1 1 5DF50821
P 7750 3450
F 0 "U20" H 7750 3817 50  0000 C CNN
F 1 "LF347" H 7750 3726 50  0000 C CNN
F 2 "Package_SO:SOIC-14_3.9x8.7mm_P1.27mm" H 7750 3450 50  0001 C CNN
F 3 "~" H 7750 3450 50  0001 C CNN
	1    7750 3450
	1    0    0    -1  
$EndComp
$Comp
L Device:C C85
U 1 1 5DF53F9C
P 7350 3050
F 0 "C85" V 7098 3050 50  0000 C CNN
F 1 "1000pF" V 7189 3050 50  0000 C CNN
F 2 "Capacitor_SMD:C_0603_1608Metric" H 7388 2900 50  0001 C CNN
F 3 "~" H 7350 3050 50  0001 C CNN
	1    7350 3050
	0    1    1    0   
$EndComp
$Comp
L Device:C C81
U 1 1 5DF54A45
P 7300 3550
F 0 "C81" H 7500 3450 50  0000 R CNN
F 1 "470pF" H 7550 3650 50  0000 R CNN
F 2 "Capacitor_SMD:C_0603_1608Metric" H 7338 3400 50  0001 C CNN
F 3 "~" H 7300 3550 50  0001 C CNN
	1    7300 3550
	-1   0    0    1   
$EndComp
Wire Wire Line
	7300 3400 7300 3350
Wire Wire Line
	7300 3350 7450 3350
Wire Wire Line
	7450 3550 7450 3700
$Comp
L power:GND #PWR0144
U 1 1 5DF5F4F5
P 7300 3750
F 0 "#PWR0144" H 7300 3500 50  0001 C CNN
F 1 "GND" H 7450 3700 50  0000 C CNN
F 2 "" H 7300 3750 50  0001 C CNN
F 3 "" H 7300 3750 50  0001 C CNN
	1    7300 3750
	1    0    0    -1  
$EndComp
Wire Wire Line
	7300 3700 7300 3750
Wire Wire Line
	7500 3050 8100 3050
Wire Wire Line
	8100 3050 8100 3450
Wire Wire Line
	8050 3450 8100 3450
Wire Wire Line
	8100 3450 8100 3700
Wire Wire Line
	7450 3700 8100 3700
Connection ~ 8100 3450
$Comp
L Device:R_US R103
U 1 1 5DF78624
P 7100 3350
F 0 "R103" V 6895 3350 50  0000 C CNN
F 1 "36k" V 6986 3350 50  0000 C CNN
F 2 "Resistor_SMD:R_0603_1608Metric" V 7140 3340 50  0001 C CNN
F 3 "~" H 7100 3350 50  0001 C CNN
	1    7100 3350
	0    1    1    0   
$EndComp
Wire Wire Line
	7250 3350 7300 3350
Connection ~ 7300 3350
Wire Wire Line
	7200 3050 6900 3050
Wire Wire Line
	6900 3050 6900 3350
Wire Wire Line
	6900 3350 6950 3350
$Comp
L Device:R_US R99
U 1 1 5DF81EDF
P 6900 3550
F 0 "R99" H 6832 3504 50  0000 R CNN
F 1 "36k" H 6832 3595 50  0000 R CNN
F 2 "Resistor_SMD:R_0603_1608Metric" V 6940 3540 50  0001 C CNN
F 3 "~" H 6900 3550 50  0001 C CNN
	1    6900 3550
	-1   0    0    1   
$EndComp
Wire Wire Line
	6900 3350 6900 3400
Connection ~ 6900 3350
Wire Wire Line
	6900 3700 6750 3700
Text Label 6750 3700 2    50   ~ 0
pwm1
Text Label 8100 3700 0    50   ~ 0
dac1
$Comp
L Device:Opamp_Quad_Generic U20
U 2 1 5DF8F9BA
P 7750 4350
F 0 "U20" H 7750 4717 50  0000 C CNN
F 1 "LF347" H 7750 4626 50  0000 C CNN
F 2 "Package_SO:SOIC-14_3.9x8.7mm_P1.27mm" H 7750 4350 50  0001 C CNN
F 3 "~" H 7750 4350 50  0001 C CNN
	2    7750 4350
	1    0    0    -1  
$EndComp
$Comp
L Device:C C86
U 1 1 5DF8F9C4
P 7350 3950
F 0 "C86" V 7300 3850 50  0000 C CNN
F 1 "1000pF" V 7300 4100 50  0000 C CNN
F 2 "Capacitor_SMD:C_0603_1608Metric" H 7388 3800 50  0001 C CNN
F 3 "~" H 7350 3950 50  0001 C CNN
	1    7350 3950
	0    1    1    0   
$EndComp
$Comp
L Device:C C82
U 1 1 5DF8F9CE
P 7300 4450
F 0 "C82" H 7500 4350 50  0000 R CNN
F 1 "470pF" H 7550 4550 50  0000 R CNN
F 2 "Capacitor_SMD:C_0603_1608Metric" H 7338 4300 50  0001 C CNN
F 3 "~" H 7300 4450 50  0001 C CNN
	1    7300 4450
	-1   0    0    1   
$EndComp
Wire Wire Line
	7300 4300 7300 4250
Wire Wire Line
	7300 4250 7450 4250
Wire Wire Line
	7450 4450 7450 4600
$Comp
L power:GND #PWR0145
U 1 1 5DF8F9DB
P 7300 4650
F 0 "#PWR0145" H 7300 4400 50  0001 C CNN
F 1 "GND" H 7500 4600 50  0000 C CNN
F 2 "" H 7300 4650 50  0001 C CNN
F 3 "" H 7300 4650 50  0001 C CNN
	1    7300 4650
	1    0    0    -1  
$EndComp
Wire Wire Line
	7300 4600 7300 4650
Wire Wire Line
	7500 3950 8100 3950
Wire Wire Line
	8100 3950 8100 4350
Wire Wire Line
	8050 4350 8100 4350
Wire Wire Line
	8100 4350 8100 4600
Wire Wire Line
	7450 4600 8100 4600
Connection ~ 8100 4350
$Comp
L Device:R_US R104
U 1 1 5DF8F9EC
P 7100 4250
F 0 "R104" V 6895 4250 50  0000 C CNN
F 1 "36k" V 6986 4250 50  0000 C CNN
F 2 "Resistor_SMD:R_0603_1608Metric" V 7140 4240 50  0001 C CNN
F 3 "~" H 7100 4250 50  0001 C CNN
	1    7100 4250
	0    1    1    0   
$EndComp
Wire Wire Line
	7250 4250 7300 4250
Connection ~ 7300 4250
Wire Wire Line
	7200 3950 6900 3950
Wire Wire Line
	6900 3950 6900 4250
Wire Wire Line
	6900 4250 6950 4250
$Comp
L Device:R_US R100
U 1 1 5DF8F9FB
P 6900 4450
F 0 "R100" H 6832 4404 50  0000 R CNN
F 1 "36k" H 6832 4495 50  0000 R CNN
F 2 "Resistor_SMD:R_0603_1608Metric" V 6940 4440 50  0001 C CNN
F 3 "~" H 6900 4450 50  0001 C CNN
	1    6900 4450
	-1   0    0    1   
$EndComp
Wire Wire Line
	6900 4250 6900 4300
Connection ~ 6900 4250
Wire Wire Line
	6900 4600 6750 4600
Text Label 6750 4600 2    50   ~ 0
pwm2
Text Label 8100 4600 0    50   ~ 0
dac2
$Comp
L Device:Opamp_Quad_Generic U20
U 3 1 5DFA107E
P 7750 5250
F 0 "U20" H 7750 5617 50  0000 C CNN
F 1 "LF347" H 7750 5526 50  0000 C CNN
F 2 "Package_SO:SOIC-14_3.9x8.7mm_P1.27mm" H 7750 5250 50  0001 C CNN
F 3 "~" H 7750 5250 50  0001 C CNN
	3    7750 5250
	1    0    0    -1  
$EndComp
$Comp
L Device:C C87
U 1 1 5DFA1088
P 7350 4850
F 0 "C87" V 7300 4750 50  0000 C CNN
F 1 "1000pF" V 7300 5000 50  0000 C CNN
F 2 "Capacitor_SMD:C_0603_1608Metric" H 7388 4700 50  0001 C CNN
F 3 "~" H 7350 4850 50  0001 C CNN
	1    7350 4850
	0    1    1    0   
$EndComp
$Comp
L Device:C C83
U 1 1 5DFA1092
P 7300 5350
F 0 "C83" H 7500 5250 50  0000 R CNN
F 1 "470pF" H 7550 5450 50  0000 R CNN
F 2 "Capacitor_SMD:C_0603_1608Metric" H 7338 5200 50  0001 C CNN
F 3 "~" H 7300 5350 50  0001 C CNN
	1    7300 5350
	-1   0    0    1   
$EndComp
Wire Wire Line
	7300 5200 7300 5150
Wire Wire Line
	7300 5150 7450 5150
Wire Wire Line
	7450 5350 7450 5500
$Comp
L power:GND #PWR0146
U 1 1 5DFA109F
P 7300 5550
F 0 "#PWR0146" H 7300 5300 50  0001 C CNN
F 1 "GND" H 7450 5500 50  0000 C CNN
F 2 "" H 7300 5550 50  0001 C CNN
F 3 "" H 7300 5550 50  0001 C CNN
	1    7300 5550
	1    0    0    -1  
$EndComp
Wire Wire Line
	7300 5500 7300 5550
Wire Wire Line
	7500 4850 8100 4850
Wire Wire Line
	8100 4850 8100 5250
Wire Wire Line
	8050 5250 8100 5250
Wire Wire Line
	8100 5250 8100 5500
Wire Wire Line
	7450 5500 8100 5500
Connection ~ 8100 5250
$Comp
L Device:R_US R105
U 1 1 5DFA10B0
P 7100 5150
F 0 "R105" V 6895 5150 50  0000 C CNN
F 1 "36k" V 6986 5150 50  0000 C CNN
F 2 "Resistor_SMD:R_0603_1608Metric" V 7140 5140 50  0001 C CNN
F 3 "~" H 7100 5150 50  0001 C CNN
	1    7100 5150
	0    1    1    0   
$EndComp
Wire Wire Line
	7250 5150 7300 5150
Connection ~ 7300 5150
Wire Wire Line
	7200 4850 6900 4850
Wire Wire Line
	6900 4850 6900 5150
Wire Wire Line
	6900 5150 6950 5150
$Comp
L Device:R_US R101
U 1 1 5DFA10BF
P 6900 5350
F 0 "R101" H 6832 5304 50  0000 R CNN
F 1 "36k" H 6832 5395 50  0000 R CNN
F 2 "Resistor_SMD:R_0603_1608Metric" V 6940 5340 50  0001 C CNN
F 3 "~" H 6900 5350 50  0001 C CNN
	1    6900 5350
	-1   0    0    1   
$EndComp
Wire Wire Line
	6900 5150 6900 5200
Connection ~ 6900 5150
Wire Wire Line
	6900 5500 6750 5500
Text Label 6750 5500 2    50   ~ 0
pwm4
Text Label 8100 5500 0    50   ~ 0
dac4
$Comp
L Device:Opamp_Quad_Generic U25
U 4 1 5DFDB2B7
P 7750 6200
F 0 "U25" H 7750 6567 50  0000 C CNN
F 1 "LF347" H 7750 6476 50  0000 C CNN
F 2 "Package_SO:SOIC-14_3.9x8.7mm_P1.27mm" H 7750 6200 50  0001 C CNN
F 3 "~" H 7750 6200 50  0001 C CNN
	4    7750 6200
	1    0    0    -1  
$EndComp
$Comp
L Device:C C88
U 1 1 5DFDB2C1
P 7350 5800
F 0 "C88" V 7300 5700 50  0000 C CNN
F 1 "1000pF" V 7300 5950 50  0000 C CNN
F 2 "Capacitor_SMD:C_0603_1608Metric" H 7388 5650 50  0001 C CNN
F 3 "~" H 7350 5800 50  0001 C CNN
	1    7350 5800
	0    1    1    0   
$EndComp
$Comp
L Device:C C84
U 1 1 5DFDB2CB
P 7300 6300
F 0 "C84" H 7500 6200 50  0000 R CNN
F 1 "470pF" H 7550 6400 50  0000 R CNN
F 2 "Capacitor_SMD:C_0603_1608Metric" H 7338 6150 50  0001 C CNN
F 3 "~" H 7300 6300 50  0001 C CNN
	1    7300 6300
	-1   0    0    1   
$EndComp
Wire Wire Line
	7300 6150 7300 6100
Wire Wire Line
	7300 6100 7450 6100
Wire Wire Line
	7450 6300 7450 6450
$Comp
L power:GND #PWR0147
U 1 1 5DFDB2D8
P 7300 6500
F 0 "#PWR0147" H 7300 6250 50  0001 C CNN
F 1 "GND" H 7450 6450 50  0000 C CNN
F 2 "" H 7300 6500 50  0001 C CNN
F 3 "" H 7300 6500 50  0001 C CNN
	1    7300 6500
	1    0    0    -1  
$EndComp
Wire Wire Line
	7300 6450 7300 6500
Wire Wire Line
	7500 5800 8100 5800
Wire Wire Line
	8100 5800 8100 6200
Wire Wire Line
	8050 6200 8100 6200
Wire Wire Line
	8100 6200 8100 6450
Wire Wire Line
	7450 6450 8100 6450
Connection ~ 8100 6200
$Comp
L Device:R_US R106
U 1 1 5DFDB2E9
P 7100 6100
F 0 "R106" V 6895 6100 50  0000 C CNN
F 1 "36k" V 6986 6100 50  0000 C CNN
F 2 "Resistor_SMD:R_0603_1608Metric" V 7140 6090 50  0001 C CNN
F 3 "~" H 7100 6100 50  0001 C CNN
	1    7100 6100
	0    1    1    0   
$EndComp
Wire Wire Line
	7250 6100 7300 6100
Connection ~ 7300 6100
Wire Wire Line
	7200 5800 6900 5800
Wire Wire Line
	6900 5800 6900 6100
Wire Wire Line
	6900 6100 6950 6100
$Comp
L Device:R_US R102
U 1 1 5DFDB2F8
P 6900 6300
F 0 "R102" H 6832 6254 50  0000 R CNN
F 1 "36k" H 6832 6345 50  0000 R CNN
F 2 "Resistor_SMD:R_0603_1608Metric" V 6940 6290 50  0001 C CNN
F 3 "~" H 6900 6300 50  0001 C CNN
	1    6900 6300
	-1   0    0    1   
$EndComp
Wire Wire Line
	6900 6100 6900 6150
Connection ~ 6900 6100
Wire Wire Line
	6900 6450 6750 6450
Text Label 6750 6450 2    50   ~ 0
pwm5
Text Label 8100 6450 0    50   ~ 0
dac5
$Comp
L Device:Opamp_Quad_Generic U25
U 1 1 5E00D143
P 9650 3450
F 0 "U25" H 9650 3817 50  0000 C CNN
F 1 "LF347" H 9650 3726 50  0000 C CNN
F 2 "Package_SO:SOIC-14_3.9x8.7mm_P1.27mm" H 9650 3450 50  0001 C CNN
F 3 "~" H 9650 3450 50  0001 C CNN
	1    9650 3450
	1    0    0    -1  
$EndComp
$Comp
L Device:C C94
U 1 1 5E00D14D
P 9250 3050
F 0 "C94" V 8998 3050 50  0000 C CNN
F 1 "1000pF" V 9089 3050 50  0000 C CNN
F 2 "Capacitor_SMD:C_0603_1608Metric" H 9288 2900 50  0001 C CNN
F 3 "~" H 9250 3050 50  0001 C CNN
	1    9250 3050
	0    1    1    0   
$EndComp
$Comp
L Device:C C90
U 1 1 5E00D157
P 9200 3550
F 0 "C90" H 9400 3450 50  0000 R CNN
F 1 "470pF" H 9450 3650 50  0000 R CNN
F 2 "Capacitor_SMD:C_0603_1608Metric" H 9238 3400 50  0001 C CNN
F 3 "~" H 9200 3550 50  0001 C CNN
	1    9200 3550
	-1   0    0    1   
$EndComp
Wire Wire Line
	9200 3400 9200 3350
Wire Wire Line
	9200 3350 9350 3350
Wire Wire Line
	9350 3550 9350 3700
$Comp
L power:GND #PWR0155
U 1 1 5E00D164
P 9200 3750
F 0 "#PWR0155" H 9200 3500 50  0001 C CNN
F 1 "GND" H 9350 3700 50  0000 C CNN
F 2 "" H 9200 3750 50  0001 C CNN
F 3 "" H 9200 3750 50  0001 C CNN
	1    9200 3750
	1    0    0    -1  
$EndComp
Wire Wire Line
	9200 3700 9200 3750
Wire Wire Line
	9400 3050 10000 3050
Wire Wire Line
	10000 3050 10000 3450
Wire Wire Line
	9950 3450 10000 3450
Wire Wire Line
	10000 3450 10000 3700
Wire Wire Line
	9350 3700 10000 3700
Connection ~ 10000 3450
$Comp
L Device:R_US R112
U 1 1 5E00D175
P 9000 3350
F 0 "R112" V 8795 3350 50  0000 C CNN
F 1 "36k" V 8886 3350 50  0000 C CNN
F 2 "Resistor_SMD:R_0603_1608Metric" V 9040 3340 50  0001 C CNN
F 3 "~" H 9000 3350 50  0001 C CNN
	1    9000 3350
	0    1    1    0   
$EndComp
Wire Wire Line
	9150 3350 9200 3350
Connection ~ 9200 3350
Wire Wire Line
	9100 3050 8800 3050
Wire Wire Line
	8800 3050 8800 3350
Wire Wire Line
	8800 3350 8850 3350
$Comp
L Device:R_US R108
U 1 1 5E00D184
P 8800 3550
F 0 "R108" H 8732 3504 50  0000 R CNN
F 1 "36k" H 8732 3595 50  0000 R CNN
F 2 "Resistor_SMD:R_0603_1608Metric" V 8840 3540 50  0001 C CNN
F 3 "~" H 8800 3550 50  0001 C CNN
	1    8800 3550
	-1   0    0    1   
$EndComp
Wire Wire Line
	8800 3350 8800 3400
Connection ~ 8800 3350
Wire Wire Line
	8800 3700 8650 3700
Text Label 8650 3700 2    50   ~ 0
pwm6
Text Label 10000 3700 0    50   ~ 0
dac6
$Comp
L Device:Opamp_Quad_Generic U25
U 2 1 5E00D193
P 9650 4350
F 0 "U25" H 9650 4717 50  0000 C CNN
F 1 "LF347" H 9650 4626 50  0000 C CNN
F 2 "Package_SO:SOIC-14_3.9x8.7mm_P1.27mm" H 9650 4350 50  0001 C CNN
F 3 "~" H 9650 4350 50  0001 C CNN
	2    9650 4350
	1    0    0    -1  
$EndComp
$Comp
L Device:C C95
U 1 1 5E00D19D
P 9250 3950
F 0 "C95" V 9200 3850 50  0000 C CNN
F 1 "1000pF" V 9200 4100 50  0000 C CNN
F 2 "Capacitor_SMD:C_0603_1608Metric" H 9288 3800 50  0001 C CNN
F 3 "~" H 9250 3950 50  0001 C CNN
	1    9250 3950
	0    1    1    0   
$EndComp
$Comp
L Device:C C91
U 1 1 5E00D1A7
P 9200 4450
F 0 "C91" H 9400 4350 50  0000 R CNN
F 1 "470pF" H 9450 4550 50  0000 R CNN
F 2 "Capacitor_SMD:C_0603_1608Metric" H 9238 4300 50  0001 C CNN
F 3 "~" H 9200 4450 50  0001 C CNN
	1    9200 4450
	-1   0    0    1   
$EndComp
Wire Wire Line
	9200 4300 9200 4250
Wire Wire Line
	9200 4250 9350 4250
Wire Wire Line
	9350 4450 9350 4600
$Comp
L power:GND #PWR0156
U 1 1 5E00D1B4
P 9200 4650
F 0 "#PWR0156" H 9200 4400 50  0001 C CNN
F 1 "GND" H 9400 4600 50  0000 C CNN
F 2 "" H 9200 4650 50  0001 C CNN
F 3 "" H 9200 4650 50  0001 C CNN
	1    9200 4650
	1    0    0    -1  
$EndComp
Wire Wire Line
	9200 4600 9200 4650
Wire Wire Line
	9400 3950 10000 3950
Wire Wire Line
	10000 3950 10000 4350
Wire Wire Line
	9950 4350 10000 4350
Wire Wire Line
	10000 4350 10000 4600
Wire Wire Line
	9350 4600 10000 4600
Connection ~ 10000 4350
$Comp
L Device:R_US R113
U 1 1 5E00D1C5
P 9000 4250
F 0 "R113" V 8795 4250 50  0000 C CNN
F 1 "36k" V 8886 4250 50  0000 C CNN
F 2 "Resistor_SMD:R_0603_1608Metric" V 9040 4240 50  0001 C CNN
F 3 "~" H 9000 4250 50  0001 C CNN
	1    9000 4250
	0    1    1    0   
$EndComp
Wire Wire Line
	9150 4250 9200 4250
Connection ~ 9200 4250
Wire Wire Line
	9100 3950 8800 3950
Wire Wire Line
	8800 3950 8800 4250
Wire Wire Line
	8800 4250 8850 4250
$Comp
L Device:R_US R109
U 1 1 5E00D1D4
P 8800 4450
F 0 "R109" H 8732 4404 50  0000 R CNN
F 1 "36k" H 8732 4495 50  0000 R CNN
F 2 "Resistor_SMD:R_0603_1608Metric" V 8840 4440 50  0001 C CNN
F 3 "~" H 8800 4450 50  0001 C CNN
	1    8800 4450
	-1   0    0    1   
$EndComp
Wire Wire Line
	8800 4250 8800 4300
Connection ~ 8800 4250
Wire Wire Line
	8800 4600 8650 4600
Text Label 8650 4600 2    50   ~ 0
pwm9
Text Label 10000 4600 0    50   ~ 0
dac9
$Comp
L Device:Opamp_Quad_Generic U25
U 3 1 5E00D1E3
P 9650 5250
F 0 "U25" H 9650 5617 50  0000 C CNN
F 1 "LF347" H 9650 5526 50  0000 C CNN
F 2 "Package_SO:SOIC-14_3.9x8.7mm_P1.27mm" H 9650 5250 50  0001 C CNN
F 3 "~" H 9650 5250 50  0001 C CNN
	3    9650 5250
	1    0    0    -1  
$EndComp
$Comp
L Device:C C96
U 1 1 5E00D1ED
P 9250 4850
F 0 "C96" V 9200 4750 50  0000 C CNN
F 1 "1000pF" V 9200 5000 50  0000 C CNN
F 2 "Capacitor_SMD:C_0603_1608Metric" H 9288 4700 50  0001 C CNN
F 3 "~" H 9250 4850 50  0001 C CNN
	1    9250 4850
	0    1    1    0   
$EndComp
$Comp
L Device:C C92
U 1 1 00005E00
P 9200 5350
F 0 "C92" H 9400 5250 50  0000 R CNN
F 1 "470pF" H 9450 5450 50  0000 R CNN
F 2 "Capacitor_SMD:C_0603_1608Metric" H 9238 5200 50  0001 C CNN
F 3 "~" H 9200 5350 50  0001 C CNN
	1    9200 5350
	-1   0    0    1   
$EndComp
Wire Wire Line
	9200 5200 9200 5150
Wire Wire Line
	9200 5150 9350 5150
Wire Wire Line
	9350 5350 9350 5500
$Comp
L power:GND #PWR0157
U 1 1 5E00D204
P 9200 5550
F 0 "#PWR0157" H 9200 5300 50  0001 C CNN
F 1 "GND" H 9350 5500 50  0000 C CNN
F 2 "" H 9200 5550 50  0001 C CNN
F 3 "" H 9200 5550 50  0001 C CNN
	1    9200 5550
	1    0    0    -1  
$EndComp
Wire Wire Line
	9200 5500 9200 5550
Wire Wire Line
	9400 4850 10000 4850
Wire Wire Line
	10000 4850 10000 5250
Wire Wire Line
	9950 5250 10000 5250
Wire Wire Line
	10000 5250 10000 5500
Wire Wire Line
	9350 5500 10000 5500
Connection ~ 10000 5250
$Comp
L Device:R_US R114
U 1 1 5E00D215
P 9000 5150
F 0 "R114" V 8795 5150 50  0000 C CNN
F 1 "36k" V 8886 5150 50  0000 C CNN
F 2 "Resistor_SMD:R_0603_1608Metric" V 9040 5140 50  0001 C CNN
F 3 "~" H 9000 5150 50  0001 C CNN
	1    9000 5150
	0    1    1    0   
$EndComp
Wire Wire Line
	9150 5150 9200 5150
Connection ~ 9200 5150
Wire Wire Line
	9100 4850 8800 4850
Wire Wire Line
	8800 4850 8800 5150
Wire Wire Line
	8800 5150 8850 5150
$Comp
L Device:R_US R110
U 1 1 5E00D224
P 8800 5350
F 0 "R110" H 8732 5304 50  0000 R CNN
F 1 "36k" H 8732 5395 50  0000 R CNN
F 2 "Resistor_SMD:R_0603_1608Metric" V 8840 5340 50  0001 C CNN
F 3 "~" H 8800 5350 50  0001 C CNN
	1    8800 5350
	-1   0    0    1   
$EndComp
Wire Wire Line
	8800 5150 8800 5200
Connection ~ 8800 5150
Wire Wire Line
	8800 5500 8650 5500
Text Label 8650 5500 2    50   ~ 0
pwm11
Text Label 10000 5500 0    50   ~ 0
dac11
$Comp
L Device:Opamp_Quad_Generic U25
U 5 1 5E075EC9
P 4950 6750
F 0 "U25" H 4850 7000 50  0000 L CNN
F 1 "LF347" V 4950 6100 50  0000 L CNN
F 2 "Package_SO:SOIC-14_3.9x8.7mm_P1.27mm" H 4950 6750 50  0001 C CNN
F 3 "~" H 4950 6750 50  0001 C CNN
	5    4950 6750
	0    -1   -1   0   
$EndComp
$Comp
L power:-5V #PWR0138
U 1 1 5E07868B
P 5350 6850
F 0 "#PWR0138" H 5350 6950 50  0001 C CNN
F 1 "-5V" H 5365 7023 50  0000 C CNN
F 2 "" H 5350 6850 50  0001 C CNN
F 3 "" H 5350 6850 50  0001 C CNN
	1    5350 6850
	0    1    1    0   
$EndComp
Wire Wire Line
	5250 6850 5300 6850
$Comp
L power:+12V #PWR0137
U 1 1 5E08628F
P 4550 6850
F 0 "#PWR0137" H 4550 6700 50  0001 C CNN
F 1 "+12V" H 4565 7023 50  0000 C CNN
F 2 "" H 4550 6850 50  0001 C CNN
F 3 "" H 4550 6850 50  0001 C CNN
	1    4550 6850
	0    -1   -1   0   
$EndComp
Wire Wire Line
	4550 6850 4600 6850
$Comp
L Device:C C80
U 1 1 5E0940A7
P 5050 7050
F 0 "C80" H 5200 7150 50  0000 R CNN
F 1 "0.1uF" H 5300 6950 50  0000 R CNN
F 2 "Capacitor_SMD:C_0603_1608Metric" H 5088 6900 50  0001 C CNN
F 3 "~" H 5050 7050 50  0001 C CNN
	1    5050 7050
	0    -1   1    0   
$EndComp
Wire Wire Line
	5200 7050 5300 7050
Wire Wire Line
	5300 7050 5300 6850
Connection ~ 5300 6850
Wire Wire Line
	5300 6850 5350 6850
Wire Wire Line
	4900 7050 4600 7050
Wire Wire Line
	4600 7050 4600 6850
Connection ~ 4600 6850
Wire Wire Line
	4600 6850 4650 6850
$Comp
L Device:Opamp_Quad_Generic U20
U 5 1 5E0CA585
P 3750 6750
F 0 "U20" V 3750 7050 50  0000 L CNN
F 1 "LF347" V 3750 6150 50  0000 L CNN
F 2 "Package_SO:SOIC-14_3.9x8.7mm_P1.27mm" H 3750 6750 50  0001 C CNN
F 3 "~" H 3750 6750 50  0001 C CNN
	5    3750 6750
	0    -1   -1   0   
$EndComp
$Comp
L power:-5V #PWR0127
U 1 1 5E0CA58F
P 4150 6850
F 0 "#PWR0127" H 4150 6950 50  0001 C CNN
F 1 "-5V" H 4165 7023 50  0000 C CNN
F 2 "" H 4150 6850 50  0001 C CNN
F 3 "" H 4150 6850 50  0001 C CNN
	1    4150 6850
	0    1    1    0   
$EndComp
Wire Wire Line
	4050 6850 4100 6850
$Comp
L power:+12V #PWR0124
U 1 1 5E0CA59A
P 3350 6850
F 0 "#PWR0124" H 3350 6700 50  0001 C CNN
F 1 "+12V" H 3365 7023 50  0000 C CNN
F 2 "" H 3350 6850 50  0001 C CNN
F 3 "" H 3350 6850 50  0001 C CNN
	1    3350 6850
	0    -1   -1   0   
$EndComp
Wire Wire Line
	3350 6850 3400 6850
$Comp
L Device:C C74
U 1 1 5E0CA5A5
P 3850 7050
F 0 "C74" V 4000 7200 50  0000 R CNN
F 1 "0.1uF" V 3900 6950 50  0000 R CNN
F 2 "Capacitor_SMD:C_0603_1608Metric" H 3888 6900 50  0001 C CNN
F 3 "~" H 3850 7050 50  0001 C CNN
	1    3850 7050
	0    -1   1    0   
$EndComp
Wire Wire Line
	4000 7050 4100 7050
Wire Wire Line
	4100 7050 4100 6850
Connection ~ 4100 6850
Wire Wire Line
	4100 6850 4150 6850
Wire Wire Line
	3700 7050 3400 7050
Wire Wire Line
	3400 7050 3400 6850
Connection ~ 3400 6850
Wire Wire Line
	3400 6850 3450 6850
Wire Wire Line
	3050 1850 3250 1850
Text Label 3250 1850 0    50   ~ 0
dac10
Wire Wire Line
	1650 3150 1450 3150
Text Label 1450 3150 0    50   ~ 0
pwm1
Wire Wire Line
	1650 3250 1450 3250
Text Label 1450 3250 0    50   ~ 0
pwm2
Wire Wire Line
	1650 3350 1450 3350
Text Label 1450 3350 0    50   ~ 0
pwm4
Wire Wire Line
	1650 3450 1450 3450
Text Label 1450 3450 0    50   ~ 0
pwm5
Wire Wire Line
	1650 3750 1450 3750
Text Label 1450 3750 0    50   ~ 0
pwm6
Wire Wire Line
	1650 3850 1450 3850
Text Label 1450 3850 0    50   ~ 0
pwm9
Wire Wire Line
	1650 3950 1400 3950
Text Label 1400 3950 0    50   ~ 0
pwm11
$Comp
L Device:C C76
U 1 1 5E167F8D
P 4100 7550
F 0 "C76" H 4100 7450 50  0000 R CNN
F 1 "0.1uF" H 4100 7650 50  0000 R CNN
F 2 "Capacitor_SMD:C_0603_1608Metric" H 4138 7400 50  0001 C CNN
F 3 "~" H 4100 7550 50  0001 C CNN
	1    4100 7550
	-1   0    0    1   
$EndComp
Wire Wire Line
	3850 7350 4100 7350
Wire Wire Line
	4100 7350 4100 7400
Connection ~ 3850 7350
Wire Wire Line
	3850 7750 4100 7750
Wire Wire Line
	4100 7750 4100 7700
Connection ~ 3850 7750
Wire Notes Line style solid rgb(132, 0, 0)
	6300 6750 6300 2600
Wire Notes Line style solid rgb(132, 0, 0)
	6300 2600 10500 2600
Wire Notes Line style solid rgb(132, 0, 0)
	8100 2600 8100 400 
Wire Notes Line style solid rgb(132, 0, 0)
	350  6350 1400 6350
Wire Notes Line style solid rgb(132, 0, 0)
	1450 7050 2450 7050
Wire Notes Line style solid rgb(132, 0, 0)
	2450 6050 6300 6050
Wire Notes Line style solid rgb(132, 0, 0)
	2450 6050 2450 8100
Text Label 8500 1250 2    50   ~ 0
REF_33
$Comp
L local:4504 U19
U 1 1 5E37D377
P 3350 1450
F 0 "U19" H 3100 1500 50  0000 C CNN
F 1 "4504" H 3250 1550 50  0000 C CNN
F 2 "Package_SO:SOP-16_4.4x10.4mm_P1.27mm" H 3200 1750 50  0001 C CNN
F 3 "" H 3200 1750 50  0001 C CNN
	1    3350 1450
	1    0    0    -1  
$EndComp
$Comp
L local:4504 U24
U 2 1 5E37E0E1
P 3350 3550
F 0 "U24" H 3100 3600 50  0000 C CNN
F 1 "4504" H 3250 3750 50  0000 C CNN
F 2 "Package_SO:SOP-16_4.4x10.4mm_P1.27mm" H 3200 3850 50  0001 C CNN
F 3 "" H 3200 3850 50  0001 C CNN
	2    3350 3550
	1    0    0    -1  
$EndComp
$Comp
L local:4504 U19
U 3 1 5E37E97B
P 3350 1650
F 0 "U19" H 3100 1700 50  0000 C CNN
F 1 "4504" H 3250 1950 50  0000 C CNN
F 2 "Package_SO:SOP-16_4.4x10.4mm_P1.27mm" H 3200 1950 50  0001 C CNN
F 3 "" H 3200 1950 50  0001 C CNN
	3    3350 1650
	1    0    0    -1  
$EndComp
$Comp
L local:4504 U19
U 4 1 5E37F215
P 3350 1750
F 0 "U19" H 3100 1800 50  0000 C CNN
F 1 "4504" H 3250 2150 50  0000 C CNN
F 2 "Package_SO:SOP-16_4.4x10.4mm_P1.27mm" H 3200 2050 50  0001 C CNN
F 3 "" H 3200 2050 50  0001 C CNN
	4    3350 1750
	1    0    0    -1  
$EndComp
Wire Wire Line
	3050 1450 3100 1450
Wire Wire Line
	3050 3550 3100 3550
Wire Wire Line
	3050 1650 3100 1650
Wire Wire Line
	3050 1750 3100 1750
Wire Wire Line
	3650 1450 3750 1450
Wire Wire Line
	3650 3550 3750 3550
Wire Wire Line
	3650 1650 3750 1650
Wire Wire Line
	3650 1750 3750 1750
Text Label 3750 1450 0    50   ~ 0
gpio0
Text Label 3750 3550 0    50   ~ 0
gpio1
Text Label 3750 1650 0    50   ~ 0
gpio2
Text Label 3750 1750 0    50   ~ 0
gpio3
$Comp
L local:4504 U19
U 5 1 5E41E038
P 3350 1950
F 0 "U19" H 3100 2000 50  0000 C CNN
F 1 "4504" H 3650 2050 50  0000 C CNN
F 2 "Package_SO:SOP-16_4.4x10.4mm_P1.27mm" H 3200 2250 50  0001 C CNN
F 3 "" H 3200 2250 50  0001 C CNN
	5    3350 1950
	1    0    0    -1  
$EndComp
$Comp
L local:4504 U23
U 6 1 5E41E03E
P 3350 2050
F 0 "U23" H 3100 2100 50  0000 C CNN
F 1 "4504" H 3650 2250 50  0000 C CNN
F 2 "Package_SO:SOP-16_4.4x10.4mm_P1.27mm" H 3200 2350 50  0001 C CNN
F 3 "" H 3200 2350 50  0001 C CNN
	6    3350 2050
	1    0    0    -1  
$EndComp
$Comp
L local:4504 U23
U 1 1 5E41E044
P 3350 2150
F 0 "U23" H 3100 2200 50  0000 C CNN
F 1 "4504" H 3650 2450 50  0000 C CNN
F 2 "Package_SO:SOP-16_4.4x10.4mm_P1.27mm" H 3200 2450 50  0001 C CNN
F 3 "" H 3200 2450 50  0001 C CNN
	1    3350 2150
	1    0    0    -1  
$EndComp
$Comp
L local:4504 U19
U 2 1 5E41E04A
P 3350 2250
F 0 "U19" H 3100 2300 50  0000 C CNN
F 1 "4504" H 3650 2650 50  0000 C CNN
F 2 "Package_SO:SOP-16_4.4x10.4mm_P1.27mm" H 3200 2550 50  0001 C CNN
F 3 "" H 3200 2550 50  0001 C CNN
	2    3350 2250
	1    0    0    -1  
$EndComp
Wire Wire Line
	3050 1950 3100 1950
Wire Wire Line
	3050 2050 3100 2050
Wire Wire Line
	3050 2150 3100 2150
Wire Wire Line
	3050 2250 3100 2250
Wire Wire Line
	3650 1950 3750 1950
Wire Wire Line
	3650 2050 3750 2050
Wire Wire Line
	3650 2150 3750 2150
Wire Wire Line
	3650 2250 3750 2250
Text Label 3750 1950 0    50   ~ 0
gpio4
Text Label 3750 2050 0    50   ~ 0
gpio5
Text Label 3750 2150 0    50   ~ 0
gpio6
Text Label 3750 2250 0    50   ~ 0
gpio7
$Comp
L local:4504 U24
U 3 1 5E438E57
P 3350 3750
F 0 "U24" H 3100 3800 50  0000 C CNN
F 1 "4504" H 3650 4250 50  0000 C CNN
F 2 "Package_SO:SOP-16_4.4x10.4mm_P1.27mm" H 3200 4050 50  0001 C CNN
F 3 "" H 3200 4050 50  0001 C CNN
	3    3350 3750
	1    0    0    -1  
$EndComp
$Comp
L local:4504 U24
U 4 1 5E438E61
P 3350 3850
F 0 "U24" H 3100 3900 50  0000 C CNN
F 1 "4504" H 3650 4450 50  0000 C CNN
F 2 "Package_SO:SOP-16_4.4x10.4mm_P1.27mm" H 3200 4150 50  0001 C CNN
F 3 "" H 3200 4150 50  0001 C CNN
	4    3350 3850
	1    0    0    -1  
$EndComp
$Comp
L local:4504 U23
U 5 1 5E438E6B
P 3350 2550
F 0 "U23" H 3100 2600 50  0000 C CNN
F 1 "4504" H 3650 3250 50  0000 C CNN
F 2 "Package_SO:SOP-16_4.4x10.4mm_P1.27mm" H 3200 2850 50  0001 C CNN
F 3 "" H 3200 2850 50  0001 C CNN
	5    3350 2550
	1    0    0    -1  
$EndComp
$Comp
L local:4504 U24
U 6 1 5E438E75
P 3350 2650
F 0 "U24" H 3100 2700 50  0000 C CNN
F 1 "4504" H 3650 3450 50  0000 C CNN
F 2 "Package_SO:SOP-16_4.4x10.4mm_P1.27mm" H 3200 2950 50  0001 C CNN
F 3 "" H 3200 2950 50  0001 C CNN
	6    3350 2650
	1    0    0    -1  
$EndComp
Wire Wire Line
	3050 3750 3100 3750
Wire Wire Line
	3050 3850 3100 3850
Wire Wire Line
	3050 2550 3100 2550
Wire Wire Line
	3050 2650 3100 2650
Wire Wire Line
	3650 3750 3750 3750
Wire Wire Line
	3650 3850 3750 3850
Wire Wire Line
	3650 2550 3750 2550
Wire Wire Line
	3650 2650 3750 2650
Text Label 3750 3750 0    50   ~ 0
gpio8
Text Label 3750 3850 0    50   ~ 0
gpio10
Text Label 3750 2550 0    50   ~ 0
gpio11
Text Label 3750 2650 0    50   ~ 0
gpio12
$Comp
L local:4504 U24
U 1 1 5E483F0E
P 3350 3650
F 0 "U24" H 3100 3700 50  0000 C CNN
F 1 "4504" H 3150 3600 50  0000 C CNN
F 2 "Package_SO:SOP-16_4.4x10.4mm_P1.27mm" H 3200 3950 50  0001 C CNN
F 3 "" H 3200 3950 50  0001 C CNN
	1    3350 3650
	1    0    0    -1  
$EndComp
Wire Wire Line
	3050 3650 3100 3650
Wire Wire Line
	3650 3650 3750 3650
Text Label 3750 3650 0    50   ~ 0
gpio13
$Comp
L local:4504 U23
U 2 1 5E49E057
P 3350 3150
F 0 "U23" H 3100 3200 50  0000 C CNN
F 1 "4504" H 3150 3300 50  0000 C CNN
F 2 "Package_SO:SOP-16_4.4x10.4mm_P1.27mm" H 3200 3450 50  0001 C CNN
F 3 "" H 3200 3450 50  0001 C CNN
	2    3350 3150
	1    0    0    -1  
$EndComp
$Comp
L local:4504 U23
U 3 1 5E49E061
P 3350 3250
F 0 "U23" H 3100 3300 50  0000 C CNN
F 1 "4504" H 3150 3500 50  0000 C CNN
F 2 "Package_SO:SOP-16_4.4x10.4mm_P1.27mm" H 3200 3550 50  0001 C CNN
F 3 "" H 3200 3550 50  0001 C CNN
	3    3350 3250
	1    0    0    -1  
$EndComp
$Comp
L local:4504 U23
U 4 1 5E49E06B
P 3350 3350
F 0 "U23" H 3100 3400 50  0000 C CNN
F 1 "4504" H 3150 3700 50  0000 C CNN
F 2 "Package_SO:SOP-16_4.4x10.4mm_P1.27mm" H 3200 3650 50  0001 C CNN
F 3 "" H 3200 3650 50  0001 C CNN
	4    3350 3350
	1    0    0    -1  
$EndComp
Wire Wire Line
	3050 3150 3100 3150
Wire Wire Line
	3050 3250 3100 3250
Wire Wire Line
	3050 3350 3100 3350
Wire Wire Line
	3650 3150 3750 3150
Wire Wire Line
	3650 3250 3750 3250
Wire Wire Line
	3650 3350 3750 3350
Text Label 3750 3150 0    50   ~ 0
gpio14
Text Label 3750 3250 0    50   ~ 0
gpio15
Text Label 3750 3350 0    50   ~ 0
gpio16
$Comp
L local:4504 U24
U 5 1 5E4ECDAF
P 3350 3950
F 0 "U24" H 3100 4000 50  0000 C CNN
F 1 "4504" H 3150 3900 50  0000 C CNN
F 2 "Package_SO:SOP-16_4.4x10.4mm_P1.27mm" H 3200 4250 50  0001 C CNN
F 3 "" H 3200 4250 50  0001 C CNN
	5    3350 3950
	1    0    0    -1  
$EndComp
Wire Wire Line
	3050 3950 3100 3950
Wire Wire Line
	3650 3950 3750 3950
Text Label 3750 3950 0    50   ~ 0
gpio9
$Comp
L Device:C C77
U 1 1 5E52C039
P 4350 7550
F 0 "C77" H 4350 7450 50  0000 R CNN
F 1 "0.1uF" H 4350 7650 50  0000 R CNN
F 2 "Capacitor_SMD:C_0603_1608Metric" H 4388 7400 50  0001 C CNN
F 3 "~" H 4350 7550 50  0001 C CNN
	1    4350 7550
	-1   0    0    1   
$EndComp
$Comp
L Device:C C79
U 1 1 5E52C2DA
P 4850 7550
F 0 "C79" H 4850 7450 50  0000 R CNN
F 1 "10uF" H 4850 7650 50  0000 R CNN
F 2 "Capacitor_SMD:C_0805_2012Metric" H 4888 7400 50  0001 C CNN
F 3 "~" H 4850 7550 50  0001 C CNN
	1    4850 7550
	-1   0    0    1   
$EndComp
Wire Notes Line style solid rgb(132, 0, 0)
	5350 7300 5350 8050
$Comp
L Device:C C78
U 1 1 5E596593
P 4600 7550
F 0 "C78" H 4600 7450 50  0000 R CNN
F 1 "0.1uF" H 4600 7650 50  0000 R CNN
F 2 "Capacitor_SMD:C_0603_1608Metric" H 4638 7400 50  0001 C CNN
F 3 "~" H 4600 7550 50  0001 C CNN
	1    4600 7550
	-1   0    0    1   
$EndComp
Wire Wire Line
	4100 7350 4350 7350
Wire Wire Line
	4850 7350 4850 7400
Connection ~ 4100 7350
Wire Wire Line
	4600 7350 4600 7400
Connection ~ 4600 7350
Wire Wire Line
	4600 7350 4850 7350
Wire Wire Line
	4350 7350 4350 7400
Connection ~ 4350 7350
Wire Wire Line
	4350 7350 4600 7350
Wire Wire Line
	4100 7750 4350 7750
Wire Wire Line
	4850 7750 4850 7700
Connection ~ 4100 7750
Wire Wire Line
	4600 7700 4600 7750
Connection ~ 4600 7750
Wire Wire Line
	4600 7750 4850 7750
Wire Wire Line
	4350 7700 4350 7750
Connection ~ 4350 7750
Wire Wire Line
	4350 7750 4600 7750
$Comp
L local:4504 U24
U 7 1 5E511674
P 5800 6350
F 0 "U24" H 6028 6401 50  0000 L CNN
F 1 "4504" H 6028 6310 50  0000 L CNN
F 2 "Package_SO:SOP-16_4.4x10.4mm_P1.27mm" H 5650 6650 50  0001 C CNN
F 3 "" H 5650 6650 50  0001 C CNN
	7    5800 6350
	1    0    0    -1  
$EndComp
$Comp
L power:+3.3V #PWR0140
U 1 1 5E631456
P 5450 6200
F 0 "#PWR0140" H 5450 6050 50  0001 C CNN
F 1 "+3.3V" V 5450 6450 50  0000 C CNN
F 2 "" H 5450 6200 50  0001 C CNN
F 3 "" H 5450 6200 50  0001 C CNN
	1    5450 6200
	0    -1   -1   0   
$EndComp
Wire Wire Line
	5450 6200 5500 6200
$Comp
L power:+12V #PWR0141
U 1 1 5E681D9D
P 5450 6300
F 0 "#PWR0141" H 5450 6150 50  0001 C CNN
F 1 "+12V" V 5450 6500 50  0000 C CNN
F 2 "" H 5450 6300 50  0001 C CNN
F 3 "" H 5450 6300 50  0001 C CNN
	1    5450 6300
	0    -1   -1   0   
$EndComp
Wire Wire Line
	5450 6300 5500 6300
$Comp
L power:GND #PWR0139
U 1 1 5E69D81B
P 5400 6400
F 0 "#PWR0139" H 5400 6150 50  0001 C CNN
F 1 "GND" V 5400 6200 50  0000 C CNN
F 2 "" H 5400 6400 50  0001 C CNN
F 3 "" H 5400 6400 50  0001 C CNN
	1    5400 6400
	0    1    1    0   
$EndComp
Wire Wire Line
	5400 6400 5450 6400
Wire Wire Line
	5450 6400 5450 6500
Wire Wire Line
	5450 6500 5500 6500
Connection ~ 5450 6400
Wire Wire Line
	5450 6400 5500 6400
$Comp
L local:4504 U23
U 7 1 5E78A443
P 4650 6350
F 0 "U23" H 4878 6401 50  0000 L CNN
F 1 "4504" H 4878 6310 50  0000 L CNN
F 2 "Package_SO:SOP-16_4.4x10.4mm_P1.27mm" H 4500 6650 50  0001 C CNN
F 3 "" H 4500 6650 50  0001 C CNN
	7    4650 6350
	1    0    0    -1  
$EndComp
$Comp
L power:+3.3V #PWR0131
U 1 1 5E78A449
P 4300 6200
F 0 "#PWR0131" H 4300 6050 50  0001 C CNN
F 1 "+3.3V" V 4300 6450 50  0000 C CNN
F 2 "" H 4300 6200 50  0001 C CNN
F 3 "" H 4300 6200 50  0001 C CNN
	1    4300 6200
	0    -1   -1   0   
$EndComp
Wire Wire Line
	4300 6200 4350 6200
$Comp
L power:+12V #PWR0132
U 1 1 5E78A450
P 4300 6300
F 0 "#PWR0132" H 4300 6150 50  0001 C CNN
F 1 "+12V" V 4300 6500 50  0000 C CNN
F 2 "" H 4300 6300 50  0001 C CNN
F 3 "" H 4300 6300 50  0001 C CNN
	1    4300 6300
	0    -1   -1   0   
$EndComp
Wire Wire Line
	4300 6300 4350 6300
$Comp
L power:GND #PWR0128
U 1 1 5E78A457
P 4250 6400
F 0 "#PWR0128" H 4250 6150 50  0001 C CNN
F 1 "GND" V 4250 6200 50  0000 C CNN
F 2 "" H 4250 6400 50  0001 C CNN
F 3 "" H 4250 6400 50  0001 C CNN
	1    4250 6400
	0    1    1    0   
$EndComp
Wire Wire Line
	4250 6400 4300 6400
Wire Wire Line
	4300 6400 4300 6500
Wire Wire Line
	4300 6500 4350 6500
Connection ~ 4300 6400
Wire Wire Line
	4300 6400 4350 6400
$Comp
L local:4504 U19
U 7 1 5E7A8691
P 3450 6350
F 0 "U19" H 3678 6401 50  0000 L CNN
F 1 "4504" H 3678 6310 50  0000 L CNN
F 2 "Package_SO:SOP-16_4.4x10.4mm_P1.27mm" H 3300 6650 50  0001 C CNN
F 3 "" H 3300 6650 50  0001 C CNN
	7    3450 6350
	1    0    0    -1  
$EndComp
$Comp
L power:+3.3V #PWR0122
U 1 1 5E7A8697
P 3100 6200
F 0 "#PWR0122" H 3100 6050 50  0001 C CNN
F 1 "+3.3V" V 3100 6450 50  0000 C CNN
F 2 "" H 3100 6200 50  0001 C CNN
F 3 "" H 3100 6200 50  0001 C CNN
	1    3100 6200
	0    -1   -1   0   
$EndComp
Wire Wire Line
	3100 6200 3150 6200
$Comp
L power:+12V #PWR0123
U 1 1 5E7A869E
P 3100 6300
F 0 "#PWR0123" H 3100 6150 50  0001 C CNN
F 1 "+12V" V 3100 6500 50  0000 C CNN
F 2 "" H 3100 6300 50  0001 C CNN
F 3 "" H 3100 6300 50  0001 C CNN
	1    3100 6300
	0    -1   -1   0   
$EndComp
Wire Wire Line
	3100 6300 3150 6300
$Comp
L power:GND #PWR0121
U 1 1 5E7A86A5
P 3050 6400
F 0 "#PWR0121" H 3050 6150 50  0001 C CNN
F 1 "GND" V 3050 6200 50  0000 C CNN
F 2 "" H 3050 6400 50  0001 C CNN
F 3 "" H 3050 6400 50  0001 C CNN
	1    3050 6400
	0    1    1    0   
$EndComp
Wire Wire Line
	3050 6400 3100 6400
Wire Wire Line
	3100 6400 3100 6500
Wire Wire Line
	3100 6500 3150 6500
Connection ~ 3100 6400
Wire Wire Line
	3100 6400 3150 6400
Text HLabel 6050 4250 2    50   Output ~ 0
gpio[0..16]
Wire Bus Line
	6050 4250 6000 4250
Entry Wire Line
	6000 4300 5900 4400
Wire Wire Line
	5900 4400 5850 4400
Text Label 5850 4400 2    50   ~ 0
gpio0
Entry Wire Line
	6000 4400 5900 4500
Wire Wire Line
	5900 4500 5850 4500
Text Label 5850 4500 2    50   ~ 0
gpio1
Entry Wire Line
	6000 4500 5900 4600
Wire Wire Line
	5900 4600 5850 4600
Text Label 5850 4600 2    50   ~ 0
gpio2
Entry Wire Line
	6000 4600 5900 4700
Wire Wire Line
	5900 4700 5850 4700
Text Label 5850 4700 2    50   ~ 0
gpio3
Entry Wire Line
	6000 4700 5900 4800
Wire Wire Line
	5900 4800 5850 4800
Text Label 5850 4800 2    50   ~ 0
gpio4
Entry Wire Line
	6000 4800 5900 4900
Wire Wire Line
	5900 4900 5850 4900
Text Label 5850 4900 2    50   ~ 0
gpio5
Entry Wire Line
	6000 4900 5900 5000
Wire Wire Line
	5900 5000 5850 5000
Text Label 5850 5000 2    50   ~ 0
gpio6
Entry Wire Line
	6000 5000 5900 5100
Wire Wire Line
	5900 5100 5850 5100
Text Label 5850 5100 2    50   ~ 0
gpio7
Entry Wire Line
	6000 5100 5900 5200
Wire Wire Line
	5900 5200 5850 5200
Text Label 5850 5200 2    50   ~ 0
gpio8
Entry Wire Line
	6000 5200 5900 5300
Wire Wire Line
	5900 5300 5850 5300
Text Label 5850 5300 2    50   ~ 0
gpio9
Entry Wire Line
	6000 5300 5900 5400
Wire Wire Line
	5900 5400 5850 5400
Text Label 5850 5400 2    50   ~ 0
gpio10
Entry Wire Line
	6000 5400 5900 5500
Wire Wire Line
	5900 5500 5850 5500
Text Label 5850 5500 2    50   ~ 0
gpio11
Entry Wire Line
	6000 5500 5900 5600
Wire Wire Line
	5900 5600 5850 5600
Text Label 5850 5600 2    50   ~ 0
gpio12
Entry Wire Line
	6000 5600 5900 5700
Wire Wire Line
	5900 5700 5850 5700
Text Label 5850 5700 2    50   ~ 0
gpio13
Entry Wire Line
	6000 5700 5900 5800
Wire Wire Line
	5900 5800 5850 5800
Text Label 5850 5800 2    50   ~ 0
gpio14
Entry Wire Line
	6000 5800 5900 5900
Wire Wire Line
	5900 5900 5850 5900
Text Label 5850 5900 2    50   ~ 0
gpio15
Entry Wire Line
	6000 5900 5900 6000
Wire Wire Line
	5900 6000 5850 6000
Text Label 5850 6000 2    50   ~ 0
gpio16
Text Label 6000 4250 2    50   ~ 0
gpio[0..16]
Wire Notes Line style solid rgb(132, 0, 0)
	6300 4050 5400 4050
Wire Notes Line style solid rgb(132, 0, 0)
	5400 4050 5400 6050
$Comp
L local:4504 U19
U 6 1 5EB3B7C0
P 1900 6800
F 0 "U19" H 1650 6850 50  0000 C CNN
F 1 "4504" H 1700 6750 50  0000 C CNN
F 2 "Package_SO:SOP-16_4.4x10.4mm_P1.27mm" H 1750 7100 50  0001 C CNN
F 3 "" H 1750 7100 50  0001 C CNN
	6    1900 6800
	1    0    0    -1  
$EndComp
NoConn ~ 2200 6800
NoConn ~ 1650 6800
$Comp
L Device:Opamp_Dual_Generic U22
U 1 1 5E68A93A
P 4700 1550
F 0 "U22" H 5000 1350 50  0000 C CNN
F 1 "TLV9102" H 4900 1450 50  0000 C CNN
F 2 "Package_SO:SOIC-8_3.9x4.9mm_P1.27mm" H 4700 1550 50  0001 C CNN
F 3 "~" H 4700 1550 50  0001 C CNN
	1    4700 1550
	-1   0    0    1   
$EndComp
$Comp
L Device:R_US R95
U 1 1 5E69324C
P 4700 1250
F 0 "R95" V 4905 1250 50  0000 C CNN
F 1 "30k" V 4814 1250 50  0000 C CNN
F 2 "Resistor_SMD:R_0603_1608Metric" V 4740 1240 50  0001 C CNN
F 3 "~" H 4700 1250 50  0001 C CNN
	1    4700 1250
	0    -1   -1   0   
$EndComp
Wire Wire Line
	4400 1550 4300 1550
Wire Wire Line
	4300 1550 4300 1250
Wire Wire Line
	4300 1250 4550 1250
Connection ~ 4300 1550
Wire Wire Line
	4300 1550 3050 1550
Wire Wire Line
	4850 1250 5050 1250
Wire Wire Line
	5050 1250 5050 1450
Wire Wire Line
	5050 1450 5000 1450
$Comp
L Device:R_US R98
U 1 1 5E6FF3BE
P 5300 1250
F 0 "R98" V 5505 1250 50  0000 C CNN
F 1 "68k" V 5414 1250 50  0000 C CNN
F 2 "Resistor_SMD:R_0603_1608Metric" V 5340 1240 50  0001 C CNN
F 3 "~" H 5300 1250 50  0001 C CNN
	1    5300 1250
	0    -1   -1   0   
$EndComp
Wire Wire Line
	5050 1250 5150 1250
Connection ~ 5050 1250
$Comp
L power:GND #PWR0142
U 1 1 5E72587B
P 5500 1250
F 0 "#PWR0142" H 5500 1000 50  0001 C CNN
F 1 "GND" V 5505 1122 50  0000 R CNN
F 2 "" H 5500 1250 50  0001 C CNN
F 3 "" H 5500 1250 50  0001 C CNN
	1    5500 1250
	0    -1   -1   0   
$EndComp
Wire Wire Line
	5450 1250 5500 1250
$Comp
L Device:R_US R97
U 1 1 5E74B0BB
P 5250 1650
F 0 "R97" V 5455 1650 50  0000 C CNN
F 1 "68k" V 5364 1650 50  0000 C CNN
F 2 "Resistor_SMD:R_0603_1608Metric" V 5290 1640 50  0001 C CNN
F 3 "~" H 5250 1650 50  0001 C CNN
	1    5250 1650
	0    -1   -1   0   
$EndComp
Wire Wire Line
	5000 1650 5050 1650
Wire Wire Line
	5050 1750 5050 1650
Connection ~ 5050 1650
Wire Wire Line
	5050 1650 5100 1650
Wire Wire Line
	5400 1650 5650 1650
$Comp
L power:+3.3V #PWR0129
U 1 1 5E95DFA0
P 4300 1700
F 0 "#PWR0129" H 4300 1550 50  0001 C CNN
F 1 "+3.3V" H 4450 1750 50  0000 C CNN
F 2 "" H 4300 1700 50  0001 C CNN
F 3 "" H 4300 1700 50  0001 C CNN
	1    4300 1700
	1    0    0    -1  
$EndComp
Wire Wire Line
	4300 1700 4300 1750
$Comp
L Device:R_US R93
U 1 1 5E90EF17
P 4300 1900
F 0 "R93" H 4368 1946 50  0000 L CNN
F 1 "180k" H 4368 1855 50  0000 L CNN
F 2 "Resistor_SMD:R_0603_1608Metric" V 4340 1890 50  0001 C CNN
F 3 "~" H 4300 1900 50  0001 C CNN
	1    4300 1900
	1    0    0    -1  
$EndComp
Wire Wire Line
	4400 2100 4300 2100
Wire Wire Line
	4300 2100 4300 2050
Wire Wire Line
	4300 2100 4300 2150
Connection ~ 4300 2100
Wire Wire Line
	5050 2200 5000 2200
Connection ~ 5050 2200
Wire Wire Line
	5050 2050 5050 2200
Wire Wire Line
	5150 2200 5050 2200
Wire Wire Line
	5150 2450 5150 2200
Wire Wire Line
	4400 2450 5150 2450
$Comp
L Device:R_US R96
U 1 1 5E771308
P 5050 1900
F 0 "R96" H 5118 1946 50  0000 L CNN
F 1 "30k" H 5118 1855 50  0000 L CNN
F 2 "Resistor_SMD:R_0603_1608Metric" V 5090 1890 50  0001 C CNN
F 3 "~" H 5050 1900 50  0001 C CNN
	1    5050 1900
	1    0    0    -1  
$EndComp
$Comp
L Device:Opamp_Dual_Generic U22
U 2 1 5E76FCB5
P 4700 2200
F 0 "U22" H 5000 2000 50  0000 C CNN
F 1 "TLV9102" H 4900 2100 50  0000 C CNN
F 2 "Package_SO:SOIC-8_3.9x4.9mm_P1.27mm" H 4700 2200 50  0001 C CNN
F 3 "~" H 4700 2200 50  0001 C CNN
	2    4700 2200
	1    0    0    -1  
$EndComp
Wire Wire Line
	4400 2300 4400 2450
$Comp
L power:GND #PWR0130
U 1 1 5EC8A9D4
P 4300 2500
F 0 "#PWR0130" H 4300 2250 50  0001 C CNN
F 1 "GND" H 4305 2327 50  0000 C CNN
F 2 "" H 4300 2500 50  0001 C CNN
F 3 "" H 4300 2500 50  0001 C CNN
	1    4300 2500
	1    0    0    -1  
$EndComp
Wire Wire Line
	4300 2450 4300 2500
$Comp
L Device:R_US R94
U 1 1 5E95D6E1
P 4300 2300
F 0 "R94" H 4150 2350 50  0000 L CNN
F 1 "100k" H 4050 2250 50  0000 L CNN
F 2 "Resistor_SMD:R_0603_1608Metric" V 4340 2290 50  0001 C CNN
F 3 "~" H 4300 2300 50  0001 C CNN
	1    4300 2300
	1    0    0    -1  
$EndComp
Text HLabel 5650 1650 2    50   Input ~ 0
TUNING
$Comp
L Device:Opamp_Dual_Generic U22
U 3 1 5ECE1DEF
P 2700 6650
F 0 "U22" V 2550 6650 50  0000 C CNN
F 1 "TLV9102" V 2650 6650 50  0000 C CNN
F 2 "Package_SO:SOIC-8_3.9x4.9mm_P1.27mm" H 2700 6650 50  0001 C CNN
F 3 "~" H 2700 6650 50  0001 C CNN
	3    2700 6650
	1    0    0    -1  
$EndComp
$Comp
L Device:C C69
U 1 1 5ECE4DBF
P 2800 6800
F 0 "C69" H 2750 6900 50  0000 R CNN
F 1 "0.1uF" H 2750 6700 50  0000 R CNN
F 2 "Capacitor_SMD:C_0603_1608Metric" H 2838 6650 50  0001 C CNN
F 3 "~" H 2800 6800 50  0001 C CNN
	1    2800 6800
	-1   0    0    -1  
$EndComp
$Comp
L power:+3.3V #PWR0116
U 1 1 5ECE8515
P 2600 6300
F 0 "#PWR0116" H 2600 6150 50  0001 C CNN
F 1 "+3.3V" H 2600 6450 50  0000 C CNN
F 2 "" H 2600 6300 50  0001 C CNN
F 3 "" H 2600 6300 50  0001 C CNN
	1    2600 6300
	1    0    0    -1  
$EndComp
Wire Wire Line
	2600 6300 2600 6350
$Comp
L power:GND #PWR0117
U 1 1 5ED0FF02
P 2600 7050
F 0 "#PWR0117" H 2600 6800 50  0001 C CNN
F 1 "GND" H 2700 7050 50  0000 C CNN
F 2 "" H 2600 7050 50  0001 C CNN
F 3 "" H 2600 7050 50  0001 C CNN
	1    2600 7050
	1    0    0    -1  
$EndComp
Wire Wire Line
	2600 6950 2600 7000
Wire Wire Line
	2600 7000 2800 7000
Wire Wire Line
	2800 7000 2800 6950
Connection ~ 2600 7000
Wire Wire Line
	2600 7000 2600 7050
Wire Wire Line
	2800 6650 2800 6600
$Comp
L power:+3.3V #PWR0120
U 1 1 5EDAF429
P 2800 6600
F 0 "#PWR0120" H 2800 6450 50  0001 C CNN
F 1 "+3.3V" H 2950 6650 50  0000 C CNN
F 2 "" H 2800 6600 50  0001 C CNN
F 3 "" H 2800 6600 50  0001 C CNN
	1    2800 6600
	1    0    0    -1  
$EndComp
Text Notes 5250 1800 0    50   ~ 0
-2V to 2V (no resonance)
Text Notes 4550 1250 2    50   ~ 0
0.1V -> 2.1V
Wire Wire Line
	1650 4150 1550 4150
Text Label 1550 4150 2    50   ~ 0
CPU_SPI_SCK
Wire Wire Line
	1650 4350 1550 4350
Text Label 1550 4350 2    50   ~ 0
CPU_SPI_MOSI
Wire Wire Line
	3050 2950 3450 2950
Text Label 3450 2950 0    50   ~ 0
CPU_SPI_NSS
Entry Wire Line
	950  7900 850  8000
Wire Wire Line
	850  8000 800  8000
Text Label 800  8000 2    50   ~ 0
dac12
$Comp
L Device:Opamp_Quad_Generic U20
U 4 1 5F38D586
P 9650 6200
F 0 "U20" H 9650 6567 50  0000 C CNN
F 1 "LF347" H 9650 6476 50  0000 C CNN
F 2 "Package_SO:SOIC-14_3.9x8.7mm_P1.27mm" H 9650 6200 50  0001 C CNN
F 3 "~" H 9650 6200 50  0001 C CNN
	4    9650 6200
	1    0    0    -1  
$EndComp
$Comp
L Device:C C97
U 1 1 5F38D58C
P 9250 5800
F 0 "C97" V 9200 5700 50  0000 C CNN
F 1 "1000pF" V 9200 5950 50  0000 C CNN
F 2 "Capacitor_SMD:C_0603_1608Metric" H 9288 5650 50  0001 C CNN
F 3 "~" H 9250 5800 50  0001 C CNN
	1    9250 5800
	0    1    1    0   
$EndComp
$Comp
L Device:C C93
U 1 1 5F38D592
P 9200 6300
F 0 "C93" H 9400 6200 50  0000 R CNN
F 1 "470pF" H 9450 6400 50  0000 R CNN
F 2 "Capacitor_SMD:C_0603_1608Metric" H 9238 6150 50  0001 C CNN
F 3 "~" H 9200 6300 50  0001 C CNN
	1    9200 6300
	-1   0    0    1   
$EndComp
Wire Wire Line
	9200 6150 9200 6100
Wire Wire Line
	9200 6100 9350 6100
Wire Wire Line
	9350 6300 9350 6450
$Comp
L power:GND #PWR0158
U 1 1 5F38D59B
P 9200 6500
F 0 "#PWR0158" H 9200 6250 50  0001 C CNN
F 1 "GND" H 9350 6450 50  0000 C CNN
F 2 "" H 9200 6500 50  0001 C CNN
F 3 "" H 9200 6500 50  0001 C CNN
	1    9200 6500
	1    0    0    -1  
$EndComp
Wire Wire Line
	9200 6450 9200 6500
Wire Wire Line
	10000 5800 10000 6200
Wire Wire Line
	9950 6200 10000 6200
Wire Wire Line
	10000 6200 10000 6450
Wire Wire Line
	9350 6450 10000 6450
Connection ~ 10000 6200
$Comp
L Device:R_US R115
U 1 1 5F38D5A7
P 9000 6100
F 0 "R115" V 8795 6100 50  0000 C CNN
F 1 "36k" V 8886 6100 50  0000 C CNN
F 2 "Resistor_SMD:R_0603_1608Metric" V 9040 6090 50  0001 C CNN
F 3 "~" H 9000 6100 50  0001 C CNN
	1    9000 6100
	0    1    1    0   
$EndComp
Wire Wire Line
	9150 6100 9200 6100
Connection ~ 9200 6100
Wire Wire Line
	8800 5800 8800 6100
Wire Wire Line
	8800 6100 8850 6100
$Comp
L Device:R_US R111
U 1 1 5F38D5B1
P 8800 6300
F 0 "R111" H 8732 6254 50  0000 R CNN
F 1 "36k" H 8732 6345 50  0000 R CNN
F 2 "Resistor_SMD:R_0603_1608Metric" V 8840 6290 50  0001 C CNN
F 3 "~" H 8800 6300 50  0001 C CNN
	1    8800 6300
	-1   0    0    1   
$EndComp
Wire Wire Line
	8800 6100 8800 6150
Connection ~ 8800 6100
Wire Wire Line
	8800 6450 8650 6450
Text Label 8650 6450 2    50   ~ 0
pwm12
Text Label 10000 6450 0    50   ~ 0
dac12
Wire Wire Line
	8800 5800 9100 5800
Wire Wire Line
	9400 5800 10000 5800
Wire Wire Line
	1650 4050 1400 4050
Text Label 1400 4050 0    50   ~ 0
pwm12
Wire Wire Line
	3050 2350 3450 2350
Wire Wire Line
	3050 2450 3450 2450
Text Label 3450 2350 0    50   ~ 0
CPU_UART_RX
Text Label 3450 2450 0    50   ~ 0
CPU_UART_TX
Text Label 1600 1650 2    50   ~ 0
BOOT
Wire Wire Line
	1650 1450 1600 1450
Text Label 1600 1450 2    50   ~ 0
NRST
Wire Wire Line
	1650 4250 1550 4250
Text Label 1550 4250 2    50   ~ 0
RESERVED_CPU_SPI_MISO
Wire Wire Line
	3050 4050 3300 4050
Text Label 3300 4050 0    50   ~ 0
RESERVED_CPU_GPIO_1
Wire Wire Line
	3050 4150 3300 4150
Text Label 3300 4150 0    50   ~ 0
RESERVED_CPU_GPIO_2
$Comp
L Connector_Generic:Conn_01x16 J1
U 1 1 5E936C7E
P 4800 5100
F 0 "J1" H 4880 5092 50  0000 L CNN
F 1 "Conn_01x16" H 4880 5001 50  0000 L CNN
F 2 "voice:synth_edge" H 4800 5100 50  0001 C CNN
F 3 "~" H 4800 5100 50  0001 C CNN
	1    4800 5100
	1    0    0    -1  
$EndComp
Wire Wire Line
	4600 4400 4550 4400
$Comp
L power:GND #PWR0133
U 1 1 5E96870C
P 4550 4400
F 0 "#PWR0133" H 4550 4150 50  0001 C CNN
F 1 "GND" V 4555 4272 50  0000 R CNN
F 2 "" H 4550 4400 50  0001 C CNN
F 3 "" H 4550 4400 50  0001 C CNN
	1    4550 4400
	0    1    1    0   
$EndComp
Wire Wire Line
	4600 4900 4550 4900
$Comp
L power:+3.3V #PWR0134
U 1 1 5E997D84
P 4550 4900
F 0 "#PWR0134" H 4550 4750 50  0001 C CNN
F 1 "+3.3V" V 4565 5028 50  0000 L CNN
F 2 "" H 4550 4900 50  0001 C CNN
F 3 "" H 4550 4900 50  0001 C CNN
	1    4550 4900
	0    -1   -1   0   
$EndComp
$Comp
L power:+12V #PWR0135
U 1 1 5E999F72
P 4500 5500
F 0 "#PWR0135" H 4500 5350 50  0001 C CNN
F 1 "+12V" V 4515 5628 50  0000 L CNN
F 2 "" H 4500 5500 50  0001 C CNN
F 3 "" H 4500 5500 50  0001 C CNN
	1    4500 5500
	0    -1   -1   0   
$EndComp
$Comp
L power:-5V #PWR0136
U 1 1 5E99C402
P 4550 5900
F 0 "#PWR0136" H 4550 6000 50  0001 C CNN
F 1 "-5V" V 4565 6028 50  0000 L CNN
F 2 "" H 4550 5900 50  0001 C CNN
F 3 "" H 4550 5900 50  0001 C CNN
	1    4550 5900
	0    -1   -1   0   
$EndComp
Wire Wire Line
	4550 5900 4600 5900
Wire Wire Line
	4500 5500 4550 5500
Wire Wire Line
	4600 4500 4450 4500
Text Label 4450 4500 2    50   ~ 0
CPU_SPI_SCK
Wire Wire Line
	4600 4600 4450 4600
Text Label 4450 4600 2    50   ~ 0
CPU_SPI_MOSI
Wire Wire Line
	4600 4700 4450 4700
Text Label 4450 4700 2    50   ~ 0
CPU_SPI_NSS
Wire Wire Line
	4600 4800 4450 4800
Text Label 4450 4800 2    50   ~ 0
RESERVED_CPU_SPI_MISO
Wire Wire Line
	4600 5000 4450 5000
Text Label 4450 5000 2    50   ~ 0
RESERVED_CPU_GPIO_1
Wire Wire Line
	4600 5100 4450 5100
Text Label 4450 5100 2    50   ~ 0
RESERVED_CPU_GPIO_2
Wire Wire Line
	4600 5200 4450 5200
Text Label 4450 5200 2    50   ~ 0
CPU_UART_RX
Wire Wire Line
	4600 5300 4450 5300
Text Label 4450 5300 2    50   ~ 0
CPU_UART_TX
Wire Wire Line
	4600 5400 4450 5400
Text Label 4450 5400 2    50   ~ 0
BOOT
Wire Wire Line
	4600 5600 4450 5600
Text Label 4450 5600 2    50   ~ 0
NRST
Text Label 5500 1650 1    50   ~ 0
TUNING
Wire Wire Line
	4600 5700 4450 5700
Text Label 4450 5700 2    50   ~ 0
TUNING
Wire Wire Line
	4600 5800 4450 5800
Text HLabel 4450 5800 0    50   Input ~ 0
SIGNAL
$Comp
L power:PWR_FLAG #FLG0103
U 1 1 5ED6DB96
P 4550 5500
F 0 "#FLG0103" H 4550 5575 50  0001 C CNN
F 1 "PWR_FLAG" H 5050 5500 50  0000 C CNN
F 2 "" H 4550 5500 50  0001 C CNN
F 3 "~" H 4550 5500 50  0001 C CNN
	1    4550 5500
	1    0    0    -1  
$EndComp
Connection ~ 4550 5500
Wire Wire Line
	4550 5500 4600 5500
NoConn ~ 3050 4250
NoConn ~ 3050 4550
NoConn ~ 1650 4450
NoConn ~ 1650 4550
NoConn ~ 1650 4650
NoConn ~ 1650 3550
NoConn ~ 1650 3650
NoConn ~ 1650 2950
Wire Wire Line
	2650 1200 2550 1200
Connection ~ 2550 1200
Wire Wire Line
	5650 7800 5850 7800
Connection ~ 4600 5900
$Comp
L power:PWR_FLAG #FLG0104
U 1 1 5ED6E368
P 4600 5900
F 0 "#FLG0104" H 4600 5975 50  0001 C CNN
F 1 "PWR_FLAG" H 5050 5950 50  0000 C CNN
F 2 "" H 4600 5900 50  0001 C CNN
F 3 "~" H 4600 5900 50  0001 C CNN
	1    4600 5900
	1    0    0    -1  
$EndComp
Connection ~ 4600 4900
$Comp
L power:PWR_FLAG #FLG0102
U 1 1 5ED6D73F
P 4600 4900
F 0 "#FLG0102" H 4600 4975 50  0001 C CNN
F 1 "PWR_FLAG" H 5050 4950 50  0000 C CNN
F 2 "" H 4600 4900 50  0001 C CNN
F 3 "~" H 4600 4900 50  0001 C CNN
	1    4600 4900
	1    0    0    -1  
$EndComp
$Comp
L power:PWR_FLAG #FLG0101
U 1 1 5EB4C5A0
P 4600 4400
F 0 "#FLG0101" H 4600 4475 50  0001 C CNN
F 1 "PWR_FLAG" H 5050 4450 50  0000 C CNN
F 2 "" H 4600 4400 50  0001 C CNN
F 3 "~" H 4600 4400 50  0001 C CNN
	1    4600 4400
	1    0    0    -1  
$EndComp
Connection ~ 4600 4400
$Comp
L Connector_Generic:Conn_01x06 J3
U 1 1 5FC0BBB5
P 1100 5900
F 0 "J3" H 1200 6100 50  0000 L CNN
F 1 "Conn_01x06" V 1200 5600 50  0000 L CNN
F 2 "Connector_PinHeader_2.54mm:PinHeader_2x03_P2.54mm_Vertical" H 1100 5900 50  0001 C CNN
F 3 "~" H 1100 5900 50  0001 C CNN
	1    1100 5900
	1    0    0    -1  
$EndComp
$Comp
L power:-5V #PWR059
U 1 1 5FC0CC9E
P 850 5700
F 0 "#PWR059" H 850 5800 50  0001 C CNN
F 1 "-5V" V 865 5828 50  0000 L CNN
F 2 "" H 850 5700 50  0001 C CNN
F 3 "" H 850 5700 50  0001 C CNN
	1    850  5700
	0    -1   -1   0   
$EndComp
$Comp
L power:GND #PWR0113
U 1 1 5FC0D133
P 850 5800
F 0 "#PWR0113" H 850 5550 50  0001 C CNN
F 1 "GND" V 855 5672 50  0000 R CNN
F 2 "" H 850 5800 50  0001 C CNN
F 3 "" H 850 5800 50  0001 C CNN
	1    850  5800
	0    1    1    0   
$EndComp
$Comp
L power:+3.3V #PWR0159
U 1 1 5FC0D52F
P 850 5900
F 0 "#PWR0159" H 850 5750 50  0001 C CNN
F 1 "+3.3V" V 865 6028 50  0000 L CNN
F 2 "" H 850 5900 50  0001 C CNN
F 3 "" H 850 5900 50  0001 C CNN
	1    850  5900
	0    -1   -1   0   
$EndComp
$Comp
L power:+12V #PWR0160
U 1 1 5FC0DA0F
P 850 6000
F 0 "#PWR0160" H 850 5850 50  0001 C CNN
F 1 "+12V" V 865 6128 50  0000 L CNN
F 2 "" H 850 6000 50  0001 C CNN
F 3 "" H 850 6000 50  0001 C CNN
	1    850  6000
	0    -1   -1   0   
$EndComp
Wire Wire Line
	850  5700 900  5700
Wire Wire Line
	850  5800 900  5800
Wire Wire Line
	850  5900 900  5900
Wire Wire Line
	850  6000 900  6000
NoConn ~ 900  6100
NoConn ~ 900  6200
Wire Notes Line style solid rgb(132, 0, 0)
	1400 5550 400  5550
Text Notes 550  6350 0    50   ~ 0
debug power header
Wire Notes Line style solid rgb(132, 0, 0)
	1400 5550 1400 8000
Wire Bus Line
	950  6650 950  7900
Wire Bus Line
	6000 4250 6000 5900
$EndSCHEMATC
