EESchema Schematic File Version 4
LIBS:folder-cache
EELAYER 30 0
EELAYER END
$Descr USLetter 11000 8500
encoding utf-8
Sheet 1 1
Title ""
Date ""
Rev ""
Comp ""
Comment1 ""
Comment2 ""
Comment3 ""
Comment4 ""
$EndDescr
$Comp
L pspice:VSOURCE V1
U 1 1 5DB69F01
P 1100 2550
F 0 "V1" H 1328 2596 50  0000 L CNN
F 1 "12" H 1328 2505 50  0000 L CNN
F 2 "" H 1100 2550 50  0001 C CNN
F 3 "~" H 1100 2550 50  0001 C CNN
	1    1100 2550
	1    0    0    -1  
$EndComp
$Comp
L power:GND #PWR02
U 1 1 5DB6A314
P 1100 2900
F 0 "#PWR02" H 1100 2650 50  0001 C CNN
F 1 "GND" H 1105 2727 50  0000 C CNN
F 2 "" H 1100 2900 50  0001 C CNN
F 3 "" H 1100 2900 50  0001 C CNN
	1    1100 2900
	1    0    0    -1  
$EndComp
Wire Wire Line
	1100 2850 1100 2900
$Comp
L power:+12V #PWR01
U 1 1 5DB6ABBD
P 1100 2200
F 0 "#PWR01" H 1100 2050 50  0001 C CNN
F 1 "+12V" H 1115 2373 50  0000 C CNN
F 2 "" H 1100 2200 50  0001 C CNN
F 3 "" H 1100 2200 50  0001 C CNN
	1    1100 2200
	1    0    0    -1  
$EndComp
Wire Wire Line
	1100 2200 1100 2250
$Comp
L pspice:VSOURCE V2
U 1 1 5DB6B26C
P 1900 2550
F 0 "V2" H 2128 2596 50  0000 L CNN
F 1 "-5" H 2128 2505 50  0000 L CNN
F 2 "" H 1900 2550 50  0001 C CNN
F 3 "~" H 1900 2550 50  0001 C CNN
	1    1900 2550
	1    0    0    -1  
$EndComp
$Comp
L power:-5V #PWR04
U 1 1 5DB6BAA6
P 1900 2200
F 0 "#PWR04" H 1900 2300 50  0001 C CNN
F 1 "-5V" H 1800 2250 50  0000 C CNN
F 2 "" H 1900 2200 50  0001 C CNN
F 3 "" H 1900 2200 50  0001 C CNN
	1    1900 2200
	1    0    0    -1  
$EndComp
Wire Wire Line
	1900 2250 1900 2200
$Comp
L power:GND #PWR05
U 1 1 5DB6E87E
P 1900 2900
F 0 "#PWR05" H 1900 2650 50  0001 C CNN
F 1 "GND" H 1905 2727 50  0000 C CNN
F 2 "" H 1900 2900 50  0001 C CNN
F 3 "" H 1900 2900 50  0001 C CNN
	1    1900 2900
	1    0    0    -1  
$EndComp
Wire Wire Line
	1900 2850 1900 2900
Text Notes 4650 800  0    50   ~ 0
.tran 100u 3m
$Comp
L pspice:OPAMP U1
U 1 1 5DB6CCEF
P 2450 1250
F 0 "U1" H 2550 750 50  0000 C CNN
F 1 "OPAMP" H 2500 900 50  0000 C CNN
F 2 "" H 2450 1250 50  0001 C CNN
F 3 "~" H 2450 1250 50  0001 C CNN
F 4 "X" H 2450 1250 50  0001 C CNN "Spice_Primitive"
F 5 "LF356/NS" H 2450 1250 50  0001 C CNN "Spice_Model"
F 6 "Y" H 2450 1250 50  0001 C CNN "Spice_Netlist_Enabled"
F 7 "/Users/russruss/proj/poly_notes/notes/hardware/folder/LF356.MOD" H 2450 1250 50  0001 C CNN "Spice_Lib_File"
F 8 "1 2 4 5 3" H 2450 1250 50  0001 C CNN "Spice_Node_Sequence"
	1    2450 1250
	1    0    0    -1  
$EndComp
$Comp
L power:+12V #PWR07
U 1 1 5DB6CCFB
P 2350 900
F 0 "#PWR07" H 2350 750 50  0001 C CNN
F 1 "+12V" H 2365 1073 50  0000 C CNN
F 2 "" H 2350 900 50  0001 C CNN
F 3 "" H 2350 900 50  0001 C CNN
	1    2350 900 
	1    0    0    -1  
$EndComp
Wire Wire Line
	2350 900  2350 950 
$Comp
L power:-5V #PWR08
U 1 1 5DB6CD02
P 2350 1600
F 0 "#PWR08" H 2350 1700 50  0001 C CNN
F 1 "-5V" H 2250 1650 50  0000 C CNN
F 2 "" H 2350 1600 50  0001 C CNN
F 3 "" H 2350 1600 50  0001 C CNN
	1    2350 1600
	-1   0    0    1   
$EndComp
Wire Wire Line
	2350 1550 2350 1600
Wire Wire Line
	2050 1350 2100 1350
Wire Wire Line
	2200 1850 2100 1850
Wire Wire Line
	2100 1850 2100 1350
Connection ~ 2100 1350
Wire Wire Line
	2100 1350 2150 1350
Wire Wire Line
	2500 1850 2850 1850
Wire Wire Line
	2850 1850 2850 1250
Wire Wire Line
	2850 1250 2750 1250
Wire Wire Line
	2050 1150 2100 1150
Wire Wire Line
	2100 1150 2100 1050
Wire Wire Line
	2100 1050 2000 1050
Connection ~ 2100 1150
Wire Wire Line
	2100 1150 2150 1150
Wire Wire Line
	2100 1050 2150 1050
Connection ~ 2100 1050
Wire Wire Line
	2000 750  2000 700 
Wire Wire Line
	2150 700  2150 750 
Wire Wire Line
	2050 700  2050 650 
Wire Wire Line
	2000 700  2050 700 
Connection ~ 2050 700 
Wire Wire Line
	2050 700  2150 700 
$Comp
L power:GND #PWR06
U 1 1 5DB6CD40
P 2050 650
F 0 "#PWR06" H 2050 400 50  0001 C CNN
F 1 "GND" H 2055 477 50  0000 C CNN
F 2 "" H 2050 650 50  0001 C CNN
F 3 "" H 2050 650 50  0001 C CNN
	1    2050 650 
	-1   0    0    1   
$EndComp
$Comp
L power:GND #PWR03
U 1 1 5DB6DBEA
P 950 1800
F 0 "#PWR03" H 950 1550 50  0001 C CNN
F 1 "GND" H 955 1627 50  0000 C CNN
F 2 "" H 950 1800 50  0001 C CNN
F 3 "" H 950 1800 50  0001 C CNN
	1    950  1800
	1    0    0    -1  
$EndComp
Wire Wire Line
	950  1800 950  1750
Wire Wire Line
	950  1150 1450 1150
Wire Wire Line
	1450 1150 1450 1350
Wire Wire Line
	1450 1350 1750 1350
Wire Wire Line
	1450 1150 1750 1150
Connection ~ 1450 1150
$Comp
L pspice:OPAMP U2
U 1 1 5DB7B9A7
P 3950 1250
F 0 "U2" H 4050 750 50  0000 C CNN
F 1 "OPAMP" H 4000 900 50  0000 C CNN
F 2 "" H 3950 1250 50  0001 C CNN
F 3 "~" H 3950 1250 50  0001 C CNN
F 4 "X" H 3950 1250 50  0001 C CNN "Spice_Primitive"
F 5 "LF356/NS" H 3950 1250 50  0001 C CNN "Spice_Model"
F 6 "Y" H 3950 1250 50  0001 C CNN "Spice_Netlist_Enabled"
F 7 "/Users/russruss/proj/poly_notes/notes/hardware/folder/LF356.MOD" H 3950 1250 50  0001 C CNN "Spice_Lib_File"
F 8 "1 2 4 5 3" H 3950 1250 50  0001 C CNN "Spice_Node_Sequence"
	1    3950 1250
	1    0    0    -1  
$EndComp
$Comp
L power:+12V #PWR010
U 1 1 5DB7B9B3
P 3850 900
F 0 "#PWR010" H 3850 750 50  0001 C CNN
F 1 "+12V" H 3865 1073 50  0000 C CNN
F 2 "" H 3850 900 50  0001 C CNN
F 3 "" H 3850 900 50  0001 C CNN
	1    3850 900 
	1    0    0    -1  
$EndComp
Wire Wire Line
	3850 900  3850 950 
$Comp
L power:-5V #PWR011
U 1 1 5DB7B9BA
P 3850 1600
F 0 "#PWR011" H 3850 1700 50  0001 C CNN
F 1 "-5V" H 3750 1650 50  0000 C CNN
F 2 "" H 3850 1600 50  0001 C CNN
F 3 "" H 3850 1600 50  0001 C CNN
	1    3850 1600
	-1   0    0    1   
$EndComp
Wire Wire Line
	3850 1550 3850 1600
Wire Wire Line
	3550 1350 3600 1350
Wire Wire Line
	3700 1850 3600 1850
Wire Wire Line
	3600 1850 3600 1350
Connection ~ 3600 1350
Wire Wire Line
	3600 1350 3650 1350
Wire Wire Line
	4000 1850 4350 1850
Wire Wire Line
	4350 1850 4350 1350
Wire Wire Line
	4350 1250 4250 1250
Wire Wire Line
	3550 1150 3600 1150
Wire Wire Line
	3600 1150 3600 1050
Wire Wire Line
	3600 1050 3500 1050
Connection ~ 3600 1150
Wire Wire Line
	3600 1150 3650 1150
Wire Wire Line
	3600 1050 3650 1050
Connection ~ 3600 1050
Wire Wire Line
	3500 750  3500 700 
Wire Wire Line
	3650 700  3650 750 
Wire Wire Line
	3550 700  3550 650 
Wire Wire Line
	3500 700  3550 700 
Connection ~ 3550 700 
Wire Wire Line
	3550 700  3650 700 
$Comp
L power:GND #PWR09
U 1 1 5DB7B9F6
P 3550 650
F 0 "#PWR09" H 3550 400 50  0001 C CNN
F 1 "GND" H 3555 477 50  0000 C CNN
F 2 "" H 3550 650 50  0001 C CNN
F 3 "" H 3550 650 50  0001 C CNN
	1    3550 650 
	-1   0    0    1   
$EndComp
Wire Wire Line
	2950 1350 3250 1350
Wire Wire Line
	2950 1150 3250 1150
Wire Wire Line
	2850 1250 2950 1250
Wire Wire Line
	2950 1250 2950 1150
Connection ~ 2850 1250
Wire Wire Line
	2950 1250 2950 1350
Connection ~ 2950 1250
$Comp
L pspice:OPAMP U3
U 1 1 5DB7FBA1
P 5400 1250
F 0 "U3" H 5500 750 50  0000 C CNN
F 1 "OPAMP" H 5450 900 50  0000 C CNN
F 2 "" H 5400 1250 50  0001 C CNN
F 3 "~" H 5400 1250 50  0001 C CNN
F 4 "X" H 5400 1250 50  0001 C CNN "Spice_Primitive"
F 5 "LF356/NS" H 5400 1250 50  0001 C CNN "Spice_Model"
F 6 "Y" H 5400 1250 50  0001 C CNN "Spice_Netlist_Enabled"
F 7 "/Users/russruss/proj/poly_notes/notes/hardware/folder/LF356.MOD" H 5400 1250 50  0001 C CNN "Spice_Lib_File"
F 8 "1 2 4 5 3" H 5400 1250 50  0001 C CNN "Spice_Node_Sequence"
	1    5400 1250
	1    0    0    -1  
$EndComp
$Comp
L power:+12V #PWR013
U 1 1 5DB7FBB5
P 5300 900
F 0 "#PWR013" H 5300 750 50  0001 C CNN
F 1 "+12V" H 5315 1073 50  0000 C CNN
F 2 "" H 5300 900 50  0001 C CNN
F 3 "" H 5300 900 50  0001 C CNN
	1    5300 900 
	1    0    0    -1  
$EndComp
Wire Wire Line
	5300 900  5300 950 
$Comp
L power:-5V #PWR014
U 1 1 5DB7FBC0
P 5300 1600
F 0 "#PWR014" H 5300 1700 50  0001 C CNN
F 1 "-5V" H 5200 1650 50  0000 C CNN
F 2 "" H 5300 1600 50  0001 C CNN
F 3 "" H 5300 1600 50  0001 C CNN
	1    5300 1600
	-1   0    0    1   
$EndComp
Wire Wire Line
	5300 1550 5300 1600
Wire Wire Line
	5000 1350 5050 1350
Wire Wire Line
	5150 1850 5050 1850
Wire Wire Line
	5050 1850 5050 1350
Connection ~ 5050 1350
Wire Wire Line
	5050 1350 5100 1350
Wire Wire Line
	5450 1850 5800 1850
Wire Wire Line
	5800 1850 5800 1350
Wire Wire Line
	5800 1250 5700 1250
Wire Wire Line
	5000 1150 5050 1150
Wire Wire Line
	5050 1150 5050 1050
Wire Wire Line
	5050 1050 4950 1050
Connection ~ 5050 1150
Wire Wire Line
	5050 1150 5100 1150
Wire Wire Line
	5050 1050 5100 1050
Connection ~ 5050 1050
Wire Wire Line
	4950 750  4950 700 
Wire Wire Line
	5100 700  5100 750 
Wire Wire Line
	5000 700  5000 650 
Wire Wire Line
	4950 700  5000 700 
Connection ~ 5000 700 
Wire Wire Line
	5000 700  5100 700 
$Comp
L power:GND #PWR012
U 1 1 5DB7FC10
P 5000 650
F 0 "#PWR012" H 5000 400 50  0001 C CNN
F 1 "GND" H 5005 477 50  0000 C CNN
F 2 "" H 5000 650 50  0001 C CNN
F 3 "" H 5000 650 50  0001 C CNN
	1    5000 650 
	-1   0    0    1   
$EndComp
Wire Wire Line
	4350 1250 4350 1150
Wire Wire Line
	4350 1150 4700 1150
Connection ~ 4350 1250
Wire Wire Line
	4350 1350 4700 1350
Connection ~ 4350 1350
Wire Wire Line
	4350 1350 4350 1250
$Comp
L pspice:OPAMP U4
U 1 1 5DB8AFB1
P 6850 1450
F 0 "U4" H 6950 950 50  0000 C CNN
F 1 "OPAMP" H 6900 1100 50  0000 C CNN
F 2 "" H 6850 1450 50  0001 C CNN
F 3 "~" H 6850 1450 50  0001 C CNN
F 4 "X" H 6850 1450 50  0001 C CNN "Spice_Primitive"
F 5 "LF356/NS" H 6850 1450 50  0001 C CNN "Spice_Model"
F 6 "Y" H 6850 1450 50  0001 C CNN "Spice_Netlist_Enabled"
F 7 "/Users/russruss/proj/poly_notes/notes/hardware/folder/LF356.MOD" H 6850 1450 50  0001 C CNN "Spice_Lib_File"
F 8 "1 2 4 5 3" H 6850 1450 50  0001 C CNN "Spice_Node_Sequence"
	1    6850 1450
	1    0    0    -1  
$EndComp
$Comp
L power:+12V #PWR016
U 1 1 5DB8AFC5
P 6750 1100
F 0 "#PWR016" H 6750 950 50  0001 C CNN
F 1 "+12V" H 6765 1273 50  0000 C CNN
F 2 "" H 6750 1100 50  0001 C CNN
F 3 "" H 6750 1100 50  0001 C CNN
	1    6750 1100
	1    0    0    -1  
$EndComp
Wire Wire Line
	6750 1100 6750 1150
$Comp
L power:-5V #PWR017
U 1 1 5DB8AFD0
P 6750 1800
F 0 "#PWR017" H 6750 1900 50  0001 C CNN
F 1 "-5V" H 6650 1850 50  0000 C CNN
F 2 "" H 6750 1800 50  0001 C CNN
F 3 "" H 6750 1800 50  0001 C CNN
	1    6750 1800
	-1   0    0    1   
$EndComp
Wire Wire Line
	6750 1750 6750 1800
Connection ~ 5800 1350
Wire Wire Line
	5800 1350 5800 1250
Wire Wire Line
	5800 1350 5900 1350
Wire Wire Line
	6300 1650 6400 1650
Wire Wire Line
	6400 1650 6400 1750
Connection ~ 6400 1650
Wire Wire Line
	6400 1650 6450 1650
$Comp
L power:GND #PWR015
U 1 1 5DBF3E60
P 6400 1750
F 0 "#PWR015" H 6400 1500 50  0001 C CNN
F 1 "GND" H 6405 1577 50  0000 C CNN
F 2 "" H 6400 1750 50  0001 C CNN
F 3 "" H 6400 1750 50  0001 C CNN
	1    6400 1750
	1    0    0    -1  
$EndComp
Wire Wire Line
	6550 1550 6550 2000
Wire Wire Line
	7200 2000 7200 1450
Wire Wire Line
	7200 1450 7150 1450
Wire Wire Line
	6700 2000 6550 2000
Wire Wire Line
	7000 2000 7200 2000
$Comp
L Device:R_US R10
U 1 1 5DBFF06A
P 6550 2200
F 0 "R10" V 6500 2300 50  0000 C CNN
F 1 "100k" V 6500 2050 50  0000 C CNN
F 2 "" V 6590 2190 50  0001 C CNN
F 3 "~" H 6550 2200 50  0001 C CNN
	1    6550 2200
	1    0    0    -1  
$EndComp
Wire Wire Line
	6550 2050 6550 2000
Connection ~ 6550 2000
$Comp
L power:GND #PWR018
U 1 1 5DC01940
P 6550 2400
F 0 "#PWR018" H 6550 2150 50  0001 C CNN
F 1 "GND" H 6555 2227 50  0000 C CNN
F 2 "" H 6550 2400 50  0001 C CNN
F 3 "" H 6550 2400 50  0001 C CNN
	1    6550 2400
	1    0    0    -1  
$EndComp
Wire Wire Line
	6550 2350 6550 2400
$Comp
L pspice:VSOURCE V3
U 1 1 5DB6D05E
P 950 1450
F 0 "V3" H 1178 1496 50  0000 L CNN
F 1 "PULSE(-3 3 0 1m 1m 1e-10 2m)" H 1178 1405 50  0000 L CNN
F 2 "" H 950 1450 50  0001 C CNN
F 3 "~" H 950 1450 50  0001 C CNN
	1    950  1450
	1    0    0    -1  
$EndComp
$Comp
L Device:R_US R12
U 1 1 5DBFACF8
P 6850 2000
F 0 "R12" V 6800 2100 50  0000 C CNN
F 1 "430k" V 6800 1850 50  0000 C CNN
F 2 "" V 6890 1990 50  0001 C CNN
F 3 "~" H 6850 2000 50  0001 C CNN
	1    6850 2000
	0    -1   -1   0   
$EndComp
$Comp
L Device:R_US R11
U 1 1 5DB8AFBB
P 6050 1350
F 0 "R11" V 6000 1450 50  0000 C CNN
F 1 "10k" V 6000 1200 50  0000 C CNN
F 2 "" V 6090 1340 50  0001 C CNN
F 3 "~" H 6050 1350 50  0001 C CNN
	1    6050 1350
	0    -1   -1   0   
$EndComp
$Comp
L Device:R_US R9
U 1 1 5DB7FBCC
P 5300 1850
F 0 "R9" V 5250 1950 50  0000 C CNN
F 1 "120k" V 5250 1700 50  0000 C CNN
F 2 "" V 5340 1840 50  0001 C CNN
F 3 "~" H 5300 1850 50  0001 C CNN
	1    5300 1850
	0    -1   -1   0   
$EndComp
$Comp
L Device:R_US R8
U 1 1 5DB7FBAB
P 4850 1350
F 0 "R8" V 4800 1450 50  0000 C CNN
F 1 "100k" V 4800 1200 50  0000 C CNN
F 2 "" V 4890 1340 50  0001 C CNN
F 3 "~" H 4850 1350 50  0001 C CNN
	1    4850 1350
	0    -1   -1   0   
$EndComp
$Comp
L Device:R_US R7
U 1 1 5DB7FBDD
P 4850 1150
F 0 "R7" V 4800 1250 50  0000 C CNN
F 1 "10k" V 4800 1000 50  0000 C CNN
F 2 "" V 4890 1140 50  0001 C CNN
F 3 "~" H 4850 1150 50  0001 C CNN
	1    4850 1150
	0    -1   -1   0   
$EndComp
$Comp
L Device:R_US R6
U 1 1 5DB7B9C2
P 3850 1850
F 0 "R6" V 3800 1950 50  0000 C CNN
F 1 "120k" V 3800 1700 50  0000 C CNN
F 2 "" V 3890 1840 50  0001 C CNN
F 3 "~" H 3850 1850 50  0001 C CNN
	1    3850 1850
	0    -1   -1   0   
$EndComp
$Comp
L Device:R_US R5
U 1 1 5DB7B9AD
P 3400 1350
F 0 "R5" V 3350 1450 50  0000 C CNN
F 1 "100k" V 3350 1200 50  0000 C CNN
F 2 "" V 3440 1340 50  0001 C CNN
F 3 "~" H 3400 1350 50  0001 C CNN
	1    3400 1350
	0    -1   -1   0   
$EndComp
$Comp
L Device:R_US R4
U 1 1 5DB7B9CF
P 3400 1150
F 0 "R4" V 3350 1250 50  0000 C CNN
F 1 "10k" V 3350 1000 50  0000 C CNN
F 2 "" V 3440 1140 50  0001 C CNN
F 3 "~" H 3400 1150 50  0001 C CNN
	1    3400 1150
	0    -1   -1   0   
$EndComp
$Comp
L Device:R_US R3
U 1 1 5DB6CD0B
P 2350 1850
F 0 "R3" V 2300 1950 50  0000 C CNN
F 1 "120k" V 2300 1700 50  0000 C CNN
F 2 "" V 2390 1840 50  0001 C CNN
F 3 "~" H 2350 1850 50  0001 C CNN
	1    2350 1850
	0    -1   -1   0   
$EndComp
$Comp
L Device:R_US R2
U 1 1 5DB6CCF5
P 1900 1350
F 0 "R2" V 1850 1450 50  0000 C CNN
F 1 "100k" V 1850 1200 50  0000 C CNN
F 2 "" V 1940 1340 50  0001 C CNN
F 3 "~" H 1900 1350 50  0001 C CNN
	1    1900 1350
	0    -1   -1   0   
$EndComp
$Comp
L Device:R_US R1
U 1 1 5DB6CD18
P 1900 1150
F 0 "R1" V 1850 1250 50  0000 C CNN
F 1 "10k" V 1850 1000 50  0000 C CNN
F 2 "" V 1940 1140 50  0001 C CNN
F 3 "~" H 1900 1150 50  0001 C CNN
	1    1900 1150
	0    -1   -1   0   
$EndComp
Wire Wire Line
	6200 1350 6300 1350
$Comp
L Device:D D1
U 1 1 5DC2779C
P 2000 900
F 0 "D1" V 1954 979 50  0000 L CNN
F 1 "D" V 2045 979 50  0000 L CNN
F 2 "" H 2000 900 50  0001 C CNN
F 3 "~" H 2000 900 50  0001 C CNN
F 4 "X" H 2000 900 50  0001 C CNN "Spice_Primitive"
F 5 "mm3z3v0t1g" H 2000 900 50  0001 C CNN "Spice_Model"
F 6 "Y" H 2000 900 50  0001 C CNN "Spice_Netlist_Enabled"
F 7 "mmz3.lib" H 2000 900 50  0001 C CNN "Spice_Lib_File"
	1    2000 900 
	0    1    1    0   
$EndComp
Connection ~ 2000 700 
$Comp
L Device:D D2
U 1 1 5DC283A5
P 2150 900
F 0 "D2" V 2196 821 50  0000 R CNN
F 1 "D" V 2105 821 50  0000 R CNN
F 2 "" H 2150 900 50  0001 C CNN
F 3 "~" H 2150 900 50  0001 C CNN
F 4 "X" H 2150 900 50  0001 C CNN "Spice_Primitive"
F 5 "mm3z3v0t1g" H 2150 900 50  0001 C CNN "Spice_Model"
F 6 "Y" H 2150 900 50  0001 C CNN "Spice_Netlist_Enabled"
F 7 "mmz3.lib" H 2150 900 50  0001 C CNN "Spice_Lib_File"
	1    2150 900 
	0    -1   -1   0   
$EndComp
$Comp
L Device:D D3
U 1 1 5DC28913
P 3500 900
F 0 "D3" V 3454 979 50  0000 L CNN
F 1 "D" V 3545 979 50  0000 L CNN
F 2 "" H 3500 900 50  0001 C CNN
F 3 "~" H 3500 900 50  0001 C CNN
F 4 "X" H 3500 900 50  0001 C CNN "Spice_Primitive"
F 5 "mm3z3v0t1g" H 3500 900 50  0001 C CNN "Spice_Model"
F 6 "Y" H 3500 900 50  0001 C CNN "Spice_Netlist_Enabled"
F 7 "mmz3.lib" H 3500 900 50  0001 C CNN "Spice_Lib_File"
	1    3500 900 
	0    1    1    0   
$EndComp
$Comp
L Device:D D4
U 1 1 5DC28D88
P 3650 900
F 0 "D4" V 3696 821 50  0000 R CNN
F 1 "D" V 3605 821 50  0000 R CNN
F 2 "" H 3650 900 50  0001 C CNN
F 3 "~" H 3650 900 50  0001 C CNN
F 4 "X" H 3650 900 50  0001 C CNN "Spice_Primitive"
F 5 "mm3z3v0t1g" H 3650 900 50  0001 C CNN "Spice_Model"
F 6 "Y" H 3650 900 50  0001 C CNN "Spice_Netlist_Enabled"
F 7 "mmz3.lib" H 3650 900 50  0001 C CNN "Spice_Lib_File"
	1    3650 900 
	0    -1   -1   0   
$EndComp
$Comp
L Device:D D5
U 1 1 5DC2905B
P 4950 900
F 0 "D5" V 4996 821 50  0000 R CNN
F 1 "D" V 4905 821 50  0000 R CNN
F 2 "" H 4950 900 50  0001 C CNN
F 3 "~" H 4950 900 50  0001 C CNN
F 4 "X" H 4950 900 50  0001 C CNN "Spice_Primitive"
F 5 "mm3z3v0t1g" H 4950 900 50  0001 C CNN "Spice_Model"
F 6 "Y" H 4950 900 50  0001 C CNN "Spice_Netlist_Enabled"
F 7 "mmz3.lib" H 4950 900 50  0001 C CNN "Spice_Lib_File"
	1    4950 900 
	0    -1   -1   0   
$EndComp
$Comp
L Device:D D6
U 1 1 5DC2959B
P 5100 900
F 0 "D6" V 5054 979 50  0000 L CNN
F 1 "D" V 5145 979 50  0000 L CNN
F 2 "" H 5100 900 50  0001 C CNN
F 3 "~" H 5100 900 50  0001 C CNN
F 4 "X" H 5100 900 50  0001 C CNN "Spice_Primitive"
F 5 "mm3z3v0t1g" H 5100 900 50  0001 C CNN "Spice_Model"
F 6 "Y" H 5100 900 50  0001 C CNN "Spice_Netlist_Enabled"
F 7 "mmz3.lib" H 5100 900 50  0001 C CNN "Spice_Lib_File"
	1    5100 900 
	0    1    1    0   
$EndComp
$Comp
L Device:D D7
U 1 1 5DC297DD
P 6300 1500
F 0 "D7" V 6346 1421 50  0000 R CNN
F 1 "D" V 6255 1421 50  0000 R CNN
F 2 "" H 6300 1500 50  0001 C CNN
F 3 "~" H 6300 1500 50  0001 C CNN
F 4 "X" H 6300 1500 50  0001 C CNN "Spice_Primitive"
F 5 "mm3z3v0t1g" H 6300 1500 50  0001 C CNN "Spice_Model"
F 6 "Y" H 6300 1500 50  0001 C CNN "Spice_Netlist_Enabled"
F 7 "mmz3.lib" H 6300 1500 50  0001 C CNN "Spice_Lib_File"
	1    6300 1500
	0    -1   -1   0   
$EndComp
Connection ~ 6300 1350
Wire Wire Line
	6300 1350 6450 1350
$Comp
L Device:D D8
U 1 1 5DC29E98
P 6450 1500
F 0 "D8" V 6404 1579 50  0000 L CNN
F 1 "D" V 6495 1579 50  0000 L CNN
F 2 "" H 6450 1500 50  0001 C CNN
F 3 "~" H 6450 1500 50  0001 C CNN
F 4 "X" H 6450 1500 50  0001 C CNN "Spice_Primitive"
F 5 "mm3z3v0t1g" H 6450 1500 50  0001 C CNN "Spice_Model"
F 6 "Y" H 6450 1500 50  0001 C CNN "Spice_Netlist_Enabled"
F 7 "mmz3.lib" H 6450 1500 50  0001 C CNN "Spice_Lib_File"
	1    6450 1500
	0    1    1    0   
$EndComp
Connection ~ 6450 1350
Wire Wire Line
	6450 1350 6550 1350
$EndSCHEMATC
