EESchema Schematic File Version 4
EELAYER 30 0
EELAYER END
$Descr USLetter 11000 8500
encoding utf-8
Sheet 1 1
Title ""
Date ""
Rev ""
Comp ""
Comment1 ""
Comment2 ""
Comment3 ""
Comment4 ""
$EndDescr
$Comp
L pspice:OPAMP U1
U 1 1 5DC748B3
P 2650 1400
F 0 "U1" H 2994 1446 50  0000 L CNN
F 1 "OPAMP" H 2994 1355 50  0000 L CNN
F 2 "" H 2650 1400 50  0001 C CNN
F 3 "~" H 2650 1400 50  0001 C CNN
F 4 "X" H 2650 1400 50  0001 C CNN "Spice_Primitive"
F 5 "LF356/NS" H 2650 1400 50  0001 C CNN "Spice_Model"
F 6 "Y" H 2650 1400 50  0001 C CNN "Spice_Netlist_Enabled"
F 7 "1 2 4 5 3" H 2650 1400 50  0001 C CNN "Spice_Node_Sequence"
F 8 "LF356.MOD" H 2650 1400 50  0001 C CNN "Spice_Lib_File"
	1    2650 1400
	1    0    0    -1  
$EndComp
Wire Wire Line
	2300 1500 2300 2050
Wire Wire Line
	2300 2050 2950 2050
Wire Wire Line
	2950 2050 2950 1400
Wire Wire Line
	2300 1500 2350 1500
Wire Wire Line
	2950 1400 3150 1400
Connection ~ 2950 1400
Text GLabel 3250 1400 2    50   Input ~ 0
OUT
$Comp
L power:-5V #PWR02
U 1 1 5DC75F49
P 2550 1750
F 0 "#PWR02" H 2550 1850 50  0001 C CNN
F 1 "-5V" H 2565 1923 50  0000 C CNN
F 2 "" H 2550 1750 50  0001 C CNN
F 3 "" H 2550 1750 50  0001 C CNN
	1    2550 1750
	-1   0    0    1   
$EndComp
Wire Wire Line
	2550 1700 2550 1750
$Comp
L power:+12V #PWR01
U 1 1 5DC762D7
P 2550 1050
F 0 "#PWR01" H 2550 900 50  0001 C CNN
F 1 "+12V" H 2565 1223 50  0000 C CNN
F 2 "" H 2550 1050 50  0001 C CNN
F 3 "" H 2550 1050 50  0001 C CNN
	1    2550 1050
	1    0    0    -1  
$EndComp
Wire Wire Line
	2550 1050 2550 1100
$Comp
L pspice:VSOURCE V1
U 1 1 5DC76BA7
P 3200 2500
F 0 "V1" H 3428 2546 50  0000 L CNN
F 1 "12" H 3428 2455 50  0000 L CNN
F 2 "" H 3200 2500 50  0001 C CNN
F 3 "~" H 3200 2500 50  0001 C CNN
	1    3200 2500
	1    0    0    -1  
$EndComp
$Comp
L pspice:VSOURCE V2
U 1 1 5DC76F75
P 4050 2500
F 0 "V2" H 4278 2546 50  0000 L CNN
F 1 "-5" H 4278 2455 50  0000 L CNN
F 2 "" H 4050 2500 50  0001 C CNN
F 3 "~" H 4050 2500 50  0001 C CNN
	1    4050 2500
	1    0    0    -1  
$EndComp
$Comp
L power:GND #PWR04
U 1 1 5DC77CF8
P 3200 2850
F 0 "#PWR04" H 3200 2600 50  0001 C CNN
F 1 "GND" H 3205 2677 50  0000 C CNN
F 2 "" H 3200 2850 50  0001 C CNN
F 3 "" H 3200 2850 50  0001 C CNN
	1    3200 2850
	1    0    0    -1  
$EndComp
Wire Wire Line
	3200 2800 3200 2850
$Comp
L power:GND #PWR06
U 1 1 5DC77F9C
P 4050 2850
F 0 "#PWR06" H 4050 2600 50  0001 C CNN
F 1 "GND" H 4055 2677 50  0000 C CNN
F 2 "" H 4050 2850 50  0001 C CNN
F 3 "" H 4050 2850 50  0001 C CNN
	1    4050 2850
	1    0    0    -1  
$EndComp
Wire Wire Line
	4050 2800 4050 2850
$Comp
L power:+12V #PWR03
U 1 1 5DC783CC
P 3200 2150
F 0 "#PWR03" H 3200 2000 50  0001 C CNN
F 1 "+12V" H 3215 2323 50  0000 C CNN
F 2 "" H 3200 2150 50  0001 C CNN
F 3 "" H 3200 2150 50  0001 C CNN
	1    3200 2150
	1    0    0    -1  
$EndComp
Wire Wire Line
	3200 2150 3200 2200
$Comp
L power:-5V #PWR05
U 1 1 5DC789FD
P 4050 2150
F 0 "#PWR05" H 4050 2250 50  0001 C CNN
F 1 "-5V" H 4065 2323 50  0000 C CNN
F 2 "" H 4050 2150 50  0001 C CNN
F 3 "" H 4050 2150 50  0001 C CNN
	1    4050 2150
	1    0    0    -1  
$EndComp
Wire Wire Line
	4050 2150 4050 2200
$Comp
L pspice:VSOURCE V3
U 1 1 5DC7CB27
P 5000 2500
F 0 "V3" H 5228 2546 50  0000 L CNN
F 1 "pulse(0 3.3 0 0 0 5us 15us)" H 5228 2455 50  0000 L CNN
F 2 "" H 5000 2500 50  0001 C CNN
F 3 "~" H 5000 2500 50  0001 C CNN
	1    5000 2500
	1    0    0    -1  
$EndComp
$Comp
L power:GND #PWR07
U 1 1 5DC7D1D1
P 5000 2850
F 0 "#PWR07" H 5000 2600 50  0001 C CNN
F 1 "GND" H 5005 2677 50  0000 C CNN
F 2 "" H 5000 2850 50  0001 C CNN
F 3 "" H 5000 2850 50  0001 C CNN
	1    5000 2850
	1    0    0    -1  
$EndComp
Wire Wire Line
	5000 2800 5000 2850
Wire Wire Line
	5000 2200 5000 2100
Text GLabel 5000 2100 1    50   Input ~ 0
IN
Text GLabel 800  1300 0    50   Input ~ 0
IN
Text Notes 3700 1550 0    50   ~ 0
.tran 100ns 1ms
$Comp
L Device:R_US R1
U 1 1 5DC7E65F
P 1000 1300
F 0 "R1" V 795 1300 50  0000 C CNN
F 1 "62k" V 886 1300 50  0000 C CNN
F 2 "" V 1040 1290 50  0001 C CNN
F 3 "~" H 1000 1300 50  0001 C CNN
	1    1000 1300
	0    1    1    0   
$EndComp
$Comp
L Device:C C2
U 1 1 5DC7FCC4
P 2100 750
F 0 "C2" V 1950 650 50  0000 C CNN
F 1 "1nF" V 2000 900 50  0000 C CNN
F 2 "" H 2138 600 50  0001 C CNN
F 3 "~" H 2100 750 50  0001 C CNN
	1    2100 750 
	0    1    1    0   
$EndComp
Wire Wire Line
	2250 750  3150 750 
Wire Wire Line
	3150 750  3150 1400
Connection ~ 3150 1400
Wire Wire Line
	3150 1400 3250 1400
Wire Wire Line
	1950 750  1250 750 
Wire Wire Line
	1250 750  1250 1300
Wire Wire Line
	1250 1300 1150 1300
Wire Wire Line
	800  1300 850  1300
$Comp
L Device:R_US R2
U 1 1 5DC80988
P 1500 1300
F 0 "R2" V 1295 1300 50  0000 C CNN
F 1 "36k" V 1386 1300 50  0000 C CNN
F 2 "" V 1540 1290 50  0001 C CNN
F 3 "~" H 1500 1300 50  0001 C CNN
	1    1500 1300
	0    1    1    0   
$EndComp
Wire Wire Line
	1250 1300 1350 1300
Connection ~ 1250 1300
$Comp
L Device:C C1
U 1 1 5DC81040
P 1750 1500
F 0 "C1" V 1600 1400 50  0000 C CNN
F 1 "470pF" V 1600 1700 50  0000 C CNN
F 2 "" H 1788 1350 50  0001 C CNN
F 3 "~" H 1750 1500 50  0001 C CNN
	1    1750 1500
	-1   0    0    1   
$EndComp
Wire Wire Line
	1650 1300 1750 1300
Wire Wire Line
	1750 1300 2350 1300
Connection ~ 1750 1300
Wire Wire Line
	1750 1300 1750 1350
$Comp
L power:GND #PWR08
U 1 1 5DC827CB
P 1750 1700
F 0 "#PWR08" H 1750 1450 50  0001 C CNN
F 1 "GND" H 1755 1527 50  0000 C CNN
F 2 "" H 1750 1700 50  0001 C CNN
F 3 "" H 1750 1700 50  0001 C CNN
	1    1750 1700
	1    0    0    -1  
$EndComp
Wire Wire Line
	1750 1650 1750 1700
$EndSCHEMATC
